training data,label
"áp dụng nhiều kinh nghiệm thực tế, làm sao để sinh viên hiều bản chất của vấn đề học",phương pháp
Thầy truyền đạt nội dung rõ ràng,phương pháp
"Thầy dạy dễ hiểu,",phương pháp
Nhiệt tình và giảng dạy dễ hiểu bài,phương pháp
Dạy dễ hiểu,phương pháp
Dạy dễ hiểu,phương pháp
"Thầy luôn tâm huyết với sinh viên cũng như cách như cách dạy của thầy, thầy luôn đưa ra những gợi ý về những cái gì nên học để sinh viên tìm hiểu, thầy hay kể chuyện để giảm bớt căng thẳng trong giờ học cũng như lấy đó làm gương cho sinh viên. Người khác nói thầy luôn dạy nặng về lý thuyết nhưng em thấy điều đó là tốt và luôn ủng hộ cách dạy của thầy, phải có kiến thức nền tảng vững thì mới làm được tốt.",phương pháp
"Trong suốt quá trình giảng dạy học phần, giảng viên luôn hăng say năng nổ và luôn cố gắng tạo sự thích thú đối với học phần cho sinh viên.",phương pháp
thầy giúp sinh viên giải bài tập tại lớp,phương pháp
"Dạy rất tích cực,dễ hiểu ,tận tâm",phương pháp
giảng dễ hiểu,phương pháp
Dạy lôi cuốn,phương pháp
Dễ hiểu,phương pháp
Dễ hiểu,phương pháp
"Nhiệt tình,kiến thức giảng dạy có liên hệ nhiều với thực tế,giúp sv thoải mái và tiếp thu kiến thức nhanh ngay tại lớp",phương pháp
Thầy rất nhiệt tình trong giảng dạy. Luôn tạo được sự thích thú cho Sv trong quá trình thấy giảng dạy.,phương pháp
Dạy nhiệt tình. Giảng bài dễ hiểu và có phương pháp dạy hay,phương pháp
"thầu rất nhiệt tình, vui vẻ, giảng bài dễ hiểu",phương pháp
"giảng bài dễ hiểu, thân thiện sinh viên",phương pháp
"Thầy nói to, diễn đạt dễ hiểu",phương pháp
Dạy tốt,phương pháp
Dạy tốt,phương pháp
Dạy tốt,phương pháp
Dễ hiểu,phương pháp
"cô rất vui vẻ, nhiệt tình, phương pháp giảng dạy rất hay và hứng thú",phương pháp
"Cô rất nhiệt tình, cách truyền đạt rõ ràng",phương pháp
"Cô vui tính, dạy dễ hiểu,dễ tiếp thu",phương pháp
"Cô giảng to, rõ. Dễ hiểu",phương pháp
"cô vui vẻ, dạy hay",phương pháp
"Thầy giảng bài dễ hiểu, luôn luôn ôn lại bài cũ trước trong quá trình học bài mới.",phương pháp
"thầy nhiêt tình vui vẻ, hòa đồng, giảng dẽ hiểu",phương pháp
Giảng dạy dễ hiểu sinh viên tiếp thu dễ dàng,phương pháp
Quan tâm sinh viên giảng dễ hiểu,phương pháp
Thầy giảng bài rất dễ hiểu,phương pháp
Giảng dễ hiểu rõ ràng,phương pháp
"Dạy dễ hiểu, học gì ra nấy, nhiệt tình",phương pháp
Thầy tận tâm với SV Giảng bài dễ hiểuk,phương pháp
"Thầy dạy dễ hiểu, dễ tiếp thu bài",phương pháp
hướng dẫn rất kĩ các dạng bài tập,phương pháp
Thầy giảng hay dễ hiểu,phương pháp
"Dạy dễ hiểu, to rõ",phương pháp
hiền lành dạy hay,phương pháp
thầy dạy dễ hiểu,phương pháp
Giảng dễ hiểu,phương pháp
"Hiền, giảng dễ hiểu",phương pháp
Dạy giỏi,phương pháp
dạy hay,phương pháp
dạy tốt,phương pháp
dễ hiểu,phương pháp
Dạy tốt,phương pháp
"Cách giảng của thầy ngắn gọn dễ hiểu, học gì kiểm tra đó",phương pháp
Thầy dạy đầy đủ kiên thức,phương pháp
Giảng hay,phương pháp
Dể hiểu,phương pháp
dạy hay,phương pháp
dạy dể hiểu,phương pháp
Dễ hiểu,phương pháp
"Thầy giảng dạy tốt , nhiệt tình , truyền đạt kiến thức hay",phương pháp
Hài hước gần với môn học liên hệ thực tế gần gũi nhiệt tình tự tin khen thầy đẹp trai,phương pháp
"thầy vui vẻ , hòa đồng , truyền đạt nội dung hay",phương pháp
Gần gũi với sinh viên giảng bài dễ hiểu vui vẻ,phương pháp
có sức hút khi giảng dạy,phương pháp
Dể hiểu,phương pháp
Dể hiểu,phương pháp
tích cực giảng dạy cho sinh viên,phương pháp
"Giảng dạy dễ hiểu,tận tâm",phương pháp
"Giảng dạy dễ hiểu,tận tâm",phương pháp
GV giảng dạy hiệu quả,phương pháp
Giảng dạy chi tiết,phương pháp
Đề cập thực tế,phương pháp
Thầy rất nhiệt tình và giảng dạy chi tiết làm việc tiếp thu bài của sinh viên được tốt hơn rất nhiều.,phương pháp
giảng dạy đúng trọng tâm bài,phương pháp
truyền đạt kiến thức tốt,phương pháp
Dạy dễ hiểu,phương pháp
"Giảng viên dạy hay, dễ hiểu.",phương pháp
Cứ tiếp tục phát huy! Thầy dạy được lắm đấy!:)),phương pháp
Thầy dạy rất dễ hiểu,phương pháp
"Truyền tải dễ hiểu, nói tiếng anh lưu loát",phương pháp
thầy dạy dễ hiểu,phương pháp
"Có trách nhiệm, dạy nhiệt tình, liên hệ với thực tế rất nhiều",phương pháp
Nhiệt tình tận tâm giảng dễ hiểu,phương pháp
"giảng dạy nhẹ nhàng, dễ hiểu.",phương pháp
thầy dạy dễ hiểu nhiệt tình,phương pháp
Giảng dạy dễ hiểu,phương pháp
thầy dạy dễ hiểu,phương pháp
"Dẫn dắt hay, dạy dễ hiểu",phương pháp
thầy dạy rất hay,phương pháp
Truyền đạt rõ ràng,phương pháp
Bình thường,phương pháp
"cách dạy mới mẻ, nhiều thông tin thực tế",phương pháp
Cung cấp kiến thức ngành và liên ngành,phương pháp
Giảng bài hay,phương pháp
Cô luôn là một người truyền lửa cho sinh viên.,phương pháp
Thầy dạy rất có hứnng thú. Thường xuyên chia sẻ kinh nghiệm. Giảng dạy nhiệt tình,phương pháp
thầy có cách dạy rất hay,phương pháp
Dạy tốt,phương pháp
Thầy không những truyền kiến thức mà còn truyền cả kĩ năng có ích cho nghề nghiệp của sinh viên du lịch sau này.,phương pháp
Sinh viên học được nhiều kỹ năng trong ngành lẫn cuppjc sốngp,phương pháp
giáo viên giảng dạy dễ hiểu,phương pháp
"Giảng viên vui tính, cung cấp nhiều thông tin bổ ích, thực tế cho sinh viên",phương pháp
Hiền lành thân thiện giảng bài dễ hiểu,phương pháp
cô cung cấp rất nhiều kiến thức thực tế,phương pháp
"truyền đạt kiến thức đầy đủ, dễ hiểu",phương pháp
"nhiệt tình, vui tính, có trách nhiệm, phương pháp truyền đạt dễ hiểu, chia sẽ nhiều kinh nghiệm thực tế.",phương pháp
dẫn ra nhiều ví dụ điển hình cho các trường hợp,phương pháp
giáo viên giảng dạy dễ hiểu,phương pháp
"Giảng bài rõ ràng, nhiệt tình, có tương tác với sinh viên",phương pháp
Giảng viên vui vẻ. Giảng bài hay,phương pháp
Giảng viên dạy dễ hiểu sinh viên nhanh tiếp thu sôi nổi giảng dạy có tương tác nhiều với sinh viên tạo nhiều hứng thú trong giờ học tạo nhiều điệu khiên đặt câu hoỉ cho sinh viên kiếm điểm,phương pháp
"nhiệt tình, giảng dạy dễ hiểu",phương pháp
"nhiệt tình, vui tính, phương pháp truyền đạt dễ hiểu, thường xuyên liên hệ kiến thức với thực tiễn, có trách nhiệm.",phương pháp
"Tiết học của thầy vô cùng thu hút,thầy guảng rất nhiệt tình lấy vô cùng nhiều lý thuyết thực tế vào bài giảng ạ",phương pháp
Thầy giảng bài liên hệ nhiều kiến thức thực tế Và phong cách giang dạy rất vui vẻ,phương pháp
"Vui vẻ, hài hước, hòa đồng, nhiệt huyết, liên hệ thực tế rất hay",phương pháp
Thầy rất thân thiện giúp cho sinh viên có hứng thú khi học học phần này,phương pháp
"Cách truyền đạt của thầy rất hấp dẫn, cụ thể, thực tế, dễ hiểu.",phương pháp
liên hệ nhiều thực tiễn trong quá trình giảng dạy môn học,phương pháp
vui vẻ hòa đồng dạy dễ hiểu tạo được không khí sôi nổi,phương pháp
liên hệ thực tiễn rất nhiều gây hứng thú trong giờ học,phương pháp
"Thầy dạy nhiệt tình, giảng dạy nhiều kiến thức hay",phương pháp
Dễ hiểu rất nhiệt tình với sinh viên,phương pháp
Cô dạy dễ hiểu và rất nhiệt tình.,phương pháp
"Giảng rõ ràng dễ hiểu, nhiệt tình",phương pháp
"nhiệt tình,truyền đạt dễ hiểu",phương pháp
Cô giảng bài rất dễ hiểu,phương pháp
"Cô dạy hay, dễ hiểu",phương pháp
giảng cái hiểu liền,phương pháp
không có ý kiến gì,phương pháp
Giảng dạy tỉ mỉ,phương pháp
Thường xuyên liên hệ thực tiễn,phương pháp
Giáo viên dạy tận tình dễ hiểu,phương pháp
Thầy giảng bài cụ thể dễ hiểu,phương pháp
Tiết học của thầy rất thú vị,phương pháp
Thầy hay liên hệ thực tế,phương pháp
"giảng bài dễ hiểu, kỹ càng",phương pháp
Thầy dạy dễ hiểu,phương pháp
"Có liên hệ thực tế, kết hợp trò chowitrong giảng dạy",phương pháp
phương pháp cô dạy rất dể hiểu !! hay,phương pháp
Gv kiên nhẫn khi giảng giải cho sv,phương pháp
"Dễ hiểu, nhiệt tình với sinh viên",phương pháp
Giáo viên dạy nhiệt tình dễ hiểu,phương pháp
"giảng dạy nhiệt tình, dễ hiểu.",phương pháp
Cô giảng dễ hiểu,phương pháp
Dạy tốt,phương pháp
Dễ hiểu,phương pháp
dạy tốt,phương pháp
Giảng thực tế,phương pháp
Dạy dễ hiểu,phương pháp
Giảng dạy dễ hiểu và nhiệt tình,phương pháp
giáo viên giàng bài hay,phương pháp
giáo viên giảng bài hay,phương pháp
giảng viên dạy hay,phương pháp
giảng viên dạy hay,phương pháp
dạy hay,phương pháp
dạy hay,phương pháp
Cô luôn cung cấp nhiững kiến thức chuyên ngành bổ ích từ lý thuyết cho đến thực tế,phương pháp
"Cô dễ thương, nhiệt tình, có trách nhiệm trong việc giảng dạy. rất bám sát thực tế",phương pháp
"giải thích rõ ràng , giúp tìm hiểu kỹ vấn đề",phương pháp
rất chịu khó nge sinh viên,phương pháp
Dạy dễ hiểu,phương pháp
"Cô đi đúng giờ, thông cảm cho sinh viên ăn sáng muộn, khuyến khích chúng em lấy điểm cộng, vui vẻ, nắm bắt nhiều xu hướng giới trẻ, có hiểu biết, khiêm tốn",phương pháp
"Dạy dễ hiểu, nhiệt tình",phương pháp
"Nhiệt tình, dễ hiểu",phương pháp
Dạy dễ hiểu,phương pháp
"Vui vẻ, nhiệt tình, giúp sinh viên hiểu bài hơn bằng cách để sinh viên đóng các tình huống như thực tế.",phương pháp
"cho sinh viên ggiao vấn đề để lớp tự chia nhóm và tìm hiểu,sau đó sẽ đưa ra những vấn đề cần trao đổi và giảng viên sẽ đút kết,giải quyết vấn đề thông qua việc trao đổi với sinh viên",phương pháp
"thầy luôn tạo không khí tốt khi giảng dạy, bài giảng khoa học.",phương pháp
"Thầy dạy rất tâm lý sinh viên, nói cho sinh viên biết về tầm quan trọng của họp phần này cũng như việc lên lớp.",phương pháp
"Thầy dạy dễ hiểu, giúp học sinh có đam mê với nghề",phương pháp
"giáo viên hoạt bát, lôi cuống giờ học",phương pháp
Thầy dạy rất có cảm hứng :3,phương pháp
truyền đạt kiến thức tốt,phương pháp
cho nhiều bài tập về nhà,phương pháp
truyền đạt kiến thức tốt,phương pháp
Thầy dạy rất hay,phương pháp
thầy dạy dễ hiểu,phương pháp
giảng dễ hiểu,phương pháp
giảng dễ hiểu,phương pháp
Giảng dậy tốt,phương pháp
Tận tình vs SV trong quá trình giảng dạy,phương pháp
Kết hợp giữa lí thuyết và thực tiễn,phương pháp
Dạy dễ hiểu sinh viên dễ tiếp cận,phương pháp
thầy giảng rất hay và vui.,phương pháp
truyền đạt kiến thức tôt,phương pháp
giảng dạy thoải mái,phương pháp
giảng dạy dễ hiểu,phương pháp
Giảng hay dễ hiểu,phương pháp
Dễ hiểu Dễ hiểu,phương pháp
Thầy giảng dạy rất dể hiểu và nhiệt tình,phương pháp
giảng dạy chi tiết,phương pháp
Thầy dạy hay nhưng ko hiểu sao e lại buồn ngủ,phương pháp
GV vui tính hòa đồng. Dạy học lôi cuốn,phương pháp
dạy rất hay và có hứng thú đối với sv,phương pháp
"nhiệt tình, liên hệ thực tế nhiều",phương pháp
"Thầy ngoài việc dạy chính, còn lồng ghép nội dung thực tiễn",phương pháp
"Thầy dạy học rất tương tác với sinh viên, nhiệt tình.",phương pháp
giảng dạy hay.,phương pháp
"Thầy dạy nhiệt tình, dễ hiểu",phương pháp
"Thầy dạy nhiệt tình, dễ hiểu",phương pháp
Thầy dạy dễ hiểu,phương pháp
Cô dạy rất hay và thú hút,phương pháp
Cô dạy dễ hiểu,phương pháp
"Thầy dạy kĩ và nhiệt tình, cách truyền đạt rất dễ hiểu",phương pháp
"giáo viên nhiệt tình, chú trọng những phần trọng tâm",phương pháp
Dạy khá hay và kết hợp trên thực tế rất tuyệt vời.,phương pháp
"cô tận tình, giảng dạy sát với thực tế công việc",phương pháp
Cô vui tính và tạo điều kiện cho sv tự học cao,phương pháp
Giảng viên luôn định hướng cho sinh viên,phương pháp
Giảng viên luôn định hướng cho sinh viên,phương pháp
"Dạy nhiệt tình, có nhiều bài vận dụng",phương pháp
"Liên hệ thực tế rất nhiều, vui vẻ",phương pháp
Truyền đạt thông tin dễ hiểu,phương pháp
"Vui vẻ, dạy tốt",phương pháp
Giảng dễ hiểu,phương pháp
Thầy dạy rất kỹ và chi tiết . Đồng thời cộng điểm rất công tâm . Công nhận đầy đủ những nổ lực từ sinh viên !Thầy giúp sinh viên học tốt cả lý thuyết và thực tế nên làm em rất hứng thú môn học ! Cảm ơn thầy !,phương pháp
"Thầy rất hiền, hay cười, đi học có điểm danh,giảng bài rất hay và dễ hiểu.",phương pháp
"Thầy nhiệt tình, dạy dễ hiểu và liên hệ thực tế rất nhiều",phương pháp
"Thầy dạy nhiệt tình, có nhiều ví dụ thực tế minh họa",phương pháp
"nhiệt tình, áp dụng công việc thực tế vào bài giảng",phương pháp
Nhiệt tình giảng dạy và trả lời mọi thắc mắc của sv,phương pháp
Luôn tạo cho sinh viên tính liên hệ nghề nghiệp ca,phương pháp
Thường xuyên có những liên hệ với thực tiễn,phương pháp
Thầy giảng bài rất nhiệt tình và dễ hiểu,phương pháp
Nhiệt tình. Giảng dễ hiểu,phương pháp
Vận dụng thực tế nhiều,phương pháp
Thầy giảng bài dễ hiểu,phương pháp
có nhiều bài tập,phương pháp
"Hướng dẫn sv làm bài tập, và thường xuyên kiểm tra kết quả làm bài tập của sv thông qua các bài kiểm tra nhỏ.",phương pháp
Cho làm nhiều bài tập vận dụng để dễ hiểu bài hơn,phương pháp
"Cô dạy hay cuốc hút, giảng bài dễ hiểu",phương pháp
GV thường xuyên liên hệ thực tế,phương pháp
Phưong pháp truyền đat tốt,phương pháp
Dạy nhiệt tình chỉ tiết,phương pháp
Giảng dạy dễ hiểu,phương pháp
Giảng dễ hiểu,phương pháp
Cô dạy dễ hiểu và nhiệt tình với sinh viên,phương pháp
"Vui vẻ, xây dựng bài dễ hiểu",phương pháp
nói to rõ giảng bài dễ hiểu,phương pháp
Cô dạy rất kĩ càng,phương pháp
Giảng dể hiểu,phương pháp
Dạy dễ hiểu,phương pháp
"Tạo bầu không khí thoải mái cho sinh viên, cách giảng dễ hiểu và liên hệ thực tiễn tốt",phương pháp
"Cô truyền đạt kiến thức châmh, chắc và dễ hiểu",phương pháp
"Tâm huyết, thân thiện, truyền đạt dễ hiểu",phương pháp
Cô dạy rất dễ hiểu,phương pháp
"rất thích cách dạy của cô, giúp tụi e rất nhiều thứ để biết thêm về công việc bản thân thích gì hướng cho tụi e con đường nào để theo",phương pháp
"cách giảng dạy của cô làm em rất hài lòng, mong gặp cô trong môn tiếp theo",phương pháp
"dạy nhiệt tình, tích cực, nói năng nhỏ nhẹ , truyền đạt thông tin bổ ích",phương pháp
Dễ mến. Cô quan tâm lớp. Giảng dạy dễ hiểu rất kỹ,phương pháp
cô dạy nhiệt tình và có phương pháp dạy dễ hiểu,phương pháp
Cô rất là vui vẻ dạy rất tốt có tâm trong nghề,phương pháp
Cô dậy rất tốt,phương pháp
Cô dạy rất hay,phương pháp
"Cách dạy dễ hiểu, nội dung bài học đc giảng viên truyền đạt rất hay. Tạo đk để sv bắt buộc phải làm bài tập về nhà đầy đủ",phương pháp
"Cô giảng bài dễ hiểu, em có thắc mắc một số chỗ thì đều được cô giải đáp nhiệt tình qua mail",phương pháp
"Cô nhiệt tình , hay cho nhiều ví dụ để học sinh nắm rõ",phương pháp
Cô luôn tới lớp đúng giờ và cho học sinh làm bài tập,phương pháp
"phương pháp rõ ràng, dễ hiểu, dễ nắm bt kiến thức",phương pháp
"Cô dạy dễ hiểu,và dạy rất đúng giờ",phương pháp
Nhiệt tình dễ hiểu,phương pháp
dạy dễ hiểu,phương pháp
"Cô giảng rất nhiệt tình, dễ hiểu",phương pháp
cô vui vẻ. giảng hay dễ hiểu,phương pháp
Dạy dễ hiểu Dạy dễ hiểu,phương pháp
Giảng dạy dễ hiểu,phương pháp
cô dạy dễ hiểu,phương pháp
Dạy dễ hiểu,phương pháp
dạy tốt,phương pháp
"Cô giảng rất hay, cô rất yêu nghề, tận tình với sinh viên, có cách dạy và phương pháp học hiện đại.",phương pháp
"giáo viên có phương pháp giảng dạy hay, sinh viên dễ tiếp thu, dễ hiểu",phương pháp
"dạy vô cùng tốt, truyền đạt dễ hiểu, vô cùng tuyệt vời",phương pháp
"Cô dạy nhiệt tình, cách truyền đạt dễ hiểu",phương pháp
"Cô dạy rất nhiệt tình, bài giảng dễ hiểu",phương pháp
truyền đạt thông tin giảng dạy rất tốt,phương pháp
Đến lớp đúng giờ và giảng dạy tốt,phương pháp
Nhiệt tình giảng bài dễ hiểu,phương pháp
"Nghiêm túc, dạy dể hiểu",phương pháp
Rất nhiệt tình dễ hiểu,phương pháp
"Nhiệt tình,dễ hiểu",phương pháp
Giảng bài dễ hiểu,phương pháp
Dạy dễ hiểu,phương pháp
"Cô vô cùng quan tâm sinh viên và nhiệt tình trong giảng dạy, có kết hợp giữa học lý thuyết và làm bài tập để sinh viên hiểu bài hơn,có nội quy giờ học buộc các bạn tuân theo.",phương pháp
"Nhiệt huyết,lấy các ví dụ rất thực tế. Rất hay",phương pháp
"Cô dạy rất nhiệt tình, ví dụ cụ thể dễ hiểu.",phương pháp
"cô vui vẻ hòa đồng, giảng bài dễ hiểu",phương pháp
"Giảng bài dễ hiểu , nhiệt tình",phương pháp
cô dạy rất dễ hiểu,phương pháp
Giảng bài hay,phương pháp
dạy dễ hiểu,phương pháp
Dạy dễ hiểu,phương pháp
"Thầy dạy rất nhiệt tình, quan tâm sinh viên và tạo điều kiện tự học rất cao",phương pháp
Thầy dạy dễ hiểu và vận dụng được nhiều bài tập để hiểu hơn,phương pháp
"Giảng bài dễ hiểu, có liên hệ với thực tế nhiều",phương pháp
Giảng viên luôn gắn thực tế với môn học,phương pháp
"Thầy vui vẻ, dạy nhiệt tình, dễ hiểu",phương pháp
Thầy dạy rất ngắn gọn và dễ hiểu !,phương pháp
Giảng bài dễ hiểu,phương pháp
"Cô hiền, giảng bài rất dễ hiểu,dạy tới đâu hiểu tới đó nên nắm chắc kiến thức dễ dàng.",phương pháp
Giảng viên có kế hoạch giảng dạy phù hợp cho từng nhóm sinh viên,phương pháp
"Truyền đạt dễ hiểu, có sự kết hợp giữa l UB éc thuyết và bài tập",phương pháp
GV hướng dẫn chi tiết cụ thể,phương pháp
Cô dạy chậm và kỹ,phương pháp
cô dạy dễ hiểu,phương pháp
Cô dạy dễ hiểu,phương pháp
Dạy dễ hiểu,phương pháp
Dạy dễ hiểu,phương pháp
"Thầy dạy dễ hiểu, nội dung bài học súc tích và quan tâm sinh viên. Ngoài việc học thầy còn dạy cho sinh viên các kỹ năng khác",phương pháp
"giáo viên giảng dạy đưa ra dẫn chứng thực tiễn, phương pháp dạy hay dễ tiếp thu.",phương pháp
"Thầy hiền, giảng dạy lý thuyết và thực hành song song, dạy dễ hiểu.",phương pháp
Tạo cho sinh viên tính liên hệ thực tế với nghề nghiệp cao,phương pháp
Giảng dạy chi tiết và lấy nhiu ví dụ thực tế,phương pháp
Truyền đạt thông tin rất bổ ích,phương pháp
"Giáo viên giảng dạy nhiệt tình,rất sẵn lòng giải thich cho sinh viên những vấn đề thắc mắc/",phương pháp
Dạy rất dễ hiểu,phương pháp
GV tạo điều kiện thực hành nhiều cho sinh viên,phương pháp
GV tạo điều kiện học tập cho sinh viên,phương pháp
"Nhiệt tình, dạy dễ hiểu",phương pháp
"Dạy dễ hiểu, vui vẻ",phương pháp
"Giảng bài chi tiết, và nhiu ví dụ",phương pháp
Truyền đạt thông tin rất dễ hiểu,phương pháp
"Cô dạy hay, kĩ càng, không hiểu chỗ nào cô sẽ giảng kĩ lại và hướng dẫn cụ thể.",phương pháp
"Cô dạy dễ hiểu, có thể vận dụng ngay vào bài",phương pháp
"Thầy dạy rất tốt, có bữa thầy bệnh có cô khác đến dạy thay nhưng e ko hiểu nên đã về",phương pháp
giảng bài dễ hiểu,phương pháp
Thầy dạy dễ hiểu,phương pháp
"tốt,dạy ân cần",phương pháp
Thay day tot,phương pháp
dễ hiểu,phương pháp
Dạy tốt,phương pháp
Thầy dạy kĩ và dễ hiểu. Thầy dạy cũng nhiệt tình nữa.,phương pháp
"Thầy dạy chậm, chắc kiến thức và dễ hiểu",phương pháp
GV phân tích rõ vấn đề,phương pháp
Dạy dễ hiểu,phương pháp
"Cô giảng rất hay,cũng rất nhiệt tình, cũng rất hài hước vui vẻ, nhưngbđooi khi cũng rất nghiêm túc",phương pháp
GV tập trung phát triển kỹ năng làm việc nhóm,phương pháp
"Dễ hiểu, liên hệ thực tế rõ ràng, nhiệt tình",phương pháp
"Cô truyền đạt dễ hiểu, dễ nắm bắt bài nhanh",phương pháp
Cô cho bai tap de cung cô kiên thức,phương pháp
day de hieu,phương pháp
"Cô dạy rất hay, dễ hiểu, nội dụng bài học hay và ngắn gọn, cô rất nhiệt tình và hài hước",phương pháp
"Cô giảng dạy nhiệ tình , cực kỳ dễ hiểu",phương pháp
"Nhiệt tình, dẫn dắt bài dễ hiểu, vui vẻ",phương pháp
"Dạy dễ hiểu, cách truyền đạt rõ ràng",phương pháp
Giảng hay dễ hiểu và sát bài,phương pháp
"Giảng kĩ;dễ hiểu, nhiệt tình",phương pháp
"Hòa đồng, dạy dễ hiểu",phương pháp
GV hướng dẫn chi tiết,phương pháp
Cô dạy nhanh quá,phương pháp
Giảng dễ hiểu,phương pháp
"Dạy dễ hiểu, dễ thương",phương pháp
"cô dạy vui vẻ, dễ hiểu",phương pháp
Cô dạy dễ hiểu,phương pháp
"GV thân thiện, chia sẻ kiến thức thực tế",phương pháp
Giao viên giang hay,phương pháp
"Cô giảng bài rất nhiệt tình, dễ hiểu,lấy ví dụ cụ thể từ thực tiễn. Môn học rất bổ ích đối với em.",phương pháp
"Cô luôn hỏi sinh viên có hiểu không, nếu không cô sẽ giảng lại một lần nữa mà không hề phiền hà.",phương pháp
Cách dạy của cô rất thu hút sinh viên,phương pháp
Cô giảng rất kỹ và rất nhiệt tình,phương pháp
"Nhiệt tình, vui vẻ, dạy kĩ",phương pháp
Giảng viên giảng kĩ,phương pháp
"Nhiệt tình với sinh viên, cho những kiến thức vừa trong học tập và thực tế trong cuộc sống",phương pháp
Dễ hiểu,phương pháp
Dể Hiểu,phương pháp
Phương pháp dạy dễ hiểu,phương pháp
Phương pháp dạy dễ hiểu,phương pháp
Giảm áp lực trong học tập hơn giao bài tập về nhà quá nhiều.,phương pháp
Cách truyền tải nội dung nên ngắn gọn hơn,phương pháp
thời gian trao đổi chuyên ngành cần được tăng lên,phương pháp
thầy nên tăng cường kiểm tra phần bài tập ngay từ đầu học kì và bổ sung thêm số tiết sửa bài tập để sinh viên tích cực tự học hơn nữa.,phương pháp
thầy nên giảng nhiều bài tập cho sinh viên hơn nữa,phương pháp
Thầy nên chữa 1 số bài tập ở trên lớp,phương pháp
gải nhiều bài tập hơn,phương pháp
thầy dạy rất hay,phương pháp
Cô nên dạy chậm và kỹ hơn nữa cho sinh viên dễ tiếp thu,phương pháp
Em mong giảng viên tiếp tục cố gắnsg phát huy công việc giảng dạy của mình và nâng cao thêm năng lực phát âm tiếng Anh trong thời gian tới.,phương pháp
Cần có phương pháp giảng thú vụ hơn.,phương pháp
Cần giảng dạy chậm lại,phương pháp
Thêm phần thực hành nhiều hơn,phương pháp
Chương đầu mệnh đề tương đối khó hiểu vì vậy nếu được cần thầy có cách truyền đạt để gần gũi với học sinh,phương pháp
"GV giảng dạy hơi khô khan, làm sinh viên ít hứng thú.",phương pháp
vì là môn học khó mong thầy dạy chậm lại một chút,phương pháp
Thầy Ái dạy rất tốt không có góp ý,phương pháp
Cần rút ngắn nội dung lý thuyết,phương pháp
Tích cực giảng dạy,phương pháp
Bài tập nhiều hơn,phương pháp
Giáo viên cho các bạn làm bài theo nhóm,phương pháp
Nâng cao phương pháp giảng dạy,phương pháp
Cô dạy dễ hiểu và thân thiện,phương pháp
cô dạy rất dễ hiểu.,phương pháp
thường xuyên có sự liên hệ giữa lý thuyết và thực tiễn trong giảng dạy,phương pháp
hướng dẫn sinh viên tự học nhiều hơn,phương pháp
Thầy giản bài chậm hơn để sinh viên có thể hiểu bài tốt hơn,phương pháp
Thầy giản bài chậm hơn để sinh viên có thể hiểu tốt hơn,phương pháp
Giáo viên cho các bạn làm bài theo nhóm,phương pháp
Nâng cao phương pháp giảng dạy,phương pháp
Cô dạy dễ hiểu và thân thiện,phương pháp
cô dạy rất dễ hiểu.,phương pháp
Hướng dẫn kĩ những phần khó,phương pháp
nên đi đôi với thực hành,phương pháp
Cần thêm nhiều ví dụ hơn,phương pháp
mong muốn giảng viên dạy kỹ những phần giao bài tập về nhà chứ đôi khi sinh viên nhận bài tập về nhà mà chỉ hiểu loáng thoáng những gì trong đó vì bài tập về nhà là để củng cố chương trình học mà cơ bản sinh viên không hiểu kiến thức phần đó thì làm sao có thể hoàn thành tốt bài tập về nhà được.,phương pháp
"Bài giảng mà giảng viên đưa ra quá nhiều. Có lúc chỉ trong vòng 2 tiết chương trình học đi hơn 2 chương, đôi lúc sinh viên chép bài hơn 6 trang giấy còn giảng viên chỉ việc đứng bấm máy tính nút chuyển slide.",phương pháp
Không nên cho học sinh chép bài nhiều,phương pháp
Không nên cho học sinh chép bài nhiều,phương pháp
cho khảo sát với thực tế hơn,phương pháp
Cho làm bài tập nhiều,phương pháp
Dạy tốt hơn,phương pháp
Dạy tốt hơn,phương pháp
"em không hiểu thầy đang dậy gì trên lớp cả, nói thật sách đã khó hiểu thầy nói còn khó hiểu hơn, đến nổi không chỉ em mà hơn nữa lớp không muốn đi học tiết của thầy. mông thầy cải thiện lại cách dậy và cách truyền đạt kiến thức đến tụi em. em xin cảm ơn ạ",phương pháp
cần đưa nhiều kiến thức mới hơn thực tế hơn vào môn học,phương pháp
cần truyền đạt nhiều kiến thức chuyên sâu hơn,phương pháp
cần đưa những vấn đề thực tế vào bài học nhiều hơn,phương pháp
Bớt lí thuyết không quan trọng,phương pháp
Kết hợp với thực tế,phương pháp
Thêm bài tập,phương pháp
cần cập nhật những tin tức mới cho sinh viên thảo luận rèn kĩ năng đánh giá nhận xét,phương pháp
Thêm bài tập,phương pháp
Mong cô dạy đầy đủ hơn,phương pháp
Cần thêm những buổi học có ích hơn,phương pháp
Thầy nên bớt nói chuyện ngoài lề hay kể những chuyện của thầy trong giờ học,phương pháp
sang tao hon nhung bai hoc moi la cho sinh vien,phương pháp
Giảm bớt những vấn đề không liên quan bài học,phương pháp
cho sinh vien di trai nghiem thuc te nhieu hon,phương pháp
Em mong cô nên có trò chơi trog quá trình dạy để sinh viên vừa tự học vừa thích thú hơn ạ,phương pháp
Dạy nhiều kiến thức về chuyên môn hơn,phương pháp
Tạp trung liên hệ thực tế nhiều hơn,phương pháp
"Mong thầy sẽ có những ví dụ về bài học, về nền kinh tế của tỉnh Khánh Hoà cũng như của cả nước được nghiêm túc và tránh gây phản cảm đối với sinh viên hơn.",phương pháp
nên áp dụng bài tập nhiều trong giờ học,phương pháp
Nên đi sâu vào trọng tâm của bài học,phương pháp
Giảng dễ hiểu thêm xíu nữa ạ,phương pháp
Theo em cô nên giải 1 vài bài tập mẫu trước để sv dễ hiểu hơn,phương pháp
thuong xuyen cho bai tap thuc te trai nghiem,phương pháp
nên áp dụng nhiều bài tập vào giờ học,phương pháp
"Cô nói quá to, những điều sinh viên chưa biết cô nên tận tình giảng thay vì hỏi tại sao mấy cái đó mà cũng không biết !",phương pháp
GV không nên để sinh viên phải tự tìm hiểu bài mới quá nhiều,phương pháp
giảng chậm hơn để sinh viên dễ tiếp thu,phương pháp
Nên có phương pháp dạy hiệu quả hơn,phương pháp
Mong GV giảng chậm lại hơn nữa,phương pháp
thêm nhiều bài tập hơn,phương pháp
"Cách diễn đạt của cô tuy hay nhưng quá lan man,nói đi nói lại vẫn jhông chốt được câu luận điểm nên em mong cô sẽ cố gắng ạ",phương pháp
Hi vọng cô giảng bài kĩ hơn đối với những lớp yếu và nên làm bài mẫu trước khi giao bài tập.,phương pháp
Mong gv nói to rõ hơn nữa và vận dụng nhiều bài tập liên quan hơn nữa,phương pháp
giải bài tập chi tiết thêm,phương pháp
Giải bài tập nhiều hơn,phương pháp
cho các nhóm thi đua làm bài ứng dụng thực tế để dễ hiểu hơn,phương pháp
Thầy cần luyện và giải nhiều bài tập hơn để nắm rõ lý thuyết,phương pháp
Cần cố gắng hơn trong việc truyền đạt bài giảng,phương pháp
Có phương Pháp dạy tốt hơn cho sv,phương pháp
Đưa ra nhiều bài tập hơn nữa,phương pháp
Cần giải bài tập nhiều hơn,phương pháp
Thầy giảng bài kỹ hơn,phương pháp
Giảng bài tập kĩ hơn,phương pháp
GV cần thêm các dẫn chứng về tình hình hiện tại của doanh nghiệp địa phương,phương pháp
"Quá tuyệt vời, em không có ý kiến gì thêm",phương pháp
Phương pháp giảng dạy dễ hiểu,phương pháp
Dạy chậm lại chút ạ,phương pháp
"cô cần nói tiếng anh chậm hơn, bơi phần lớn kĩ năng nghe của sinh viên còn yếu",phương pháp
Phương pháp giảng dạy dễ hiểu hơn,phương pháp
Em cảm thấy thầy nên ít sử dụng tài liệu tiếng anh 1 tí ạ. Vì có nhìu bạn thực sự chưa hiểu sâu khi dùng tài liệu tiếng anh. Ưu điểm là giúp sinh viên chủ động hơn. Nhưg có nhìu bạn còn yếu nên e nghĩ chưa thực sự tối ưu,phương pháp
"Em biết thầy thích dạy sách gốc, full eng, nhưng bản thân thầy dịch từ chuyên ngành có đôi lúc lẫn lộn thì em làm sao mà đúng được 100%",phương pháp
"Em nghĩ thầy nên chú trọng giảng dạy ví dự thực tế hơn để sinh viên có thể sáng tạo, thay vì quá lạm dụng tài liệu nước ngoài",phương pháp
dạ vâng.. tụi em học du lịch.. không phải ngôn ngữ anh.. thầy đừng bắt tụi em dịch mấy chục trang tiếng anh đó được k...,phương pháp
cần cải thiện phương pháp giảng dạy và thân thiện hơn với sinh viên,phương pháp
Hi vọng thầy có nhiều phương pháp dễ hiểu hơn cho sinh viên,phương pháp
Thầy nên đi dạy Tiếng anh hơn là dạy Marketing Du Lịch,phương pháp
Nội dung học khiến phần đông sinh viên còn mơ hồ,phương pháp
Cho làm bài tập nhiều hơn,phương pháp
Bài giảng sinh động hơn,phương pháp
Giảng chậm hơn một chút,phương pháp
cần áp dụng nhiều vào thực tế,phương pháp
"mong cô bớt giải thích lang mang, nên chọn cách dạy ngắn gọn và dễ hiểu nhất, cô dạy quá dài dòng, thay vì 2 tiết chỉ để sửa 1 bài tập thì nên ngắn gọn lại để có thể sửa được nhiều bài tập hơn để chúng e biết được nhiều dạng hơn. Cam ơn cô đã nghe góp ý",phương pháp
Cô nên giảng chậm lại và kỹ càng hơn một chút,phương pháp
bài tập nên nhiều trong giờ học,phương pháp
Cần cho nhiều bài tập hơn,phương pháp
Cần giải bài tập nhiều hơn,phương pháp
Mong GV nên dạy chậm hơn tý và giải nhiều bài tập đa dạng hơn nữa,phương pháp
Giảm nhịp độ trong khi giảng cho sinh viên dễ tiếp thu,phương pháp
Thêm nhiều thực tế,phương pháp
"- GV dạy hơi nhanh, nên giảng chậm lại để sinh viên hiểu bài hơn. - Kiểm tra và thi nên ở dạng đề mở, vì nội dung quá nhiều nên cần có tài liệu để hỗ trợ.",phương pháp
Mọi thứ thầy dạy đều hay và thiết thực ! Tuy nhiên em nghĩ thầy nên dạy chậm lại 1 tý sẽ trọn vẹn hơn ạ,phương pháp
"Giảng dạy nhanh, chưa giải kĩ các bài tập nên khó nắm bắt kiến thức kĩ càng.",phương pháp
Thầy trình chiếu bài tập giải nhanh quá chưa kịp hiểu,phương pháp
Hoàn thành tốt việc giảng dạy,phương pháp
nên làm thực tế chớ dạy lý thuyết suông thì không hứng thú,phương pháp
Cần giúp đỡ sinh viên viết tiểu luận chi tiết hơn,phương pháp
"Nên dạy chi tiết hơn, giảng bài trên bảng để học sinh nắm rõ hơn.",phương pháp
Cô dạy chậm lại một chút sẽ hay hơn,phương pháp
giảng chậm lại,phương pháp
vận dụng thêm nhiều kiến thức thực tiễn hơn nữa,phương pháp
Cần có nhiều thời gian để chia sẻ và liên hệ thực tế,phương pháp
CÔ DẠY RẤT HAY :),phương pháp
"Giáo viên cần có trách nhiệm hơn trong giảng dạy, giảng các bài cần chi tiết hơn, cần giảng dạy các bài tập kĩ hơn vì có quá nhiều bài tập mà giáo viên chưa giảng lại ra kiểm tra làm học sinh không làm bài được",phương pháp
Mong GV cho nhiều bài tập hơn nữa và vận dụng thực tế,phương pháp
GV cần giảng dạy chi tiết hơn vào mỗi nội dung,phương pháp
mong cô dùng tiếng anh trong dạy và giao tiếp với học sinh nhiều hơn,phương pháp
Mong thầy dạy do môn anh văn không dễ mà thầy toàn đê sinh viên tự học thầy không dạy tụi em không hiểu thời gian học trong buổi học nhiều hơn nhiều lúc rất tốn thời gian cho những việc không cần thiết,phương pháp
Đổi mới phương pháp dạy,phương pháp
Cho sinh viên di tham quan thực tiễn,phương pháp
"mấy buổi đầu học thầy hơi sợ, nhưng học rồi mới thấy thầy rất nhiệt tình và giảng rất kĩ bài, làm sao có thể cho sinh viên học hết nhiều nhất có thể, mặc dù thầy hơi khắc khe nhưng đều muốn tốt cho sinh viên",phương pháp
Thầy dùng từ ngữ đơn giản giúp sinh viên dễ hiểu,phương pháp
Nên tăng thời gian học nhiều hơn giải bài tập,phương pháp
Cần liên hệ thực tế với giảng dạy,phương pháp
thầy dạy làm sinh viên cảm thấy căng thẳng trong tiết học,phương pháp
Tạo ra nhiều hoạt động giải trí trong việc học hơn,phương pháp
Giảng sâu hơn về nội dung cần học,phương pháp
"Cách dạy hời hợt không mấy hiệu quả, luôn khiến sinh viên cảm thấy nhàm chán. Không thấy được sự nhiệt tình của giảng viên trong giảng dạy.",phương pháp
Giảng viên nên dạy nhiều ngữ pháp và bài tập nhiều hơn cho sinh viên thay vì show đáp án lên màn hình rồi gọi sv đứng dậy đọc,phương pháp
Em cảm thấy những hoạt động cô giao đều rất bổ ích và có lợi cho việc học ạ,phương pháp
Nên tập cho các bạn kĩ năng tranh luận ngay từ những ngày đầu học.,phương pháp
Ngoài kĩ năng đọc thì thầy còn cho nói bài tóm tắt giúp cải thiện kĩ năng nói và phát âm.,phương pháp
Theo đúng đề cương giảng dạy. Nhiều bải tập luyện thêm,phương pháp
kết hợp nhiều kĩ năng trong một tiết học. rất hiệu quả,phương pháp
Luôn kiểm tra kĩ năng của các sinh viên.,phương pháp
Giảng viên giảng dạy nhiệt tình dễ hiểu,phương pháp
"Giáo viên nhiệt tình, dạy dễ hiểu",phương pháp
"Giáo viên dạy dễ hiểu, nhiệt tình",phương pháp
Thầy dạy tốt học sinh hiểu bài,phương pháp
"Cô dạy dễ hiểu, giảng bài kĩ.",phương pháp
"nhiệt tình, giảng dễ hiểu",phương pháp
Phương pháp dạy dễ hiểu,phương pháp
Thu hút học sinh,phương pháp
"Thầy nhiệt tình, chỉn chu, linh hoạt trong cách giảng dạy và vui tính. Thầy đưa ra khá nhiều liên hệ bài học với thực tiễn, phương pháp học tập tốt và luôn khuyến khích sinh viên tự tin thể hiện quan điểm bằng tiếng Anh.",phương pháp
"Giảng viên có phương pháp giảng dạy chất lượng, thường xuyên liên hệ thực tế, luôn tạo cảm giác hưng phấn học cho sinh viên.",phương pháp
"giáo viên nhiệt tình trong giảng dạy, nội dung bài học phong phú, tạo nhiều cơ hội để sinh viên chia sẻ quan điểm của mình.",phương pháp
"nhiệt tình, vui vẻ, truyền đạt kiến thức dễ hiểu, đưa ra những lời khuyên để áp dụng vào thực tế",phương pháp
"Thầy vui tính,dạy dễ hiểu, suốt quá trình học thầy chỉ nói Tiếng Anh, nói rất dễ nghe và thú vị.",phương pháp
Ngoài dạy trong sách thì thầy còn cho xem nhiều video để cải thiện thêm nhiều kĩ năng khác.,phương pháp
e rất thích cách dạy luyện nghe tiếng anh của thầy tuy e học không tốt môn tiếng anh,phương pháp
"Cách cô dạy hơi nhanh, chúng em không thể ""tiêu hóa"" nhanh được, mong cô hãy đi chậm lại",phương pháp
"Cô dạy dễ hiểu, nhiệt tình và luôn tạo điều kiện cho sv phát triển kỹ năng",phương pháp
Nhiệt tình hướng dẫn SV học và lắng nghe ý kiến của SV.,phương pháp
"Nhiệt tình, chia sẻ tài liệu học tập đa dạng",phương pháp
Giảng viên giảng dạy nhiệt tình dễ hiểu,phương pháp
Cô bày cho học sinh phát âm rất chuẩn,phương pháp
Giáo viên nhiệt tình và dạy dễ hiểu,phương pháp
"nhiệt tình, giảng dễ hiểu",phương pháp
"cô dạy hay, dễ hiểu, ví dụ sinh động, tổ chức các hoạt động bổ ích, thường có những trò chơi rất thú vị, tuy nhiên cô cho tập hát nhiều quá.",phương pháp
"Cô tận tình chu đáo gửi trước cho sv bài học trước trên lớp, soạn giáo trình từng buổi học cho sinh viên. Kết hợp nhiều phương pháp tỏng 1 tiết học.",phương pháp
cô dạy hay dễ hiểu. kể chuyện liên quan bài học bổ ích. hay,phương pháp
"Nhiệt tình và phương pháp dạy rõ ràng,dễ hiểu",phương pháp
"cô dạy dễ hiểu, quan tâm đến sinh viên",phương pháp
"Cô dạy hay, có những lời khuyên hữu ích cho sinh viên",phương pháp
"Nhiệt tình,phương pháp truyền đạt dễ hiểu",phương pháp
Giảng viên giảng dạy nhiệt tình dễ hiểu,phương pháp
Cô dạy tốt bày học sinh học tận tình,phương pháp
giáo viên chỉ dạy học sinh tận tình,phương pháp
"Giáo viên nhiệt tình, dạy dễ hiểu",phương pháp
khi học sinh học có vẻ mệt mỏi cô thường áp dụng các phương pháp riêng để giúp hứng thú với bài giảng hơn,phương pháp
"Cô giảng dạy dễ hiểu, có tâm và nhiệt huyết, cô vui tính nên không khí lớp học luôn thoải mái và vui vẻ.",phương pháp
thường xuyên có sự liên hệ giữa lý thuyết và thực tiễn trong giảng dạy,phương pháp
"NHiệt tình với sinh viên, vui vẻ",thái độ
luôn nhiệt tình,thái độ
giáo viên nhiệt tình và có trách nhiệm,thái độ
"thầy rất nhiệt tình, nhiều ví dụ cụ theo cho bài học.",thái độ
"thầy dạy nhiệt tình, tận tâm với sinh viên",thái độ
"vui vẻ, nhiệt tình, dạy dễ hiểu, vui tính",thái độ
Thầy rất nhiệt tình và có tâm huyết!,thái độ
Thầy rất tâm huyết và nhiệt tình,thái độ
Nhiệt huyết trong cách giảng bài,thái độ
Thầy nhiệt tình trong giảng dạy,thái độ
Thầy nhiệt tình với môn học.,thái độ
"Thầy dạy tận tâm, nhiệt tình",thái độ
Dạy nhiệt tình tận tâm,thái độ
"Nhiệt tình, vui vẻ và thân thiện",thái độ
Tác phong của cô rất chuẩn mực ạ,thái độ
"nhiệt tình, tận tâm, vui vẻ",thái độ
Cô dạy rất nghiêm túc.,thái độ
Vui vẻ. Nhiệt tình,thái độ
Cô rất nhiệt tình.,thái độ
"Nhiệt tình, vui vẻ",thái độ
"Cô nhiệt tình, dạy có tâm.",thái độ
Cô rất nhiệt tình Tuyệt vời,thái độ
giảng dạy nhiệt tình,thái độ
"hài hước,nhiệt tình",thái độ
giảng dạy nhiệt tình,thái độ
"Nhiệt tình, vui vẻ",thái độ
"Vui vẻ, nhiệt tình",thái độ
Nhiệt tình trong quá trình giảng dạy,thái độ
Thầy rất nhiệt tình trong giảng dạy.,thái độ
Thầy rất nhiệt tình trong giảng dạy,thái độ
Nhiệt tình trong giảng dạy,thái độ
Giảng dạy nhiệt tình,thái độ
thấy dạy nhiệt tình,thái độ
NHIỆT TÌNH,thái độ
Vui vẻ,thái độ
Cô rất nhiệt tình trong giảng dạy.,thái độ
Cô rất nhiệt tình trong giảng dạy.,thái độ
Cô rất nhiệt tình trong giảng dạy.,thái độ
Cô rất nhiệt tình trong giảng dạy.,thái độ
nhiệt huyết,thái độ
giáo viên nhiệt tình và có trách nhiệm,thái độ
"Cô nói to, nhiệt tình trong giảng dạy",thái độ
Cô rất nhiệt tình trong giảng dạy.,thái độ
Thầy rất nhiệt tình và tận tâm với sinh viên,thái độ
"Thầy hiền, giúp đỡ nhiều cho sinh viên",thái độ
Giáo viên giảng dạy nhiệt tình,thái độ
Có trách nhiệm và nhiệt tình,thái độ
Có trách nhiệm với công việc,thái độ
dạy nhiệt huyết với học sinh,thái độ
giảng viên dạy nhiệt tình.,thái độ
tâm huyết trong giảng dạy,thái độ
Nhiệt tình và thân thiện,thái độ
"Mẫu mực, hơi nghiêm khắc",thái độ
"nhiệt tình, nghiêm khắc",thái độ
Giảng dạy nhiệt tình,thái độ
Giảng dạy nhiệt tình,thái độ
Tận tình giảng dạy,thái độ
Làm việc đúng giờ,thái độ
"Tâm huyết, có tâm",thái độ
Giảng nhiệt tình,thái độ
Có tâm với nghề,thái độ
Dạy nhiệt tình,thái độ
Dạy nhiệt tình,thái độ
Nhiệt huyết,thái độ
Tận tình,thái độ
Cũng vui,thái độ
Vui tính,thái độ
Vui tính,thái độ
Hăng say,thái độ
Tận tình,thái độ
vui vẻ,thái độ
Tận tâm,thái độ
vui vẻ,thái độ
Vui vẻ,thái độ
vui vẻ,thái độ
Hiền,thái độ
Thầy dạy nhiệt tình chu đáo,thái độ
"Tích cực, nhiệt tình",thái độ
giảng dạy nhiệt tình,thái độ
"Vui vẻ, thoải mái",thái độ
Rất vì sinh viên,thái độ
lên lớp đúng giờ,thái độ
Giọng nhẹ nhàng,thái độ
Dạy nhiệt tình,thái độ
Giảng bài tận tình,thái độ
Dậy rất nhiệt tình,thái độ
Cô dạy nhiệt tình,thái độ
vui vẻ .tích cực,thái độ
Cô đến đúng giờ,thái độ
Rất nhiệt tình,thái độ
Nhỉ Nhiệt tình,thái độ
Tận tâm vui vẻ,thái độ
Vyu vẻ dễ chịu,thái độ
nhiet tinh,thái độ
Nhiệt tình,thái độ
Cô sôi nổi,thái độ
Nhiệt tình,thái độ
nhiệt tình,thái độ
Nhiệt tình,thái độ
Tận tình,thái độ
Vui vẻ,thái độ
Vui,thái độ
"Tích cực, nhiệt tình",thái độ
thẳng thắn,thái độ
Cô nhiệt tình,thái độ
nhiệt tình,thái độ
Nhiệt tình,thái độ
Tận tình,thái độ
"Nhiệt tình,quan tâm tới sinh viên trong giảng dạy.",thái độ
"Nhiệt tình,quan tâm tới sinh viên trong giảng dạy.",thái độ
nhiệt tình - vui tính - công bằng và dân chủ,thái độ
nhiệt tình - vui tính - công bằng và dân chủ,thái độ
thay kha vui tinh,thái độ
"Nhiệt tình,quan tâm tới sinh viên trong giảng dạy.",thái độ
"Giảng dạy nhiệt tình, vui vẻ",thái độ
Quan tâm đến học sinh,thái độ
cô chỉ dạy nhiệt tình,thái độ
Giảng dạy nhiệt tình,thái độ
"hóm hỉnh,nhiệt tình",thái độ
"nhiệt tình, vui vẻ",thái độ
Giảng bài tận tình,thái độ
Dậy rất nhiệt tình,thái độ
Cô dạy nhiệt tình,thái độ
vui vẻ .tích cực,thái độ
Cô đáng yêu cực,thái độ
Cô đến đúng giờ,thái độ
Rất nhiệt tình,thái độ
Nhỉ Nhiệt tình,thái độ
Tận tâm vui vẻ,thái độ
Vyu vẻ dễ chịu,thái độ
nhiet tinh,thái độ
Nhiệt tình,thái độ
"Nhiệt tình, thân thiên",thái độ
Thầy rất nhiệt tình,thái độ
thầy rất nhiệt tình,thái độ
"Nhiệt tình,vui tính",thái độ
rất nhiệt tình,thái độ
vui vẻ,thái độ
vui vẻ,thái độ
"cô giảng dạy nhiệt tình , quan tâm sinh viên , cô hòa đồng vui vẻ",thái độ
"giảng viên vui vẻ,hòa đồng mật thiết tận tình với sinh viên",thái độ
Cô rất nhiệt tình truyền đạt kiến thức cho sinh viên.,thái độ
Nhiệt tình và có trách nhiệm,thái độ
"GV dạy nhiệt tình, tích cực.",thái độ
vui vẻ,thái độ
Thầy nhiệt tình và rất chu đáo trong việc giảng dạy.,thái độ
nhiệt tình chỉ bảo sinh viên trong học tập,thái độ
Nhiệt tình trong quá trình giản dạy,thái độ
Nhiệt tình trong việc giảng dạy,thái độ
Nhiệt tình,thái độ
vui vẻ,thái độ
Vui vẻ,thái độ
Rất Nhiệt tình,thái độ
rất nhiệt tình trong giảng dạy,thái độ
thầy rất nhiệt tình,thái độ
thầy chỉ dạy nhiệt tình,thái độ
Rất ân cần với sinh viên.,thái độ
Vui tính. Nhiệt huyết. Hòa đồng. Hài hước.,thái độ
"GV nhiệt tình , vui tính , nhiệt huyết trong giảng dạy",thái độ
Cô rất thân thiên,thái độ
Nhiệt tình giảng dạy,thái độ
Giáo viên tận tâm.,thái độ
Thầy rất hài hước và nhiệt tình,thái độ
Giảng viên dạy nhiệt tình và vui vẽ,thái độ
Cô rất nhiệt tình,thái độ
Nghiêm khắc,thái độ
cô rất hiền,thái độ
Nhiệt tình và thân thiện,thái độ
"Nhiệt tình, trách nhiệm",thái độ
"Thầy nhiệt tình,vui vẻ",thái độ
"- dễ hiểu, nhiệt tình",thái độ
Thầy dật nhiệt huyết,thái độ
"nhiệt tình, hòa đồng",thái độ
"GV hiền, vui tính, cởi mở khi nói chuyện với sinh viên",thái độ
Giảng dạy nhiệt tình và thân thiện,thái độ
"Cô giảng bài nhiệt tình lắm,",thái độ
"Cô hiền, nhiệt tình chỉ dẫn",thái độ
Nhiệt tình giảng dạy,thái độ
Nhiệt tình và thân thiện,thái độ
"Cô nhiệt tình,cố gắng",thái độ
Cô giảng nhiệt tình,thái độ
"Nhiệt tình, vui vẻ",thái độ
Vui tính tận tâm với việc giảng dạy,thái độ
"Vui tính, nhiệt tình tận tâm",thái độ
cô giảng bài rất nhiệt tình,thái độ
giảng viên vui vẻ dễ tính,thái độ
Thân thiện và nhiệt tình,thái độ
giảng viên nhiệt tình gảng dạy,thái độ
Thầy nghiêm,thái độ
Giảng viên nhiệt tình giảng giải,thái độ
"Nhiệt tình, tâm huyết",thái độ
Giảng viên nhiệt tình trong quá trình giảng dạy,thái độ
Nhiệt tình,thái độ
"Nhiệt tình ,có trách nhiệm",thái độ
Vui vẻ nhiệt tình sv,thái độ
Giáo viên giảng dạy nhiệt tình và tận tâm,thái độ
Giảng viên nhiệt tình trong quá tình giảng dạy,thái độ
"Giáo viên thân thiện, gần gũi",thái độ
"GV thân thiện, nhiệt tình",thái độ
"Nhiệt tình, vui vẻ, giúp đỡ sinh viên hết mình",thái độ
Cô có tác phong dạy học nghiêm túc và khá vui tính,thái độ
Nhiệt huyết khi giảng dạy,thái độ
Chịu khó,thái độ
Vui vẻ và nhiệt tình với sinh viên,thái độ
cô nhiệt tình với sinh viên,thái độ
Rất nhiệt huyết. rất có tâm,thái độ
Cô dạy nhiệt tình,thái độ
Nhiệt tình,thái độ
"Giảng viên nhiệt tình, cung cấp nhiều kiến thức bổ ích cho sinh viên",thái độ
thầy dạy dễ hiểu nhiệt tình,thái độ
Giảng dạy nhiệt tình.,thái độ
Giảng rất nhiệt tình,thái độ
giảng dạy nhiệt tình,thái độ
Tận tình,thái độ
Vui vẻ,thái độ
"Đến lớp đúng giờ, giảng dạy nhiệt tình",thái độ
Thầy vui tính.,thái độ
Nhiệt huyết,thái độ
Tận tình,thái độ
Tận tâm,thái độ
mong thầy bớt chửi sinh viên ngu!!!,thái độ
mong thầy bớt chữ sinh viên ngu,thái độ
ít nghiêm khắc 1 chút,thái độ
Bớt nóng tính hơn,thái độ
Dạy nhiệt tình,thái độ
Giúp đỡ các em,thái độ
"Hạn chế thô lỗ, cộc cằn với sinh viên. Không nên la mắng sinh viên. Thái độ giáo viên cực kỳ không tốt, không nhiệt tình, rất thô lỗ",thái độ
Giảng viên cần dễ chịu hơn trong thái độ giảng dạy,thái độ
Thầy la rầy những chuyện không đáng,thái độ
Mong thầy ít chửi,thái độ
Bớt la mắn,thái độ
Cần gắt gao hơn nữa với sinh viên,thái độ
Thầy quá nghiêm,thái độ
Tránh tình trạng quá nghiêm,thái độ
"Nhiệt tình, thân thiên",thái độ
Giảng viên không nên quá khó tính trong tiết dạy của mình.,thái độ
Làm ơn bớt chửi học sinh và nói rõ những yêu cầu để học sinh làm tốt hơn,thái độ
Mong thầy hạn chế chửi lại,thái độ
Quá nghiêm khắc,thái độ
Tạo môi trường học tập vui vẻ,thái độ
"Thầy hơi nghiêm khắc nên em thấy hơi áp lực, mong thấy vui tính hơn",thái độ
Nhiệt tình hơn ạ,thái độ
Hơi gắt với sinh viên,thái độ
"Thầy hơi nghiêm khắc,",thái độ
Khó tính yêu cầu cao,thái độ
Mong thầy nghiêm khắc hơn với sv,thái độ
Thiếu tôn trọng sinh viên cư xử thiếu chuẩn mực,thái độ
Hơi áp lực cho sinh viên,thái độ
Cô có thể nghiêm khắc hơn vì tính tự giác của các bạn còn khá kém,thái độ
"Thân thiện hơn, mềm dẻo hơn chút",thái độ
đừng tạo áp lực cho học sinh,thái độ
"Gv dễ chịu 1 chút, sv có động lực học tốt",thái độ
"Nhiệt tình, thân thiên",thái độ
Dạy nhiệt tình,thái độ
Góp ý thầy Lam nên bớt khó tính lại,thái độ
Quan tâm nhiều tới sinh viên,thái độ
Thầy hơi khắc khe,thái độ
cần trao đổi nhiệt tình với học sinh về những thắc mắc,thái độ
nhiệt tình giảng dạy và hướng dẫn,thái độ
CHO NHIỀU TÀI LIỆU THAM KHẢO HƠN,cơ sở vật chất
CHO NHIỀU TLTK,cơ sở vật chất
CHO FILE TÀI LIỆU HOÀN CHỈNH 1 LẦN,cơ sở vật chất
CHO NHIỀU TÀI LIỆU TK,cơ sở vật chất
CHO NHIỀU TLTK,cơ sở vật chất
CHO NHIỀU TLTK,cơ sở vật chất
Cần nhiều thiết bị ở trường để sinh viên không phải đi xa,cơ sở vật chất
"Theo em, cô cần có những tài liệu cần thiết nhất cho môn học. Về phần lý thuyết tài liệu có phần tiếng anh tiếng việt. Tụi em khó có thể hiểu được",cơ sở vật chất
Xin cô giới thiệu cho sinh viên vài sách đọc để rèn kĩ năng viết ạ,cơ sở vật chất
LẮP WIFI,cơ sở vật chất
Nên thêm nhiều ổ điện ở phòng học g6 phòng học của sinh viên công nghệ thông tin,cơ sở vật chất
trang bị thêm thiết bị hỗ trợ học và giảng dạy :như bàn ghế ở giảng đường 6,cơ sở vật chất
máy chiếu cần nâng cấp,cơ sở vật chất
cần xem xét lại hệ thống máy chiếu G2,cơ sở vật chất
đầu tư phòng máy tiện nghi hơn,cơ sở vật chất
Đầu tư mạng wifi cho giảng đường 03,cơ sở vật chất
trang bị máy chiếu công nghệ cao,cơ sở vật chất
trang bị nhiều micro,cơ sở vật chất
Thiết bị học tập tốt hơn,cơ sở vật chất
Cần coi lại máy chiếu,cơ sở vật chất
nên bắt máy lạnh ở G7,cơ sở vật chất
Mong nhà trường cung cấp nhiều tài liệu liên quan hơn nữa,cơ sở vật chất
bổ sung thêm nhiều tài liệu để sinh viên tìm đọc,cơ sở vật chất
hệ thống máy chiếu cần nâng cấp,cơ sở vật chất
Lắp máy lạnh,cơ sở vật chất
Mong nhà trường cung cấp đúng tài liệu hơn nữa,cơ sở vật chất
Cần đầu tư mạng wifi cho giảng đường 3,cơ sở vật chất
Cần cải thiện thiết bị tv và mic,cơ sở vật chất
Cải thiện wifi. Làm ơn!!!!!,cơ sở vật chất
Chất lượng máy chiếu kém,cơ sở vật chất
Máy chiếu hiện đại hơn,cơ sở vật chất
Thêm thiết bị,cơ sở vật chất
Phòng học máy quạt chạy yếu nên rất nóng ạ !,cơ sở vật chất
Cơ sở vật chất ngày càng tốt hơn,cơ sở vật chất
Đầu tư trang thiết bị ổn hơn,cơ sở vật chất
Thiết bị giảng dạy tốt hơn,cơ sở vật chất
Mong nhà trường cung cấp nhiều tài liệu liên quan hơn nữa,cơ sở vật chất
bổ sung nhiều tài liệu để sinh viên nghiên cứu,cơ sở vật chất
Máy chiếu mờ,cơ sở vật chất
"Hệ thống máy chiếu, mic cần được đổi mới",cơ sở vật chất
Cải thiện công cụ giảng dạy,cơ sở vật chất
nên bắt máy lạnh ở G7,cơ sở vật chất
Máy chiếu,cơ sở vật chất
cai thien chat luong may chieu,cơ sở vật chất
Đầu tư CSVC hiện đại hơn nữa,cơ sở vật chất
Cần trang bị thêm quạt,cơ sở vật chất
máy chiếu không tốt,cơ sở vật chất
Máy chiếu mờ,cơ sở vật chất
Cải tiến các công cụ dạy học,cơ sở vật chất
Giảng đường nóng,cơ sở vật chất
Bắt thêm quạt,cơ sở vật chất
Thầy chỉ chúng em biết đc ko ạ. Chúng e tìm tài liệu ko ra thầy ơi,cơ sở vật chất
trang bị thêm thiết bị hỗ trợ học và giảng dạy :như bàn ghế ở giảng đường 6,cơ sở vật chất
máy chiếu cần nâng cấp,cơ sở vật chất
cần xem xét lại hệ thống máy chiếu G2,cơ sở vật chất
đầu tư phòng máy tiện nghi hơn,cơ sở vật chất
Đầu tư mạng wifi cho giảng đường 03,cơ sở vật chất
trang bị máy chiếu công nghệ cao,cơ sở vật chất
trang bị nhiều micro,cơ sở vật chất
Thiết bị học tập tốt hơn,cơ sở vật chất
Cần coi lại máy chiếu,cơ sở vật chất
Máy chiếu hiện đại hơn,cơ sở vật chất
Thiết bị hỗ trợ học tập tốt hơn,cơ sở vật chất
máy chiếu bị hư,cơ sở vật chất
Nâng cấp hệ thống quạt ở g2 tầng 5,cơ sở vật chất
Cải thiện wifi. Làm ơn!!!!,cơ sở vật chất
Cơ sở tốt hơn,cơ sở vật chất
Thiết bị TV hoặc mic cần được cải thiện,cơ sở vật chất
Tăng tương tác giữa các sinh viên,cơ sở vật chất
Bàn ghế nhiều hơn khu tự học,cơ sở vật chất
Nâng cao chất lượng wi-fi g2,cơ sở vật chất
Máy chiếu hiện đại hơn,cơ sở vật chất
máy chiếu quá dở,cơ sở vật chất
Thiết bị TV hoặc mic cần được cải thiện,cơ sở vật chất
Bàn ghế nhiều hơn khu tự học,cơ sở vật chất
nâng cấp máy chiếu,cơ sở vật chất
G4 104 cần sửa máy chiếu,cơ sở vật chất
Máy chiếu hư g4 104,cơ sở vật chất
Nâng cao cơ sở vật chất,cơ sở vật chất
Cung cấp thiết bị nhiều hơn,cơ sở vật chất
Cần thêm máy quạt cho phong học,cơ sở vật chất
"nhà trường nâng cao chất lượng phòng thực hành để khi sinh viên thực hành không bị thiếu đồ. sinh viên này phải chờ người này làm xong rồi mới tới lượt mình nên rất mất thời gian. Hy vọng giảng viên hướng dẫn thực hành cho sinh viên rồi sinh viên làm theo, thực tế sv chỉ mới học lý thuyết nên chưa có kiến thức về thực hành, nên rất mong muốn giảng viên truyền đạt kiến thức thực hành chứ không phải chỉ cho chủ đề rồi tự nghiên cứu. Thi xong vẫn không giải đáp các luận điểm đó",cơ sở vật chất
Phòng thực hành,cơ sở vật chất
Nâng cao cơ sở vật chất,cơ sở vật chất
nâng cao mạng internet,cơ sở vật chất
cần hỗ trợ máy tính,cơ sở vật chất
Phong học quá nóng,cơ sở vật chất
Phòng học hơi nóng.... Phòng thực hành còn chưa có sự đầu tư,cơ sở vật chất
phòng học quá nóng nên học rất mệt mõi,cơ sở vật chất
Đầu tư thiết bị,cơ sở vật chất
"Đầu tư trang thiết bị, cơ sở vật chất",cơ sở vật chất
cần nhiều tài liệu bổ ích hơn liên quan đến môn học,cơ sở vật chất
Có thêm dụng cụ thí nghiệm để giảng viên có thể làm trực tiếp tại lớp để sinh viên có thể hiểu sâu hơn kiến thức được học.,cơ sở vật chất
Nâng cao chất lượng wi-fi g2,cơ sở vật chất
trang bị máy chiếu công nghệ cao,cơ sở vật chất
Cải thiện wifi G2. làm ơn!!!,cơ sở vật chất
Nâng cao hơn về cơ sở thiết bị ở phòng,cơ sở vật chất
nên bắt máy lạnh ở G7,cơ sở vật chất
cần cải thiện máy chiếu,cơ sở vật chất
nên bắt máy lạnh ở G7,cơ sở vật chất
Mong nhà trường cung cấp nhiều tài liệu liên quan hơn nữa,cơ sở vật chất
bổ sung thêm nhiều tài liệu để sinh viên tìm đọc,cơ sở vật chất
hệ thống máy chiếu cần nâng cấp,cơ sở vật chất
Lắp máy lạnh,cơ sở vật chất
Mong nhà trường cung cấp đúng tài liệu hơn nữa,cơ sở vật chất
Cần đầu tư mạng wifi cho giảng đường 3,cơ sở vật chất
Cần cải thiện thiết bị tv và mic,cơ sở vật chất
Cải thiện wifi. Làm ơn!!!!!,cơ sở vật chất
Chất lượng máy chiếu kém,cơ sở vật chất
Máy chiếu hiện đại hơn,cơ sở vật chất
Thêm thiết bị,cơ sở vật chất
Phòng học máy quạt chạy yếu nên rất nóng ạ !,cơ sở vật chất
Cơ sở vật chất ngày càng tốt hơn,cơ sở vật chất
Đầu tư trang thiết bị ổn hơn,cơ sở vật chất
Thiết bị giảng dạy tốt hơn,cơ sở vật chất
Mong nhà trường cung cấp nhiều tài liệu liên quan hơn nữa,cơ sở vật chất
bổ sung nhiều tài liệu để sinh viên nghiên cứu,cơ sở vật chất
"Hệ thống máy chiếu, mic cần được đổi mới",cơ sở vật chất
- Trang bị thiết bị dạy học,cơ sở vật chất
nên nâng cấp lại máy chiếu,cơ sở vật chất
Máy chiếu mờ,cơ sở vật chất
Cải thiện công cụ giảng dạy,cơ sở vật chất
Máy chiếu,cơ sở vật chất
Đầu tư bàn ghế mới cho giảng đường 7. Bàn ghế đã cũ nhiều chỗ đã bị mục nát,cơ sở vật chất
Em mong nhà trường sẽ đầu tư lại trang thiết bị bên G7 để hỗ trợ tốt hơn cho sinh Viên trong việc thiết trình nhấy là G7.302,cơ sở vật chất
bổ sung nhiều tài liệu cho môn này,cơ sở vật chất
Nâng cao công cụ giảng dạy,cơ sở vật chất
nâng cấp may chiếu,cơ sở vật chất
"Phòng 401 thật sự rất nóng ạ, đặc biệt là vào những ngày thế này, máy quạt chạy rất nhẹ và chậm, rất ảnh hưởng đến sự tập trung học của chúng em.",cơ sở vật chất
cần bổ sung thêm tài liệu để sinh viên tìm đọc,cơ sở vật chất
Cải thiện công cụ giảng dạy,cơ sở vật chất
Máy chiếu mờ,cơ sở vật chất
"Hệ thống máy chiếu, mic cần được đổi mới",cơ sở vật chất
Cải thiện công cụ giảng dạy,cơ sở vật chất
nên bắt máy lạnh ở G7,cơ sở vật chất
Máy chiếu,cơ sở vật chất
cai thien chat luong may chieu,cơ sở vật chất
Đầu tư CSVC hiện đại hơn nữa,cơ sở vật chất
Cần trang bị thêm quạt,cơ sở vật chất
máy chiếu không tốt,cơ sở vật chất
Máy chiếu mờ,cơ sở vật chất
Cải tiến các công cụ dạy học,cơ sở vật chất
thay đổi máy chiếu,cơ sở vật chất
Loa và máy chiếu,cơ sở vật chất
Bắt thêm quạt,cơ sở vật chất
cải thiện máy quạt,cơ sở vật chất
cải thiện máy quạt,cơ sở vật chất
cải thiện máy quạt đẻ mát hơn,cơ sở vật chất
Nên có nhiều thiết bị mới cho sv tiếp cận,cơ sở vật chất
Cơ sở thiếc bị còn ko đáp ứng môn học,cơ sở vật chất
Nâng cấp thêm xưởng điên oto,cơ sở vật chất
thêm phòng máy,cơ sở vật chất
Hỗ trợ thiết bị học tập,cơ sở vật chất
có thêm 1 hoặc 2 cái máy quạt nữa tại vì thời tiết nóng dẫn tới quá trình tiếp cận kiến thức chậm,cơ sở vật chất
- thiết bị dạy học,cơ sở vật chất
Thêm trang thiết bị dạy,cơ sở vật chất
bổ sung nhiều tài liệu cho bộ môn này,cơ sở vật chất
hỗ trợ loa cho phòng có ti vi vì loa ti vi khá nhỏ khi nghe,cơ sở vật chất
Bàn bị xuống cấp (có nhiều vụn gỗ),cơ sở vật chất
Ti vi,cơ sở vật chất
tivi chất lượng hơn,cơ sở vật chất
CƠ sở vật chấ,cơ sở vật chất
Phòng máy chiếu lap 3 bị trục trặc nên ảnh hưởng đến thiết trình,cơ sở vật chất
Cần chuẩn bị thiết bị phòng học tốt hơn,cơ sở vật chất
Cải thiện trang thiết bị TV và mic,cơ sở vật chất
Cho thêm nhiều kiến thức thực tế,cơ sở vật chất
Wi-fi g3 qua yeu,cơ sở vật chất
Wi-Fi G3 quá yếu,cơ sở vật chất
Sách để giảng dạy học phần nên là sách song ngữ Pháp - Việt và dạy theo từng bước rõ ràng như cho trẻ em vừa biết nói và đọc một ngôn ngữ và từ từ tăng dần độ khó để sinh viên nắm bắt vựng kiến thức.,cơ sở vật chất
"Điều hòa thì cần, đặt những thùng rác phân loại",cơ sở vật chất
"Có nước lọc ở NĐN, máy sấy tay ở nhà VS",cơ sở vật chất
"Đầu tư trang thiết bị, cơ sở vật chất",cơ sở vật chất
"Phòng học kín âm, trang thiết bị và đồ dùng mọi thứ rất ok ạ!",cơ sở vật chất
trang bị thêm thiết bị âm thanh ở NĐN,cơ sở vật chất
phòng học khang trang trang thiếp bị tốt. cám ơn nhà trường rất nhiều,cơ sở vật chất
Xây dựng thêm nhiều phòng lab để có thể học nghe tốt hơn,cơ sở vật chất
trang bị máy chiếu công nghệ cao,cơ sở vật chất
sắp xếp lịch thực hành ko hợp lí. thực hành chủ nhật??,khác
Cần hỗ trợ kinh phí cho sv khi thực hành nhiều hơn,khác
Nếu cứ để thầy ấy dạy nữa thì e rằng sẽ có rất ít sinh viên sẽ nhận được kiến thức sau học phần. Nếu thầy đã không còn tâm huyết với nghề giáo thì nhà trường nên cho thầy ấy về nghỉ hưu.,khác
tăng số tiết học để sv có được môi trường thực hành tiếng anh nhiều hơn,khác
Thêm thời gian cho học sinh,khác
Nội đừng thiết thực hơn,khác
Em nghĩ nên thay đổi giảng viên để đảm bải việc dạy và học ở học phần này. Các lớp khác và các khoá khác đều phản ánh là cô Phan Kim Liên vì bận bịu quá nhiều việc ở ngoài thường xuyên cho nghỉ học và lên lớp giảng dạy rất ít. Trong khi đó chúng em đến trường và đóng học phí để học chứ không phải để lên lớp rồi giảng viên cho nghỉ quá 50% số buổi học của học phần.,khác
"nếu có thể nhà trường có thể thuê trợ giảng người nước ngoài về dạy để sinh viên có thể tiếp xíc trực tiếp với người bản xứ, tiếng anh của người bản xứ.",khác
Nên học chung cùng lúc với học phần Quản trị Lễ tân,khác
Cho thời gian ôn tập hơn,khác
"Giảm học phí, thay quạt",khác
Mở nhiều lớp học phần hơn,khác
Giảm tải bớt các phần không liên quan đến ngành,khác
Kiến thức thực tế với chuyên ngành,khác
"Nhà trương nên để tên giáo viên vì có những gv giạy giỏi nhưng k hợp vs cách học của chúng em, nên gv dạy chung em k hiểu",khác
Quan tâm đến sinh viên nhiều hơn,khác
Cải thiênj tốt hơn về mọi mặt,khác
nên phân bổ thêm giáo viên khác dạy môn này nửa ạ,khác
đề nghị trường : 1 học phần chỉ nên có 1 giảng viên chính. vừa trợ giảng vừa giảng viên chính....2 người nạnh qua nạnh lại ảnh hưởng đến vc giảng dạy....giảng dạy không đầy đủ...1 mình thầy Nguyễn Thái Vũ là dạy tốt rồi,khác
nhà trường tạo điều kiện cho chúng em thực tập nhìu hơn,khác
Thêm tín chỉ cho môn học,khác
Giảm tiền học phí,khác
nhà trường tạo điều kiện cho chúng em thực tập nhìu hơn,khác
nhà trường tạo điều kiện cho chúng em thực tập nhìu hơn,khác
mong nhà trường khen thưởng nhưng giáo viên nhiệt tình yêu nghề,khác
Cần quan tâm giúp đỡ sinh viên nhiều hơn,khác
Chương trình học nên bám sát thực tế,khác
Cho nhiều thời gian ôn tập,khác
Nhà Trường có thể thay đổi về học phần này sau khi tụi em học tiếng anh chuyên ngành. Vì hầu như tài liệu là tiếng anh nhưng tiếng anh chuyên ngành chưa được tiếp xúc nhiều thì không thể đọc hiểu tài liệu của môn Kế toán quốc tế được. Tài liệu về môn này cũng khá mơ hồ trên mạng khá ít,khác
Bắt đánh giá nhiều quá không tốt rườm rà. Xem tiền để đóng hp mà mất time quá chắc nghĩ đóng hp,khác
Tổ chức nhiều trương trình giao lưu Việt _Nhật hoen nữa,khác
Hy vọng cô Yumi vẫn ở lại giảng dạy ở các kì sau ạ,khác
tại sao lại bắt lớp không chuyên ngành học tới B1.2 trong khi trình độ tiếng anh của chúng em mất gốc từ hồi cấp 2 3 do thầy cô dưới dạy không đúng cách. Thay vào số tiền chúng em bỏ ra học ở trường để học B1.1 B1.2 một cách đối phó để ra trường thì chúng e dùng số tiền đó ra tìm trung tâm học e thấy sẽ giúp chúng em cải thiện tiếng anh tốt hơn. Em thấy học tiếng anh là giao tiếp được với người nước ngoài. Em thấy học trên trường như vậy chỉ tốn tiền và mất tiền thời gian và làm cho chúng e áp lực chớ không cảm thấy thoải mái như học ở trung tâm.,khác
"Nên cho chúng em biết giảng viên sẽ đứng lớp học phần khi đăng ký ạ, vì có những môn phải có sự lựa chọn mới có thể tham gia lớp ạ! Để được vào lớp cô Khánh em phải hủy và đăng ký lại rất nhiều lần ạ! Cảm giác như ra chiến trường!",khác
Trường dạy tệ quá rồi hong đóng góp nổi nữa :( kiến thức được dạy ở trường còn thấp hơn các kiến thức mà em đã học ở trường từ cấp 2 nữa :(,khác
Giúp đỡ giảng viên và sinh viên,khác
em mong nhà trường cho sv học ở nhà đa năng nhiều hơn ạ,khác
Nên quan tâm hơn đến sinh viên học văn bằng 2,khác
cần áp dụng kiến thức môn học vào đời sống,khác
Tổ chức nhiều hoạt động vui chơi hơn,khác
"Em thật sự thích sự phân bố thời gian học như thế này của phòng đào tạo, dù chỉ 3 tín chỉ nhưng chúng em được học 2 buổi/tuần, nó giúp chúng em có thời gian ôn và học hiệu quả, em thật sự cảm ơn phòng đào tạo nhiều ạ!",khác
Được học chung với giáo viên nước ngoài nhiều hơn. Nên học chương trình theo giáo trình ở trong sách.,khác
"Nên xem xét lại cách dạy và cách chấm bài của cô oanh vì cô chấm điểm không công tâm, và rất thích trừ điểm sinh viên một cách vô lý",khác
Quan tâm hơn đến các lớp văn bằng 2,khác
Mong GV cho thực hành thực tiễn nhiều hơn,khác
áp dụng thực hành,khác
