training data,label
"NHiệt tình với sinh viên, vui vẻ",Pos
luôn nhiệt tình,Pos
"áp dụng nhiều kinh nghiệm thực tế, làm sao để sinh viên hiều bản chất của vấn đề học",Pos
"nhiệt tình, vui vẻ",Pos
"Vui vẻ , hà hước",Pos
Rất nhiệt tình,Pos
Có ứng dụng và ví dụ trong thực tiễn. Cô dạy dễ hiểu,Pos
"Ân cần, nhiệt tình, quan tâm giúp đỡ sinh viên.",Pos
"Rất nhiệt tình, phương pháp giảng dạy hiệu quả",Pos
"Nhiệt huyết, tận tình chỉ dạy sinh viên",Pos
GV thân thiện và gần gũi với sinh viên,Pos
"Giảng dạy nhiệt tình, dễ hiểu,",Pos
nhiet tình với sinh viên,Pos
giảng dạy tích cực,Pos
vui vẻ nhiệt tình,Pos
Nhanh và dễ hiểu,Pos
"Nhiệt tình,khả năng truyền đạt của Gv rất rõ ràng,mạch lạc",Pos
Nhiệt tình và giảng dạy dễ hiểu bài,Pos
"vui vẻ, nhiệt tình",Pos
Thầy dạy nhiệt tình,Pos
Dạy dễ hiểu,Pos
"Thầy luôn tâm huyết với sinh viên cũng như cách như cách dạy của thầy, thầy luôn đưa ra những gợi ý về những cái gì nên học để sinh viên tìm hiểu, thầy hay kể chuyện để giảm bớt căng thẳng trong giờ học cũng như lấy đó làm gương cho sinh viên. Người khác nói thầy luôn dạy nặng về lý thuyết nhưng em thấy điều đó là tốt và luôn ủng hộ cách dạy của thầy, phải có kiến thức nền tảng vững thì mới làm được tốt.",Pos
"Trong suốt quá trình giảng dạy học phần, giảng viên luôn hăng say năng nổ và luôn cố gắng tạo sự thích thú đối với học phần cho sinh viên.",Pos
Thầy là một người thầy dạy nhiệt tình nhất trong trường đại học Nha Trang tính đến thời điểm hiện tại,Pos
"Lượng kiến thức đưa ra trên lớp nhiều và cần thiết, kiến thứ uyên bác và thú vị",Pos
vui vẻ hòa đồng lấy nhiều ví dụ thực tế tạo nên sự hứng thú cho người học,Pos
"Thầy dạy đi sâu vào lý thuyết, và cho làm nhiều bài tập ví dụ",Pos
truyền đạt thông tin học tập cho sinh viên rất nhiệt tình,Pos
"thầy rất nhiệt tình, nhiều ví dụ cụ theo cho bài học.",Pos
giảng dạy hay chu đáo,Pos
nhiệt tình giảng dạy,Pos
Thầy dạy rất hay!!!!,Pos
Nhiệt tình giảng dạy,Pos
Thầy dạy nhiệt tình,Pos
thầy dạy nhiệt tình,Pos
thầy dạy nhiệt tình,Pos
"Nhiệt tình, tận tâm",Pos
"nhiệt tình, tận tâm",Pos
thất rất nhiệt tình,Pos
"Nhiệt tình ,vui vẻ",Pos
chỉ dạy nhiệt tình,Pos
giang day rat tot,Pos
Thẩy rất tận tâm,Pos
Chỉ dạy tần tình,Pos
thầy dạy dễ hiểu,Pos
thầy dạy hay,Pos
Vui vế,Pos
Tốt,Pos
"cô giảng dậy nhiệt tình,sữa bài giúp sinh viên",Pos
Giáo viên giảng giải dễ hiểu và chi tiết.,Pos
Có nhiều bài tập giành cho sinh viên,Pos
Cô giảng dạy nhiệt tình,Pos
Cô dạy rất nhiệt tình,Pos
"nhiệt tình, dễ hiểu",Pos
"nhiệt tình, vui vẻ",Pos
Cô dạy nhiệt tình,Pos
"cô day được, hay",Pos
Diễn đạt dễ hiểu,Pos
tốt nhiêt tình,Pos
rất nhiệt tình,Pos
thân thiện,Pos
Nhiệt tình,Pos
Dễ hiểu,Pos
"Trong suốt quá trình giảng daạy học phfần, giảng viên luôn nỗ lực tạo điều kiện tốt nhất để sinh viên cố gắng nỗ lực học tập và luôn quan sát hỗ trợ giúp đỡ sinh viên giải đáp mọi vấn đề còn vướng măc trong quá trình học tập trên lớp.",Pos
"Giẩng viên dạy rất nhiệt tình,dễ hiểu ,tận tâm",Pos
"cô nhiệt tình, vui tính, hiểu tâm lý sinh viên",Pos
nhiệt tình vui vẻ tạo nhiều điều kiện học tập,Pos
"nhiệt tình , giảng viên giảng dạy dễ tiếp thu",Pos
"Cô dạy vui vẻ, nhiệt tình với sinh viên",Pos
"hiền, dạy hay dễ hiểu, nhiệt tình, ...",Pos
"cô dạy nhiệt tình ,vui vẻ ,dễ hiểu",Pos
Học với cô cảm giác ko nhàm chán.,Pos
"Nhiệt tình, vui vẻ và thân thiện",Pos
Tác phong của cô rất chuẩn mực ạ,Pos
Hướng dẫn chi tiết cho sinh viên,Pos
"nhiệt tình, tận tâm, vui vẻ",Pos
Cô dạy rất nghiêm túc.,Pos
Cô dạy dễ hiểu vui vẻ,Pos
Vui vẻ. Nhiệt tình,Pos
Cô rất nhiệt tình.,Pos
"Nhiệt tình, vui vẻ",Pos
Chỉ dạy tận tình,Pos
"Cô dạy kĩ, vui.",Pos
Dể Hiểu,Pos
Giảng viên dạy rất kĩ chậm dễ hiểu và tận tình,Pos
"cô dạy rất kỉ , quan tâm sinh viên",Pos
"Cô nhiệt tình, dạy có tâm.",Pos
"Giọng nói to, rõ ràng",Pos
Nhiệt tình Nhiệt tình,Pos
Nhiệt tình. Thực tế,Pos
"Nhiệt tình, tận tâm",Pos
"dễ chịu, tốt tính",Pos
"vui tính, nhiệt tình, dạy dễ hiểu, lấy ví dụ thực tế nhiều, tạo được hứng thú trong bài giảng của mình",Pos
"cô nhiệt tình, giảng dễ hiểu",Pos
rât nhiệt tình,Pos
"Cô rất vui vẻ, hài hước, rất thu hút sinh viên. Lời giảng cô rất cuốn hút. Liên hệ bài học rất gần với thực tế vào đời sống sinh viên.",Pos
"cô vui vẻ, nhiệt tình, giupa đõe sinh viên nhiều, phương pháp giảng dạy dễ hiểu, liên hệ thực tế nhiều, sinh viên rất hứng thú",Pos
"cô vui vẻ, nhiệt tình, liên hê thực tế nhiweuf, sinh viên rất hứng thú trong tiết học của cô, cô tận tình giúp đỡ sinh viên",Pos
"cô dạy những kiến thức thực tiễn nên dễ hiểu, dễ tiếp thu, dễ áp dụng kiến thức đã học vào cuộc sống",Pos
"Giảng viên liên hệ lí thuyết với thực tế dễ hiểu, nhiệt tình giải đáp thắc mắc của sinh viên.",Pos
Cô rất nhiệt tình Tuyệt vời,Pos
giảng dạy nhiệt tình,Pos
"Nhiệt tình, dễ hiểu",Pos
dạy hay. nhiệt tình,Pos
"hài hước,nhiệt tình",Pos
"Nhiệt tình, vui vẻ",Pos
"nhiệt tình, vui vẻ",Pos
"Nhiệt tình,vui vẻ",Pos
giảng dễ hiểu,Pos
Dạy lôi cuốn,Pos
Nhiệt huyết,Pos
Dễ hiểu,Pos
"Nhiệt tình,kiến thức giảng dạy có liên hệ nhiều với thực tế,giúp sv thoải mái và tiếp thu kiến thức nhanh ngay tại lớp",Pos
Thầy rất nhiệt tình trong giảng dạy. Luôn tạo được sự thích thú cho Sv trong quá trình thấy giảng dạy.,Pos
Dạy nhiệt tình. Giảng bài dễ hiểu và có phương pháp dạy hay,Pos
"thầu rất nhiệt tình, vui vẻ, giảng bài dễ hiểu",Pos
"giảng bài dễ hiểu, thân thiện sinh viên",Pos
"Nhiệt tình,vui vẻ, có trách nhiệm",Pos
Thầy nhiệt tình trong giảng dạy,Pos
"vui vẻ, nhiệt tình, cởi mở",Pos
Thầy dạy rất nhiệt tình vui vẻ,Pos
"Thầy nói to, diễn đạt dễ hiểu",Pos
Thầy dạy nhiệt tình dễ hiểu,Pos
Thầy vui tính nhiệt tính,Pos
"Thân thiện, dạy dễ hiểu",Pos
Giảng dạy nhiệt tình.,Pos
"Nhiệt tình , tốt bụng",Pos
giảng bài chi tiết,Pos
Thân thiện,Pos
vui tính,Pos
Dạy tốt,Pos
Thầy rất nhiệt tình trong giảng dạy.,Pos
Thầy rất nhiệt tình trong giảng dạy,Pos
Nhiệt tình trong giảng dạy,Pos
"Dạy kỹ lưỡng,tận tình",Pos
Giảng dạy nhiệt tình,Pos
thấy dạy nhiệt tình,Pos
Dễ hiểu,Pos
Dạy tốt,Pos
Dễ hiểu,Pos
Vui vẻ,Pos
Tốt,Pos
Cô rất nhiệt tình trong giảng dạy.,Pos
Dạy tốt,Pos
"Cô dạy diễn đạt dễ hiểu, nhiệt tình trả lời câu hỏi của sinh viên.",Pos
Cô rất nhiệt tình trong giảng dạy.,Pos
Cô rất nhiệt tình trong giảng dạy.,Pos
Cô rất nhiệt tình trong giảng dạy.,Pos
"Nhiệt tình, dễ tiếp thu bài",Pos
nhiệt huyết,Pos
NHIỀU TLTK,Pos
Dạy tốt,Pos
Dạy tốt,Pos
Dạy tốt,Pos
"cô rất vui vẻ, nhiệt tình, phương pháp giảng dạy rất hay và hứng thú",Pos
"Cô rất nhiệt tình, cách truyền đạt rõ ràng",Pos
giáo viên nhiệt tình và có trách nhiệm,Pos
"Cô nói to, nhiệt tình trong giảng dạy",Pos
"Cô vui tính, dạy dễ hiểu,dễ tiếp thu",Pos
Cô rất nhiệt tình trong giảng dạy.,Pos
"Cô dạy nhiệt tình, dễ hiểu.",Pos
Dạy dễ hiểu . Nhiệt tình,Pos
"Cô giảng to, rõ. Dễ hiểu",Pos
Nhiệt tình Nhiệt tình,Pos
Nhiệt tình hướng dẫn,Pos
Vui vẻ và nhiệt tình,Pos
giảng dạy nhiệt tình,Pos
"Nhiệt tình, vui vẻ",Pos
"cô vui vẻ, dạy hay",Pos
"nhiệt tình, vui vẻ",Pos
"Vui vẻ,nhiệt tình",Pos
Khá vui tính,Pos
Thầy giáo dạy tốt,Pos
Giảng rất dễ hiểu,Pos
Thầy dạy dễ hiểu,Pos
Thầy rất tận tâm,Pos
Dạy hay đêm hiểu,Pos
dễ tiêp thu bài,Pos
Dạy rất dễ hiểu,Pos
Dạy hay dễ hiểu,Pos
Giảng dễ hiểu,Pos
dạy rất hay,Pos
Nghiêm túc,Pos
Dễ hiểu,Pos
dễ hiểu,Pos
Thầy rất nghiêm về mặt nội quy .Thây dạy hay tận tình dạy chậm dễ hiểu .,Pos
thầy dạy rất nghiêm túc giảng dạy dễ hiểu luôn quan tâm sinh viên,Pos
Ko phải nói nhiều!!! Nhà trường cần nhiều giảng viên như thế này,Pos
Thầy cực kì tận tâm giải đáp mọi thắc mắc của học sinh,Pos
Cho SV cần phải được những điều cần phải học,Pos
Thầy rất nhiệt tình và tận tâm với sinh viên,Pos
"Thầy hiền, giúp đỡ nhiều cho sinh viên",Pos
truyền đạt rõ kiến thức cho sinh viên,Pos
giáo viên dạy rất tốt và rất dễ hiểu,Pos
Giáo viên giảng dạy nhiệt tình,Pos
"Tỉ mỉ, dễ hiểu, có trách nhiệm",Pos
"giảng bài dễ hiểu, nhiệt tình",Pos
Có trách nhiệm và nhiệt tình,Pos
Có trách nhiệm với công việc,Pos
dạy nhiệt huyết với học sinh,Pos
"giảng bài dễ hiểu, rõ ràng",Pos
giảng viên dạy nhiệt tình.,Pos
"Mẫu mực, hơi nghiêm khắc",Pos
đưa nhiều ví dụ dễ hiểu,Pos
"nhiệt tình, nghiêm khắc",Pos
giảng dạy kĩ lưỡng,Pos
thầy dạy rất hiệu quả,Pos
giảng đầy đủ chi tiết,Pos
Giảng dạy nhiệt tình,Pos
Giảng dạy nhiệt tình,Pos
Tận tình giảng dạy,Pos
Giảng bài dễ hiểu,Pos
Làm việc đúng giờ,Pos
"Tâm huyết, có tâm",Pos
GV giảng rất hay,Pos
Giảng nhiệt tình,Pos
Có tâm với nghề,Pos
Dạy nhiệt tình,Pos
Giảng dạy hay,Pos
giảng dễ hiểu,Pos
Thầy dạy hay,Pos
thây dạy tốt,Pos
Giảng bài kĩ,Pos
Dạy dễ hiểu,Pos
Nhiệt tinhg,Pos
Nhiệt huyết,Pos
giảng tốt,Pos
Tận tình,Pos
Dạy giỏi,Pos
Quan tâm sinh viên giảng dễ hiểu,Pos
Thầy dạy nhiệt tình chu đáo,Pos
Thầy giảng bài rất dễ hiểu,Pos
tích cực trong học tập,Pos
"Nhiệt tình,thận trọng",Pos
Giảng dễ hiểu rõ ràng,Pos
"Dạy dễ hiểu, có ví dụ",Pos
Dạy dễ hiểu vui tính,Pos
Nhiệt tình giảng dạy,Pos
Thầy rất nhiệt tình,Pos
Thầy rất tận tình,Pos
Dạy dễ hiểu,Pos
Tận tình,Pos
Hiểu bài,Pos
Dễ hiểu,Pos
"Cô dạy khá dễ hiểu, sát sgk và có những câu châm ngôn vô cùng chính xác",Pos
Luôn được tạo cơ hội kiếm điểm cộng,Pos
GV đến lớp đúng thời khoá biểu,Pos
Tạo điều kiện lấy điểm cộng,Pos
cô có phương pháp dạy hay,Pos
noi lien tuc nhiet tinh,Pos
cô hiền lành và vui vẻ,Pos
"Dạy nhiệt tình, vui vẻ",Pos
Giáo viên chuyên cần,Pos
"Tích cực, nhiệt tình",Pos
giảng dạy nhiệt tình,Pos
Giáo viên nói nhiều,Pos
"Vui vẻ, thoải mái",Pos
giảng dạy dễ hiểu,Pos
Rất vì sinh viên,Pos
lên lớp đúng giờ,Pos
Giọng nhẹ nhàng,Pos
cô dạy dễ hiểu,Pos
Dạy nhiệt tình,Pos
Nói to rõ ràng,Pos
Chỉ rõ môn học,Pos
giảng dễ hiểu,Pos
"Hiền, dễ hiểu",Pos
Nhiệt huyết,Pos
Dạy dễ hiểu,Pos
Giảng hay,Pos
Vui tính,Pos
Giảng to,Pos
Tận tình,Pos
tận tâm,Pos
Dễ hiểu,Pos
Vui vẻ,Pos
Dạy tốt,Pos
day tot,Pos
Dễ chịu,Pos
Cách nói dễ hiểu,Pos
Dạy dễ hiểu,Pos
Dạy dễ hiểu,Pos
Dạy quá hay,Pos
Vui tính,Pos
Tận tình,Pos
Dễ hiểu,Pos
Dễ hiểu,Pos
vui vẻ,Pos
Tốt,Pos
Hay,Pos
"thầy dạy rất chi tiết, dạy yêu nghề, cho tan học luôn đúng giờ, mặc dù em sợ bị thầy nói nhưng em nghĩ những lời thầy nói em cũng như các bạn là những điều thật sự tốt và cần nghe.",Pos
"Thầy luôn kết hợp bài giảng với các môn khác để thấy được sự liên kết. Hay trong lúc giảng, thầy luôn nói vận dụng của môn học này trong cuộc sống được vận dụng ra sao.",Pos
"tạo nội quy khi lên lớp, tạo sự húng thứ cho SV , SV được nâng cao khả năng tụ suy nghĩ. Thầy dạy rất hay",Pos
"Có kỉ luật, có trách nhiệm trong việc giảng dạy, đảm bảo việc ôn thi của sinh viên.",Pos
Có nhiều hiểu biết về cuộc sống được thầy đưa vào giảng dạy,Pos
Thầy rất nhiệt tình trong việc truyền tải kiến thức cho sinh viên,Pos
"Giảng viên dạy tận tâm, dễ hiểu, thường xuyên liên hệ thực tế.",Pos
"Liên hệ thực tế rất nhiều , phong cách giảng dạy rất hay.",Pos
Thầy luôn chú trọng cách dạy để cho sinh viên hiểu bài,Pos
thầy dạy hay nhưng mà la học sinh dữ quá,Pos
Bài giảng và bài tập rất chi tiết và dễ hiểu,Pos
"nói to, giảng dễ hiểu, hay liên hệ thực tế",Pos
"Dạy dễ hiểu, học gì ra nấy, nhiệt tình",Pos
Thầy tận tâm với SV Giảng bài dễ hiểuk,Pos
"Thầy dạy dễ hiểu, dễ tiếp thu bài",Pos
hướng dẫn rất kĩ các dạng bài tập,Pos
thầy dạy rất nhiệt huyết,Pos
"Gv vui vẻ,nhiệt tình",Pos
Thầy giảng hay dễ hiểu,Pos
Giảng viên nhiệt tình,Pos
"Dạy đúng buổi ,đủ giờ",Pos
Nhiệt tình giảng dạy,Pos
Giảng bài nhiệt tình,Pos
Thầy rất nhiệt tình,Pos
Tận tâm nhiệt tình,Pos
Hăng say giảng dạy,Pos
"Dạy dễ hiểu, to rõ",Pos
hiền lành dạy hay,Pos
thầy dạy dễ hiểu,Pos
Giảng dễ hiểu,Pos
thầy tận tâm,Pos
day de hieu,Pos
Tâm huyết,Pos
Giảng hay,Pos
Vui tính,Pos
Dạy tốt,Pos
dạy hay,Pos
Rất tốt,Pos
Có tâm,Pos
tận tâm,Pos
Dể hieu,Pos
Vui vẻ,Pos
Cô giảng bài cực dễ hiểu luôn mà có đieeuf coi toàn chú ý tới mấy bạn ở bàn dưới thôi. Nhiều khi cô chú ý mấy bạn ấy quá cái hết h mà em chưa hoie được gì luôn,Pos
"Giảng dạy nhiệt tình, có ứng dụng giữa lí thuyết và thực tế, luôn ân cần kèm thêm cho các bạn học kém",Pos
"Rất quan tâm đến quá trình học của sinh viên,nhiệt huyết trong giảng dạy",Pos
"Cô rất dễ thương ....dạy rất dễ hiểu, hay nhưng không quá dài dòng",Pos
"gv vui tính, tạo cảm hứng học tập, giải đáp mọi thắc mắc của sv",Pos
giang day rat nhiet tinh mong se dc hoc co trong nhung nam toi,Pos
"Nhiệt tình trong việc giảng dạy, gần gũi với sinh viên",Pos
Cô dạy nhiệt tình.sinh viên tiếp thu nhanh dễ hiểu.,Pos
"Nhiệt tình, theo sát từng sinh viên, dạy kĩ đê hiểu",Pos
Ghi chữ to rõ ràng,Pos
Truyền đạt rõ ràng,Pos
Dậy rất nhiệt tình,Pos
Dễ hiểu và vui vẻ,Pos
giảng bài dễ hiểu,Pos
Giảng dạy dễ hiểu,Pos
Cô dạy nhiệt tình,Pos
vui vẻ .tích cực,Pos
Cô đáng yêu cực,Pos
dạy rất dễ hiểu,Pos
rõ ràng dễ hiểu,Pos
Cô đến đúng giờ,Pos
Rất nhiệt tình,Pos
Nhỉ Nhiệt tình,Pos
Tận tâm vui vẻ,Pos
Vyu vẻ dễ chịu,Pos
Cô sôi nổi,Pos
Dạy giỏi,Pos
Tận tình,Pos
dạy hay,Pos
dạy tốt,Pos
dễ hiểu,Pos
Dạy tốt,Pos
Vui vẻ,Pos
"Cách giảng của thầy ngắn gọn dễ hiểu, học gì kiểm tra đó",Pos
Thầy dạy đầy đủ kiên thức,Pos
"Tích cực, nhiệt tình",Pos
Giảng rất dễ hiểu,Pos
dạy dễ hiểu,Pos
thẳng thắn,Pos
Thực tế,Pos
lắng nghe sinh viên và giải quyết cho sinh viên. cô dạy dễ hiểu,Pos
"Giảng kỹ bài, không gây nhiều áp lực cho sinh viên",Pos
Gv dạy rất tận tình và chuyên sâu,Pos
Dạy rất nhiệt tình và chuyên sâu,Pos
"Giảng dạy nhiệt tình, dễ hiểu.",Pos
Tương tác với sv nhiều ạ.,Pos
"Cô dạy rất tận tâm, kỹ lưỡng",Pos
Cô hiền giảng day nhiệt tình,Pos
Dạy dễ hiểu tiếp thu bài,Pos
Nhiệt tình với sinh viên,Pos
cô giảng bài rất dễ hiểu,Pos
Cô dạy nhiệt tình vui vẻ,Pos
day tot va nhiet tinh.,Pos
cô dạy rất nhiệt tình,Pos
GV đưa ví dụ dễ hiểu.,Pos
"vui vẻ , dạy dễ hiểu",Pos
vui vẻ với sinh viên,Pos
"Tốt bụng,thân thiện",Pos
Ân cần chỉ bảo sv,Pos
"Hiền, dạy dễ hiểu",Pos
giảng dạy dễ hiểu và rất nhiệt tình,Pos
cô rất nhiệt tình trong giảng dạy,Pos
Nhiệt tình tận tâm giảng dễ hiểu,Pos
"Vui tính, nhiệt tình, thân thiện",Pos
"Giảng dạy chi tiết, nhiệt tình",Pos
Em thích cách giảng dạy của cô,Pos
Giáo viên dạy dễ hiểu tận tình,Pos
cô dạy dễ hiểu hòa đồng với sv,Pos
Cô rất nhiệt tình và vui tính,Pos
"Nhiệt tình, giảng dạy dễ hiểu",Pos
"Cô giảng nhiệt tình, dễ hiểu",Pos
Nhiệt huyết trong cách giảng,Pos
"Giảng dạy nhiệt tình, vui vẻ",Pos
Dạy rất rõ ràng và dễ hiểu,Pos
Nhiệt tình trong giảng dạy,Pos
"Nhiệt tình, dạy dễ hiểu",Pos
Không buồn ngủ khi học,Pos
Cô dạy rất nhiệt tình,Pos
Giảng dạy dễ hiểu,Pos
nhiệt tình chỉ bảo sv,Pos
Quan tâm đến học sinh,Pos
cô chỉ dạy nhiệt tình,Pos
Giảng dạy nhiệt tình,Pos
"Hiền, giảng dễ hiểu",Pos
"hóm hỉnh,nhiệt tình",Pos
"nhiệt tình, vui vẻ",Pos
Giảng bài tận tình,Pos
Ghi chữ to rõ ràng,Pos
Truyền đạt rõ ràng,Pos
Dậy rất nhiệt tình,Pos
Dễ hiểu và vui vẻ,Pos
giảng bài dễ hiểu,Pos
Giảng dạy dễ hiểu,Pos
Cô dạy nhiệt tình,Pos
vui vẻ .tích cực,Pos
Cô đáng yêu cực,Pos
dạy rất dễ hiểu,Pos
rõ ràng dễ hiểu,Pos
Cô đến đúng giờ,Pos
Rất nhiệt tình,Pos
Nhỉ Nhiệt tình,Pos
Tận tâm vui vẻ,Pos
Vui vẻ dễ chịu,Pos
Cô sôi nổi,Pos
Dạy giỏi,Pos
Tận tình,Pos
dạy hay,Pos
dạy tốt,Pos
thầy giảng rất nhiệt tình,Pos
nhiệt tình giảng dạy,Pos
Nhiệt tình giảng dạy,Pos
dạy nhiệt huyết,Pos
Giảng dễ hiểu,Pos
nhiệt tình,Pos
vui tính,Pos
Tận tình,Pos
Tận tình,Pos
Dể Hiểu,Pos
Rất tốt,Pos
"Giảng viên nhiệt tình, dạy dễ hiểu",Pos
"Giảng bài tự nhiên, dễ hiểu",Pos
Nhiệt tình giảng dạy,Pos
Nhiệt tình ạ,Pos
"giảng viên dạy rất nhiệt tình tạo rất nhiều hứng thú trong quá trình giảng dạy, đôi lúc liên hệ bản thân sinh viên những vấn đề liên quan đến bài học khó có giảng viên nào làm được.",Pos
"thầy dạy có cách truyền đạt hay, dễ tiếp thu, sử dụng ngôn ngữ chuyên ngành nhưng dễ hiểu .",Pos
"phương thức giảng dạy hay , dễ tiếp thu , dễ hiểu , tạo sự thu hút",Pos
"vui vẻ,hòa đồng,tận tình giảng dạy cho sinh viên",Pos
nhiệt tình trong giảng dạy,Pos
nhiệt tình giảng dạy,Pos
Giảng dễ hiểu,Pos
dạy dể hiểu,Pos
nhiệt tình,Pos
nhiệt tình,Pos
Dễ hiểu,Pos
vui vẻ,Pos
"Thầy giảng dạy tốt , nhiệt tình , truyền đạt kiến thức hay",Pos
Thầy nhiệt tình và rất chu đáo trong việc giảng dạy.,Pos
nhiệt tình chỉ bảo sinh viên trong học tập,Pos
Nhiệt tình trong quá trình giản dạy,Pos
Nhiệt tình trong việc giảng dạy,Pos
nhiệt tình với sinh viên,Pos
giảng dạy tận tâm.,Pos
"Hài hước, vui tính",Pos
Gv nhiệt tình.,Pos
vui vẻ,Pos
Thầy rất vui vẻ và nhiệt tình trong giảng dạy làm cho sinh viên rất thoải mái trong giờ học.,Pos
Hài hước gần với môn học liên hệ thực tế gần gũi nhiệt tình tự tin khen thầy đẹp trai,Pos
"thầy vui vẻ , hòa đồng , truyền đạt nội dung hay",Pos
Gần gũi với sinh viên giảng bài dễ hiểu vui vẻ,Pos
Giáo viên nhiệt tình và vui vẻ,Pos
có sức hút khi giảng dạy,Pos
thầy dễ thuơng đẹp trai,Pos
"Nhiệt tình, thân thiên",Pos
"Vui tính,nhiệt tình",Pos
"Nhiệt tình,vui tính",Pos
Nhiệt tình,Pos
Dể hiểu,Pos
perfect,Pos
vui vẻ,Pos
Cô thường quan tâm kết quả học tập của lớp,Pos
tích cực giảng dạy cho sinh viên,Pos
Vui vẻ quan tâm tới sinh viên,Pos
Giảng viên hài hước vui vẻ,Pos
"Giảng dạy dễ hiểu,tận tâm",Pos
"Giảng dạy dễ hiểu,tận tâm",Pos
GV giảng dạy hiệu quả,Pos
"Vui vẻ , nhiệt tình",Pos
Giảng dạy chi tiết,Pos
"Vui vẻ, dễ hiểu",Pos
Đề cập thực tế,Pos
Giảng kỹ,Pos
Dạy tốt,Pos
Hiền,Pos
Thầy rất nhiệt tình và giảng dạy chi tiết làm việc tiếp thu bài của sinh viên được tốt hơn rất nhiều.,Pos
"thầy giảng dạy nhiệt tình , tốt",Pos
Vui tính. Hòa đồng nhiệt tình,Pos
"GV nhiệt tình, nghiêm túc",Pos
"Nhiệt tình, thân thiên",Pos
nhiệt tinh nhiêt tinh,Pos
Giảng dạy nhiệt tình,Pos
Giảng dạy nhiệt tình,Pos
Chỉ bảo nhiệt tình,Pos
Giảng bài dễ hiểu,Pos
Nhiệt tình,Pos
Dể hiểu,Pos
dạy hay,Pos
vui vẻ,Pos
"thầy giảng dạy tốt , quan tâm sinh viên , nhiệt tình trong cách dạy",Pos
Rất nhiệt tình trong việc giảng dạy,Pos
giáo viên tích cực giảng dạy,Pos
vui vẻ,Pos
"Thầy lên lớp rất đúng giờ, và giảng bài tương đối rõ ràng",Pos
Nhiệt tình,Pos
"Giáo viên giảng bài dễ hiểu, nhiệt tình",Pos
"Nhiệt tình, có chuyên môn cao",Pos
thầy dạy nhiệt tình,Pos
"Vui tính, nhiệt tình, tận tình với sinh viên, luôn giải đáp thắc mắc cho sinh viên",Pos
Nhiệt tình trong giảng dạy,Pos
"thầy giảng dạy rất hay , nhiệt tình , truyền đạt nhiều kiến thức bổ ích",Pos
Thầy dạy hay,Pos
Có chuyên môn tốt,Pos
giao viên nhiệt tình tâm huyết vs bộ môn giản dạy,Pos
Rất nhiệt tình,Pos
"Thầy cá tính, diễn đạt bài giảng rất nhiệt tình, tạo cơ hội cho sinh viên lấy điểm quá trình",Pos
Giảng bài tận tình,Pos
Nhiệt tình,Pos
"GV giảng dạy rất nhiệt tình. Thường xuyên kết hợp lý thuyết vơi thực hành, giúp sinh viên dễ tiếp thu.",Pos
nhiệt tình,Pos
giảng dạy nhiệt tình,Pos
Vui tính trong quá trình giảng dạy.,Pos
Vui vế,Pos
nhiệt tình,Pos
thầy rất vui tính,Pos
giảng viên nhiệt tình,Pos
Thầy dạy rất sáng tạo,Pos
giang day rat tot,Pos
Thầy dạy dễ hiểu,Pos
Tốt,Pos
Thầy hiền giọng dễ nghe.,Pos
Thầy truyền đạt nhiều kiến thức rất bổ ích,Pos
Nhiệt tình,Pos
Nhiệt tình,Pos
Dạy hay,Pos
Vui,Pos
Tích cực,Pos
Tuyệt vời,Pos
Nghiêm túc,Pos
nhiệt tình,Pos
"Nói to rõ ràng, dễ hiểu",Pos
Nhiệt tình giảng dạy,Pos
Nhiệt tình,Pos
"Nhiệt tình,rõ ràng dễ hiểu,sáng tạo,thực tế,....",Pos
Giảng dễ hiểu,Pos
Dạy nhiệt tình,Pos
Thầy dạy nhiệt tình,Pos
Vui vẻ nhiệt tình,Pos
Dạy dễ hiểu,Pos
Hăng say nhiệt tình,Pos
nhiệt tình,Pos
giúp đỡ sinh viên nhiệt tình,Pos
Nhiệt tình,Pos
"Giảng viên dạy hay, dễ hiểu.",Pos
Cứ tiếp tục phát huy! Thầy dạy được lắm đấy!:)),Pos
Thầy dạy rất nhiệt tình,Pos
khong co,Pos
Thầy khá dễ tính.,Pos
Nói to rõ,Pos
dễ hiểu,Pos
Vui vẻ,Pos
Thầy dạy rất dễ hiểu,Pos
Nhiệt tình,Pos
"Truyền tải dễ hiểu, nói tiếng anh lưu loát",Pos
Tốt,Pos
Tạo cảm giác thoải mái cho sinh viên,Pos
Tích cực,Pos
thầy dạy dễ hiểu,Pos
Vui vẻ,Pos
Dạy hay,Pos
"Có trách nhiệm, dạy nhiệt tình, liên hệ với thực tế rất nhiều",Pos
Nhiệt tình tận tâm giảng dễ hiểu,Pos
Tận tình giúp đỡ,Pos
"giảng dạy nhẹ nhàng, dễ hiểu.",Pos
thầy dạy dễ hiểu nhiệt tình,Pos
Giảng dạy dễ hiểu,Pos
Truyền đạt rõ ràng,Pos
nhiet tinh,Pos
Vui vẻ giảng dạy nhiệt tình.,Pos
giang day rat tot,Pos
Rất nhiệt tình,Pos
chỉ tận tình,Pos
dạy nhiệt tình,Pos
Nhiệt tình,Pos
giáo viên rất nhiệt tinnhf,Pos
Hài hước,Pos
Mở rộng thực tế nhiều,Pos
Nhiệt tình,Pos
giảng nhiệt tình,Pos
thầy dạy dễ hiểu nhiệt tình,Pos
Vui vẻ,Pos
"thầy dạy nhiệt tình ,dễ hiểu",Pos
Thầy giảng dễ hiểu,Pos
Nói to rõ ràng,Pos
"Giảng dạy nhiệt tình, giải thích kỹ từng nội dung, kết hợp giữa lý thuyết và bài tập để giúp sinh viên nắm được bài.",Pos
"Được tham quan thực tế và tiếp xúc, trao đổi với doanh nghiệp, được giảng viên chia sẻ kinh nghiệm thực tế",Pos
Cô có nhiều kiến thức giảng dạy hay,Pos
"Giáo viên dạy hay, dễ hiểu.",Pos
Giảng dạy kĩ nội dung học,Pos
Cô giảng dạy nhiệt tình,Pos
thực tiễn cao,Pos
"Cô Kim Anh rất nhiệt tình trong quá trình giảng dạy và giải đáp thắc mắc cho sinh viên, cô còn đưa ra những ví dụ thực tế để áp dụng vào bài học làm sinh viên rất dễ hiểu bài",Pos
"Tạo điều kiện phát biết ý kiến cá nhân, tái hiện cho học sinh những tình huống, tiết học chủ yếu là thực hành đi đôi với lý thuyết, cô dạy vừa có tâm lại có tầm",Pos
cô rất nhiệt tình trong quá trình giảng thường xuyên đưa ra các ví dụ thực tiễn để sinh viên nắm rõ hơn về bài giảng,Pos
"Cô rất vui vẻ, rất dễ gần, luôn nhắc nhỡ động viên khích lệ tụi em,cô rất perfect",Pos
"Cô hiểu tâm lí SV, giúp SV tiếp thu kiến thức một cách tự nhiên qua các trò chơi",Pos
"cô dễ thương vui vẻ hòa đồng thân thiện với sinh viên, giảng bài dễ hiểu",Pos
"Cô luôn cười và luôn nhẹ nhàng, giảng bài kĩ lưỡng.",Pos
Vui tính. Nhiệt huyết. Hòa đồng. Hài hước.,Pos
Giọng nói rõ ràng và giảng dạy kiến thức kỹ lưỡng,Pos
Cô truyền đạt nhiều thông tin thực tế khách quan,Pos
Nhiệt tình vui vẻ hoà đồng bài học thực tế cao,Pos
cô chỉ dạy cho chúng em rất nhiều điều,Pos
"Giảng dễ hiểu, vui vẻ....",Pos
giảng viên giảng dễ hiểu,Pos
giáo viên luôn luôn cười,Pos
"Vui, nhiệt tình, dễ hiểu",Pos
"Nhiệt tình, dạy dễ hiểu",Pos
"Cô tận tình , giảng hay",Pos
rat quan tam sinh vien,Pos
Tận tình với sinh viên,Pos
cô dạy vui và dễ hiểu,Pos
Cô giảng dạy rất hay,Pos
"dạy hay, nhiệt tình",Pos
giáo viên luôn cười,Pos
"Vui vẻ, nhiệt huyết",Pos
Dạy đúng chưa trình,Pos
Truyền đạt dễ hiểu,Pos
Nhiệt tình tận tâm,Pos
Nhiệt tình dễ hiểu,Pos
Chu đáo nhiệt tình,Pos
"Nói rõ, giảng tốt",Pos
Cô rất nhiệt tình,Pos
giảng dạy dễ hiểu,Pos
"Cô hiền, dịu dàng",Pos
Cô rất vui vẻ !,Pos
"Vui vẻ ,dễ tính",Pos
Liên hệ thực tế,Pos
Dạy rất dễ hiểu,Pos
"Hiền, vui tính",Pos
giảng dễ hiểu,Pos
ví dụ thực tế,Pos
dạy dễ hiểu,Pos
Dạy tốt,Pos
Hiền hòa,Pos
vui tính,Pos
rất tốt,Pos
rất tốt,Pos
Ro rang,Pos
Dạy tốt,Pos
de hieu,Pos
rất tốt,Pos
Dễ hiểu,Pos
giỏi,Pos
Xinh,Pos
Hiền,Pos
Hay,Pos
tốt,Pos
Hay,Pos
Vui,Pos
"có những bài giảng khá là trừu tượng, biết cách tạo ra nhiều cách giảng dạy khác nhau để sinh viên nhớ bài lâu hơn, đồng thời làm bài giảng trở nên thú vị hơn, thu hút sinh viên trong giờ học",Pos
"Giảng viên có nhiều sáng tạo trong cách dạy khi yêu cầu sinh viên làm việc nhóm, cung cấp nhiều thông tin bổ ích cho sinh viên",Pos
Cho sinh viên tự thành lập một hãng vận chuyển để thực hành giải quyết các vấn đề mà các hãng vận chuyển hay gặp phải,Pos
"Cô nhiệt tình trong giảng dạy, các bạn thuyết trình rồi cô vẫn giảng lại cho cả lớp hiểu rõ hơn.",Pos
"nhiệt tình, có trách nhiệm, chia sẻ nhiều vấn đề trong thực tế, phương pháp truyền đạt dễ hiểu.",Pos
"Cô giảng dạy nhiệt tình, liên hệ thực tiễn với lý thuyết để giúp sv hiểu bài nhanh hơn",Pos
truyền đạt dễ hiểu và tạo ra nhiều trò chơi trong giờ học giúp tiếp thu dễ dàng hơn,Pos
"Bài giảng của cô rất thực tiễn, khách quan, truyền cảm hứng yêu nghề cho sinh viên",Pos
"Cô mở rộng kiến thức rất nhiều,cách giảng rất thu hút",Pos
"Nhiệt tình trong giảng dạy, gần gũi với sinh viên",Pos
Giảng dạy lôi cuốn và truyền đạt kiến thức đầy đủ,Pos
"Áp dụng vào thực tiễn, có nhiều hoạt động nhóm",Pos
Cô rất nhiệt tình và thân thiện với sinh viên,Pos
"nhiệt tình sửa chữa, giảng bài cho sinh viên",Pos
"Có nhiều kiến thức, nhiệt tình, quan tâm sv",Pos
Phong cách dạy cuốn hút và truyền cảm hứng,Pos
Tạo hứng thú cho sinh viên trong giờ học,Pos
cô cung cấp rất nhiều tình huống thực tế,Pos
"Vui vẻ, nhiệt tình, thương yên sinh viên",Pos
"Nhiệt tình,dạy dễ hiểu,vui tính,tâm lí",Pos
"Cô giảng nhiệt huyết, tận tâm",Pos
"Nhiệt tình, giảng dạy dễ hiểu",Pos
"nghiêm túc,nhiệt tình,gần gũi",Pos
"nghiêm túc, nhiệt tình",Pos
Cô giảng bài rất kỉ lưỡng,Pos
Có kinh nghiệm thực tiễn,Pos
cô giảng bài rất thu hút,Pos
Cô giảng dạy nhiệt tình,Pos
"Gv vui vẻ,tận tình,",Pos
"Vui vẻ , nhiệt tình",Pos
cô quan tâm sinh viên,Pos
Thân thiện nhiệt tình,Pos
Nhiệt tình thân thiện,Pos
"Đúng giờ, nhiệt tình",Pos
"Đúng giờ, nhiệt tình",Pos
giảng dạy nhiệt tình,Pos
Nhiệt tình dễ thương,Pos
Nhiệt tình và vui vẻ,Pos
Giáo viên giảng hay,Pos
Cô dạy hay,Pos
năng động,Pos
dạy hay,Pos
Dạy tốt,Pos
Vui vẻ,Pos
hay,Pos
Tốt,Pos
GV vận dụng thực tế vào bài giảng giúp cho sinh viên hiểu rõ hơn về bài học. Quá trình giảng dạy sôi động làm sinh viên cảm thấy hứng thú với học phần hơn,Pos
cô rất nhiệt tình trong quá trình giảng dạy thường xuyên đưa ra những ví dụ thực tiễn để sinh viên nắm bắt kĩ hơn về bài giảng,Pos
Cô dạy dễ hiểu và nhiệt tình. Ngoài giờ học cô còn giải đáp những thắc mắc của sinh viên 1 cách thấu đáo,Pos
vui tính áp dụng những chuyện đời thường vào bài giảng làm sinh viên hiểu rõ bài học nhiều hơn,Pos
Cô vui vẻ. Giảng bài dễ hiểu. Có cách thuyết trình mới nhằm thu hút sinh viên nghe hơn,Pos
"Gv luôn áp dụng kiến thức thực tế và lý thuyết, được thực hành từ quá trình đi tour",Pos
"giảng viên giảng dạy vô cùng dễ hiểu, tạo điều kiện cho sinh viên đi thực tế",Pos
"Cô vui vẻ, nhiệt tình giảng dạy. Luôn giúp đỡ sv và hướng dẫn nhiệt tình .",Pos
"Giảng bài dễ hiểu, tạo ra nhiều hoạt động trong giảng dạy",Pos
"Giảng viên nhiệt tình, có phương pháp giảng dạy thú vị",Pos
"GV nhiệt tình , vui tính , nhiệt huyết trong giảng dạy",Pos
"vui vẻ, nhiệt tình, giao lưu nhiều với sinh viên",Pos
"Vui tính, dạy hay, tạo sự thoải mái trong hoch tập",Pos
"Cô dễ thương, dạy nhiệt tình, gần gũi sinh viên",Pos
"Nhiệt tình vui vẻ, có nhiều chia sẻ hay thú vị",Pos
"GV nhiệt tình, cách dạy rất lôi cuốn sinh viên",Pos
"năng nổ, nhiệt tình, kiến thức chuyên môn cao",Pos
"Phương pháp giảng dạy khoa học, dễ tiếp thu",Pos
"giảng viên nhiệt tình, dễ cưng, dạy dễ hiểu",Pos
Nhiệt tình giải đáp thắc mắc của sinh viên,Pos
"vui vẻ, giảng bài đầy đủ cho sinh viên",Pos
thực hiện đúng chuẩn mực của giáo viên,Pos
Có liên hệ giữa thực tế và lí thuyết,Pos
"Cô nhiệt tình, vui vẻ với sinh viên",Pos
"Cô rất hiền, dễ thương, dạy dễ hiểu",Pos
Cô thân thiện nhiệt tình giảng dạy,Pos
"vui tính,truyền đạt dễ hiểu,dễ gần",Pos
vui vẻ hòa nhập cùng sinh viên,Pos
"cô rất nhiệt tình, vui vẻ",Pos
Giảng rất thu hút và vui tính,Pos
"Nhiệt tình, bài giảng đầy đủ",Pos
Có cách giảng dạy hiệu quả.,Pos
"Trải nghiệm nhiều, vui tính",Pos
"Cô dạy nhiệt tình, dễ hiểu",Pos
Nhiệt tình trong giảng dạy,Pos
Cô rất nhiệt tình,Pos
Giáo viên vui vẻ,Pos
"Sôi nổi, dễ hiểu",Pos
Ví dụ thực tế,Pos
giảng bài hay,Pos
Giảng dạy tốt,Pos
Nhiệt huyết,Pos
Cô dạy hay,Pos
Nhiệt tình,Pos
Giảng hay,Pos
De hieu,Pos
Vui vẻ,Pos
Vui vẻ,Pos
Hiền,Pos
cô rất nhiệt tình trong quá trình giảng dạy và cô thường xuyên đưa ra những ví dụ thực tế để sinh viên nắm bắt rõ hơn về bài giảng,Pos
"Cô giảng hay, thường có phương pháp hoạt náo giúp lớp vui và thoải mái hơn",Pos
"giảng hay, thường xuyên liên hệ với thực tế để sinh viên dễ hình dung",Pos
Cô luôn lấy ví dụ thực tế để minh hoạ cho bài giảng của mình.,Pos
"Vui vẻ, nhiệt tình, thích những game nhỏ trong giờ học:)",Pos
"giọng rõ ràng, ưu tiên thực tế hơn là lý thuyết",Pos
"Cô dễ thường nhiệt tình, liên hệ thực tiễn",Pos
"trình độ tiếng anh giỏi, chia sẻ kinh nghiệm với sv",Pos
"phong cách,chất lạ,kích thích sự tư duy",Pos
Cô rất nhiệt tình,Pos
"Cô vui tính, giảng bài hay và dễ hiểu",Pos
"vui tính,phong cách dạy mới mẻ,độc đáo,kích thích sự tư duy",Pos
Thầy dạy dễ hiểu và nhiệt tình,Pos
"Nhiệt tình, cung cấp kiến thức tốt",Pos
Áp dụng những kinh nghiệm của cô vào giảng dạy,Pos
"Kiến thức của cô rất rông, em rất vui khi được lĩnh hội kiến thức cô truyền lại.",Pos
Năng động và chuyên nghiệp,Pos
"Cách truyền đạt nội dung sáng tạo, mới lạ, gây hứng thú cho sinh viên.",Pos
"nhiệt tình, trách nhiệm",Pos
Cô thường xuyên chia sẻ kinh nghiệm cuộc sống. Dạy dễ Hiểu,Pos
"Cô giảng dậy nhiệt tình, phát âm hay",Pos
"GV vui vẻ và nhiệt tình trong giảng dạy, sinh viên tiếp thu bài và hăng say trong việc học.",Pos
Cô dạy rất nhiệt tình và vui vẻ,Pos
"Em thấy cách dạy của cô rất chân thành, tận tụy. Cô dạy dễ hiểu và ân cần.",Pos
"Nói tiếng anh dễ hiểu, giảng bài lôi cuốn",Pos
"nhiệt tình, dễ hiểu",Pos
"nhiệt huyết với công việc, tạo cơ hội cho sinh viên thực hành",Pos
Cô rất vui vẻ,Pos
"cô dạy rất tốt, hay dễ hiểu",Pos
"Kết hợp giữa lý thuyết và thực hành, có sự tương tác nhiều giữa giáo viên và học sinh, đựơc giáo viên chia sẻ nhiều kinh nghiệm thực tế",Pos
Rất nhiệt tình,Pos
"Giảng viên có kiến thức chuyên môn cao, nhiệt tình giúp đỡ sinh viên, có phương pháp giảng dạy thú vị",Pos
Giáo viên giảng hay,Pos
Tốt,Pos
Vui vẻ,Pos
Nhiệt tình,Pos
"GV rất vui tính , nhiệt tình , đi đúng trọng tâm giảng dạy , luôn liên hệ thực tế",Pos
"Lý thuyết kết hợp với thực tiễn, nhiệt tình, vui tính",Pos
Thầy vui vẻ và nhiệt tình giảng dạy,Pos
good,Pos
nhiệt tình hài hước,Pos
Thầy dạy hay,Pos
"Nhiệt tình , kiến thức xã hội rộng",Pos
Giáo viên vui vẻ,Pos
Nhiệt tình,Pos
Thầy tạo không gian học không bị áp lực,Pos
Giảng viên dạy nhiệt tình và vui vẽ,Pos
Thân thiện với sinh viên.,Pos
"GV vui tính, trong quá trình dạy học đã lấy được nhiều ví dụ thực tế đan xen lý thuyết bài học.",Pos
Vui vẻ,Pos
"cách dạy mới mẻ, nhiều thông tin thực tế",Pos
Nhiệt tình trong giảng dạy,Pos
Cung cấp kiến thức ngành và liên ngành,Pos
Giảng bài hay,Pos
cho hoc sinh duoc rat nhieu bai hoc chuyen nganh cung nhu cac kien thuc xa hoi,Pos
Vui vẻ,Pos
de hieu,Pos
Sinh viên học được nhiều kỹ năng trong ngành lẫn cuppjc sốngp,Pos
"Thầy rất có tâm trong việc giảng dạy, vui vẻ và tốt bụng lắm ạ, em rất yêu mến thầy",Pos
Dạy tốt,Pos
nhiệt tình,Pos
Cô có liên hệ thực tiễn khá hay,Pos
cho sinh viên xem nhiều hình ảnh và video liên quan tới học phần cho sinh viên dễ hình dung kiến thức,Pos
Không,Pos
"nhiệt tình, vui vẻ, tạo điều kiện tối đa cho sinh viên học tập, chia sẻ nhiều kinh nghiệm thực tế.",Pos
giáo viên giảng dạy dễ hiểu,Pos
De hieu,Pos
Nhiệt tình,Pos
"Giảng bài rõ ràng, dễ hiểu, gần gũi với sinh viên",Pos
"Giảng viên vui tính, cung cấp nhiều thông tin bổ ích, thực tế cho sinh viên",Pos
Vui vẻ nhiệt tình,Pos
Hiền lành thân thiện giảng bài dễ hiểu,Pos
Cô giảng nhiều kiến thức liên quan để sinh viên dễ hiểu,Pos
cô cung cấp rất nhiều kiến thức thực tế,Pos
"truyền đạt kiến thức đầy đủ, dễ hiểu",Pos
"Cô hòa đồng dễ tính, dạy dễ hiểu",Pos
"Cô dễ tính, nhiệt tình",Pos
"Dạy hay, dễ hiểu, nhiệt tình",Pos
thường xuyên liên hệ thực tế,Pos
"Cô hiền, dễ thương",Pos
Giảng dạy tốt,Pos
xinh đẹp,Pos
Nhiệt tình,Pos
"nhiệt tình, vui tính, có trách nhiệm, phương pháp truyền đạt dễ hiểu, chia sẽ nhiều kinh nghiệm thực tế.",Pos
Giảng viên vui vẻ nhiệt tình và giảng dạy hiệu quả,Pos
Áp dụng kiến thức thực tế vào bài học,Pos
"Giảng dạy nhiệt tình, tạo không khí vui vẻ, sôi nổi, tổ chức các hoạt động tham quan thực tế cho sinh viên.",Pos
"Thầy dạy nhiệt tình, giảng dạy nhiều kiến thức hay",Pos
"Tạo không khí vui tươi, sôi nổi, giảng dạy nhiệt tình.",Pos
"Thầy dạy nhiệt tình, giảng dạy nhiều kiến thức hay",Pos
Vui vẻ,Pos
"cô vui vẻ, thoải mái",Pos
Giáo viên làm cho sinh viên cảm thấy thoải mái khi học.,Pos
nhiệt tình,Pos
vui vẻ,Pos
"Vui vẻ, hoà đồng",Pos
vui vẻ,Pos
Thầy nhiệt tình cung cấp những kiến thức bổ ích,Pos
"Thầy giảng hay , nhiệt tình",Pos
Vui vẻ nhiệt tình,Pos
"nhiệt tình, giảng dạy dễ hiểu",Pos
Giảng viên dạy dễ hiểu sinh viên nhanh tiếp thu sôi nổi giảng dạy có tương tác nhiều với sinh viên tạo nhiều hứng thú trong giờ học tạo nhiều điệu khiên đặt câu hoỉ cho sinh viên kiếm điểm,Pos
"nhiệt tình, giảng dạy dễ hiểu",Pos
Thầy nói chậm quá,Pos
Nhiệt tình,Pos
"nhiệt tình, vui tính, phương pháp truyền đạt dễ hiểu, thường xuyên liên hệ kiến thức với thực tiễn, có trách nhiệm.",Pos
"Tiết học của thầy vô cùng thu hút,thầy guảng rất nhiệt tình lấy vô cùng nhiều lý thuyết thực tế vào bài giảng ạ",Pos
Thầy giảng bài liên hệ nhiều kiến thức thực tế Và phong cách giang dạy rất vui vẻ,Pos
"Vui vẻ, hài hước, hòa đồng, nhiệt huyết, liên hệ thực tế rất hay",Pos
Thầy rất thân thiện giúp cho sinh viên có hứng thú khi học học phần này,Pos
"Cách truyền đạt của thầy rất hấp dẫn, cụ thể, thực tế, dễ hiểu.",Pos
liên hệ nhiều thực tiễn trong quá trình giảng dạy môn học,Pos
vui vẻ hòa đồng dạy dễ hiểu tạo được không khí sôi nổi,Pos
liên hệ thực tiễn rất nhiều gây hứng thú trong giờ học,Pos
"Thầy dạy nhiệt tình, giảng dạy nhiều kiến thức hay",Pos
Thầy kể rất nhiều vấn đề thực tế của xã hội,Pos
Thầy tạo cảm giác thoải mái trong giờ học,Pos
Làm cho sinh viên hứng thú với môn học,Pos
"Vui tính, tạo hứng thú học tập cho sv",Pos
Thầy rất quan tâm về việc tiếp thu kiến thức của sinh viên,Pos
làm bài tập nhiều để củng cố kiến thức cuối bài,Pos
"Nhiệt tình ,giảng dễ hiểu ,có trách nhiệm cao",Pos
"rất hài lòng, có trách nhiệm",Pos
Tận tâm với sinh viên,Pos
Giảng rất chi tiết,Pos
Giảng tận tâm,Pos
Giảng hay,Pos
"Học cô luôn được về sớm hơn 1 tiết, cô hay cho bài tập nhóm về nhà và cho nghỉ vào ngày học môn đó để các bạn học nhóm.",Pos
Cho sinh viên làm quen với việc sử dụng máy tính và biết cách làm bài nhanh hơn,Pos
"cô giảng hay, thường xuyên cho bài tập để sinh viên thực hành",Pos
"Giảng bài rõ ràng, nhiệt tình trong giảng dạy",Pos
cô rất nhiệt tình trong quá trình giảng dạy,Pos
"Thân thiện, nhiệt tình với sinh viên",Pos
Giảng viên dạy nhiệt tình và vui vẽ,Pos
Cô nhiệt tình trong việc giảng dạy,Pos
cao.. cô xinh gái.. giọng dễ nghe,Pos
Cô rất thân thiện với học sinh ạ,Pos
Cô dậy đúng trọng tâm. Dễ hiểu,Pos
"Giảng bài nhanh gọn, dễ hiểu",Pos
"nhiệt tình, có trách nhiệm.",Pos
"nhiệt tình, có trách nhiệm",Pos
Nhiệt tình vui vẻ với sv,Pos
giáo viên giảng dễ hiểu,Pos
"Vui vẻ , nhiệt tình",Pos
rat quan tam sinh vien,Pos
"Cô dạy hay, linh hoạt",Pos
Cô dạy rất nhiệt tình,Pos
cách dạy rất thực tế,Pos
"Nhiệt tình, vui vẻ",Pos
"Vui vẻ, nhiệt tình",Pos
Ngắn gọn súc tích,Pos
Giảng dạy dễ hiểu,Pos
Giảng bài dễ hiểu,Pos
Giảng dạy dễ hiểu,Pos
giảng dạy dễ hỉu,Pos
Giáo viên vui vẻ,Pos
"Giỏi,nhiệt huyết",Pos
Nhiewjt tình,Pos
Dạy tốt,Pos
Dễ hiểu,Pos
Ro rang,Pos
Dạy tốt,Pos
de hieu,Pos
Dễ chịu,Pos
Nói to,Pos
Vui vẻ,Pos
tốt,Pos
"Nghiêm khắc, khó tính, nhưng vì muốn giúp sinh viên cố gắng hơn",Pos
"Nói to, giảng dễ hiểu, thu hút, liên hệ thực tế nhiều",Pos
Cô giảng dạy rất nhiệt tình. Dễ hiểu,Pos
Giáo viên truyền đạt đủ kiến thức,Pos
Rất tận tâm,Pos
Dạy dễ hiểu,Pos
Dạy tốt,Pos
Cô giảng với tốc độ vừa phải giúp sinh viên dễ nắm bắt kiến thức. Hướng dẫn bài tập rất rõ ràng,Pos
"nhiệt tình, củng cố kiến thức bằng cách cho nhiều bài tâjp",Pos
Gv cho ví dụ áp dụng theo bài học rất hữu ích.,Pos
Cô rất nhiệt tình và tận tâm trong giảng dạy,Pos
"hòa đồng , vui vẻ , thân thiện , dạy dễ hiểu",Pos
"Nhiệt tình với sinh viên, bài giảng dễ hiểu",Pos
Có sự liên hệ giữa lý thuyết và thực tế.,Pos
Gv tận tình trong việc giảng dạy,Pos
Gv dạy tận tình và chuyên sâu,Pos
Nhiệt tình trong giảng dạy,Pos
Cô giảng dạy khá chi tiết,Pos
Cô luôn lên lớp đúng giờ.,Pos
truền đạt kiến thức tốt,Pos
Nhiệt tình trách nhiệm,Pos
nhiệt tình nhiệt tình,Pos
Nhiệt tình giảng dạy,Pos
Giảng dạy nhiệt tình,Pos
Khôbg có,Pos
Tuyệt ạ,Pos
dạy hay,Pos
Dạy tốt,Pos
Dạy hay,Pos
rất tốt,Pos
vui vẻ,Pos
vui vẻ,Pos
Vui vẻ,Pos
Hiền,Pos
"Dạy hay, hiểu tâm lí sinh viên,bài học có liên hệ thực tế giúp tạo hứng thú",Pos
"nhiệt tình, hòa đồng với sinh viên có phương pháp dạy dễ hiểu",Pos
Cô dạy dễ hiểu và rất quan tâm sinh viên trong lúc học,Pos
"phương pháp dạy học dễ hiểu, dễ nắm bắt kiến thức",Pos
Cô rất nhiệt tình và thân thiện với sinh viên,Pos
dạy dể hiểu không gây không khí buồn ngủ,Pos
"Dạy dễ hiểu, thân thiện với sinh viên",Pos
"Cách dạy rất nhiệt tình, dễ tiếp thu",Pos
Dễ hiểu rất nhiệt tình với sinh viên,Pos
Tận tâm nhiệt tình trong giảng dạy,Pos
Cô dạy dễ hiểu và rất nhiệt tình.,Pos
"Giảng rõ ràng dễ hiểu, nhiệt tình",Pos
"nhiệt tình,truyền đạt dễ hiểu",Pos
Nhiệt tình trong giảng dạy,Pos
Cô giảng bài rất dễ hiểu,Pos
Cô nhiệt tình giảng dạy,Pos
Cô dạy rất nhiệt huyêt,Pos
"nhiệt tình, giảng hay",Pos
nhẹ nhàng dễ tiếp xúc,Pos
Giao vien nhiet tinh,Pos
"Dễ hiểu, nhiệt tình",Pos
"Cô dạy hay, dễ hiểu",Pos
giảng cái hiểu liền,Pos
Dễ tính nhiệt tình,Pos
Nhiệt tình dễ hiểu,Pos
"Nhiệt tình, vui vẻ",Pos
Cô rất nhiệt tình,Pos
Cô rất nhiệt tình,Pos
Giảng bài rất hay,Pos
"Vui vẻ, hòa đồng",Pos
Cô giảng dễ hiểu,Pos
Giảng dạy tỉ mỉ,Pos
Gv nhiệt tình,Pos
"Lịch sự, giỏi",Pos
giảng dễ hiểu,Pos
Nhiệt tình,Pos
cô giảng hay,Pos
Dạy dễ hiểu,Pos
Dạy dễ hiểu,Pos
Dạy dễ hiểu,Pos
nhiệt tình,Pos
Nhiệt tình,Pos
nhiet tinh,Pos
cô đẹp xĩu,Pos
Giảng hay,Pos
Đúng giờ,Pos
Vui tính,Pos
Dạy tốt,Pos
dạy tốt,Pos
de hieu,Pos
Dễ hiểu,Pos
Dễ hiể,Pos
Vui vẻ,Pos
Vui vẻ,Pos
Cô giảng bài rất dễ hiểu,Pos
Giảng bài kĩ và dễ hiểu,Pos
cô giảng rất là kĩ càng,Pos
Truyền đạt đủ kiến thức,Pos
Cô tận tình giảng bài.,Pos
cô giản bài dễ hiểu,Pos
"Nhiệt tình, vui vẻ",Pos
cô vui vẻ hòa đồng,Pos
Cô rất nhiệt tình,Pos
Cô dạy nhiệt tình,Pos
Giangr bài tập kĩ,Pos
Cô dạy nhiệt tình,Pos
Cô rất nhiệt tình,Pos
Giảng dạy tận tâm,Pos
Giảng nhiệt tình,Pos
gần gũi,Pos
dạy hay,Pos
Dê hiểu,Pos
Vui ve,Pos
"vui vẻ, nhiệt tình",Pos
giảng dễ hiểu,Pos
Nhiệt tình,Pos
nhiệt tình,Pos
Nhiệt tình,Pos
Giảng dạy nhiệt tình,Pos
"giảng hay , dễ hiểu",Pos
Thầy dạy nhiệt tình,Pos
Nâng cao kiến thức,Pos
giảng bài dễ hiểu,Pos
giảng dạy dễ hiểu,Pos
Nhiệt tình với sv,Pos
giảng bài dễ hiểu,Pos
Rất nhiệt tình,Pos
Rất nhiệt tình,Pos
Dạy nhiệt tình,Pos
Giảng dễ hiểu,Pos
nhiệt tình,Pos
dạy dễ hiểu,Pos
nhiệt tình,Pos
Giảng hay,Pos
không co,Pos
Tận tình,Pos
tận tâm,Pos
Dễ hiểu,Pos
Dễ hiểu,Pos
Thực tế,Pos
Dạy tốt,Pos
Dễ hiểu,Pos
"Nhiệt tình, thu hút",Pos
"vui vẻ, nhiệt tình",Pos
Thân thiện với sv,Pos
Tận tình.,Pos
Dễ hiểu,Pos
Ok,Pos
"Vui vẻ, nhiệt tình, tạo cho sinh viên chăm tìm hiểu bài.",Pos
"Vui vẻ, nhiệt tình, giúp sinh viên đi học chăm chỉ hơn.",Pos
"Vui vẻ,nhiệt tình, giúp học sinh chăm chỉ đi học hơn.",Pos
"Đi đúng giờ, giảng bài hay, thầy thân thiện",Pos
Thầy rất tận tâm với sinh viên,Pos
Tiết học của thầy rất thú vị,Pos
Kết hợp với thực tế,Pos
Thầy rất nhiệt tình,Pos
"Vui vẻ, nhiệt tình.",Pos
"Nhiệt tình, vui vẻ",Pos
Thầy khá thoải mái,Pos
hay kể chuyện vui,Pos
Giảng bài nghe rõ,Pos
Thầy rất tận tâm,Pos
Thầy nói nghe rõ,Pos
Thầy giảng hay,Pos
thầy vui tính,Pos
Day dễ hiểu,Pos
Dạy dễ hiểu,Pos
Dạy dễ hiểu,Pos
Nghiêm túc,Pos
Nghiêm túc,Pos
Dạy hay,Pos
Dễ hiểu,Pos
Thầy Lam rèn tính cẩn thận cho sinh viên rất nhiều. Đó là ưu điểm nổi bật ở thầy,Pos
Nghiêm khắc với sinh viên trong quá trình dạy và học,Pos
"Yêu cầu tác phong, vệ sinh phòng hợp rất hợp lý",Pos
Nghiêm chỉnh và nghiêm túc trong các tiết dạy,Pos
"có tính kỉ luật cao ,giữ gìn vệ sinh lớp học",Pos
Gv dạy rất tận tình và chuyên sâu,Pos
Nghiêm khắc với nề nếp kỉ luật,Pos
Liên hệ thực tế cho sinh viên,Pos
"Rất sạch sẽ, dạy kĩ càng",Pos
tác phong nghiêm túc,Pos
Chuẩn mực vấn đề 5s,Pos
Giáo viên kĩ tính,Pos
Thầy dạy rất hay,Pos
Tác phong đúng,Pos
giảng dễ hiểu,Pos
Nghiêm khắc,Pos
Tuyệt vời ạ,Pos
Nghiêm túc,Pos
nhiệt tình,Pos
Nhiệt tình,Pos
nhiet tinh,Pos
Giảng tốt,Pos
Đúng giờ,Pos
Tận tâm,Pos
Tận tâm,Pos
"Quá trình tương tác giữa GV và SV sôi động, kiến thức của GV truyền đến SV nhiều và tương đối dễ hiểu.",Pos
"Vui vẻ, nhiệt tình, giảng dễ hiểu, tạo cho sinh viên khả năng tìm tòi, học hỏi.",Pos
Cô có tinh thần trách nhiệm rất cao và tận tụy với sinh viên,Pos
Nói thêm cho sinh viên nhiều kiến thức liên quan bên ngoài,Pos
Giảng viên nhiệt tình trao đổi và hỗ trợ học viên,Pos
Cô rất quan tâm đến sinh viên và dạy rất hay,Pos
giảng viên giảng bài dễ hiểu và tận tâm,Pos
Cô giáo dạy rất nhiệt tình va vui vẽ,Pos
Cô dạy dễ hiểu Cô dạy dễ hiểu,Pos
"Hòa đồng, nhiệt tình",Pos
"Nhiệt tình, hăng say",Pos
Cô vô cùng yêu nghề,Pos
tận tình giảng bài,Pos
giọng nói rõ ràng,Pos
Cô giảng rất hay,Pos
Dạy dễ hiểu,Pos
Dạy hay ok,Pos
Giảng hay,Pos
giảng hay,Pos
rất tốt,Pos
"Giarng vien giảng dạy tận tình, củng cố kiến thức sâu giúp sinh viên dễ tiếp thu bài.",Pos
"Giảng viên rất nhiệt tình, trách nhiệm và đầy nhiệt huyết với công tác giảng dạy.",Pos
"Giao viên giảng dạy nhiet tinh, quan tam den sinh vien, co kien thuc chuyen mon",Pos
Cô Bình rất nhiệt tình truyền tải kiến thức cho sinh viên,Pos
Thường xuyên cập nhật tình hình xã hội trong giảng dạy,Pos
Giáo viên dạy nhiệt tình tận tình và dễ hiểu,Pos
Giảng bài rất nhiệt tình và thân thiện,Pos
"Nhiệt tình với sinh viên, dạy dễ hiểu",Pos
Với rất nhiệt tình trong giảng dạy,Pos
Rất nhiệt tình trong giảng dạy,Pos
"Cô rất nhiệt tình, và giản dị",Pos
GV kiến thức rộng và thực tế,Pos
"Nhiệt tình, tâm huyết",Pos
Giảng viên nhiệt tình,Pos
Nhiệt tình tận tâm,Pos
Rất nhiệt tình,Pos
cô dạy rất kỉ,Pos
năng nổ,Pos
dạy tốt,Pos
năng nổ,Pos
Vui vẻ,Pos
Giangr viên giảng dạy củng cố kiến thức bằng nhiều bài tập ngay sau khi dạy lý thuyết giúp học sinh hiểu bài nhanh vận dụng làm bài tập tốt.,Pos
"Cô nói tiếng anh hay, lên lớp đúng giờ, trách nhiệm",Pos
Có kiến thức về cac nơi trên thế giới,Pos
cô phát âm tiếng anh chuẩn dễ nghe,Pos
Giáo viên dạy nhiệt tình dễ hiểu,Pos
Liên hệ thực tế với môn học,Pos
Giảng viên nhiệt tình,Pos
"Dạy rõ ràng, dể hiêu",Pos
Có liên hệ thực tế,Pos
cô day hay dể hiểu,Pos
Giảng hay,Pos
"Giangr viên lồng ghép giữa bài giảng Anh-Việt làm đa dạng hóa trong bài dạy, giúp sinh viên mở rộng kiến thức.",Pos
"lên đúng giờ, phương pháp giảng dạy quốc tế, tạo không khí lớp học thoải mái, thầy nghiêm",Pos
cho sinh viên dịch nhiều tài liệu tiếng anh nâng cao ngoại ngữ và kiến thức gốc,Pos
liên hệ nhiều thực tiễn cho mỗi bài giảng để sinh viên năm bắt được bài học,Pos
Thầy có kiến thức đời sống rộng nên lúc thầy chia sẻ rất hay và thu hút,Pos
"nhiệt tình, tâm huyết, liên hệ thực tế nhiều để dễ hiểu bài hơn",Pos
"Kết hợp nhiều phương pháp, các tài liệu để chuẩn bị cho bài học",Pos
Đưa Tiếng anh vào giảng dạy giúp sinh viên nâng cao Tiếng anh,Pos
"Giảng bài rõ ràng, tạo điều kiện để sinh viên tự làm bài tập",Pos
"Vui vẻ, nhiệt tình, giảng dạy liên hệ thiwcj tiễn điển hình",Pos
"Thầy có kiến thức chuyên sâu, giảng dạy kỹ càng, dễ hiểu",Pos
"Thầy rất hài hước, tạo được hứng thú học cho sinh viên.",Pos
thầy dạy hay ... giúp sv trau dồi thêm tiếng anh,Pos
"Giáo viên hòa đồng , tạo hứng thú trong giờ học",Pos
Giảng bài gắn thực tiễn cùng lý thuyết dễ hiểu,Pos
sử dụng tiếng anh trong việc giảng dạy khá hay,Pos
"Thầy giỏi Ngoại ngữ, bài giảng toàn tiếng anh",Pos
"Vui vẻ, nhiệt tình, liên hệ thực tế nhiều.",Pos
Thầy luôn giải đáp thắc mắc của sinh viên,Pos
truyền đạt đầy đủ kiến thức cho sinh viên,Pos
Truyền đạt kiến thức thực tế nhiều,Pos
Truyền đạt kiến thức từ thực tiễn,Pos
Thường xuyên liên hệ thực tiễn,Pos
Giáo viên dạy tận tình dễ hiểu,Pos
Thầy giảng bài cụ thể dễ hiểu,Pos
Tiết học của thầy rất thú vị,Pos
Thầy hay liên hệ thực tế,Pos
Kiến thức thực tế hay,Pos
"GV dạy hay, dễ hiểu",Pos
dam bao gio len lop,Pos
Có liên hệ thực tế,Pos
"Vui vẻ, nhiệt tình",Pos
thầy giảng dễ hiểu,Pos
Thầy rất tận tình,Pos
rất nhiệt tình,Pos
thầy vui tính,Pos
thầy vui tính,Pos
Dạy dễ hiểu,Pos
Nhiệt huyết,Pos
nhiệt tình,Pos
Nghiêm túc,Pos
Nhiệt tình,Pos
nghiêm túc,Pos
nhiệt tình,Pos
Nó to rõ,Pos
Tích cực,Pos
Dạy tốt,Pos
Rõ rang,Pos
Good,Pos
tốt,Pos
"Giảng dạy nhiệt tình, kết hợp giữa lý thuyết và ví dụ giúp sinh viên hiểu rõ vấn đề.",Pos
"Tận tâm, hiểu Tận tâm, truyền đạt rõ ràng, dễ hiểu",Pos
Thầy dạy dễ tiếp thu và truyền đạt thông tin tốt,Pos
"nhiệt tình, kiến thức sâu rộng, vui vẻ",Pos
"Vui tính, liên hệ thực tiễn nhiều",Pos
"Giảng rõ ràng, nghiêm chỉnh",Pos
"giảng bài dễ hiểu, kỹ càng",Pos
trach nhiem va nhiet tinh,Pos
Thầy vui vẻ với sinh viên,Pos
"Thầy vui vẻ, nhiệt tình",Pos
"Thầy nhiệt tình, vui vẻ",Pos
"Nhiệt tình, đúng giờ",Pos
Kiểm tra đúng lịch,Pos
"Nhiệt tình, đầy đủ",Pos
"Vui vẻ, nhiệt tình",Pos
Thầy dạy dễ hiểu,Pos
thầy vui tính,Pos
Dạy dễ hiểu,Pos
Nhiệt huyết,Pos
thoải mái,Pos
Hài hước,Pos
Good,Pos
Tốt,Pos
"trách nhiệm, lên lớp đúng giờ, hiền lành, thân thiện với sinh viên",Pos
"Có liên hệ thực tế, kết hợp trò chowitrong giảng dạy",Pos
phương pháp cô dạy rất dể hiểu !! hay,Pos
Gv kiên nhẫn khi giảng giải cho sv,Pos
"Dễ hiểu, nhiệt tình với sinh viên",Pos
Giáo viên dạy nhiệt tình dễ hiểu,Pos
"giảng dạy nhiệt tình, dễ hiểu.",Pos
"than thien, vui ve, nhiet tinh",Pos
Nhiệt tình giải đáp thắc mắc,Pos
nhiệt tình giảng dạy,Pos
"Nhiệt tình,tận tâm",Pos
Cô giảng dễ hiểu,Pos
Chuyên nghiệp,Pos
Cô nhiệt tình,Pos
Nói rõ ràng,Pos
Dạy tốt,Pos
Dễ hiểu,Pos
dạy tốt,Pos
Vui,Pos
"GV nhiệt tình, quan tâm đến sinh viên",Pos
Cô giáo rất chú ý đến học sinh,Pos
Rất nhiệt tình với sinh viên,Pos
Giảng thực tế,Pos
Dạy dễ hiểu,Pos
tận tâm,Pos
Giảng dạy dễ hiểu và nhiệt tình,Pos
"cô nhiệt tình, hiền",Pos
"Vui vẻ, nhiệt tình.",Pos
"vui vẻ, nhiệt tình",Pos
Dạy hay,Pos
Ok,Pos
rất tích cực nge sinh viên,Pos
giáo viên giảng bài hay,Pos
Giảng dạy nhiệt tình,Pos
giảng viên dạy hay,Pos
cô tuyệt vời,Pos
dạy hay,Pos
dạy hay,Pos
Cô luôn cung cấp nhiững kiến thức chuyên ngành bổ ích từ lý thuyết cho đến thực tế,Pos
"Cô dễ thương, nhiệt tình, có trách nhiệm trong việc giảng dạy. rất bám sát thực tế",Pos
"giải thích rõ ràng , giúp tìm hiểu kỹ vấn đề",Pos
"GV nhiệt tình, quan tâm đến sinh viên",Pos
Nhiệt tình trong giảng dạy,Pos
rất chịu khó nge sinh viên,Pos
Giảng dễ hiểu và vui tính,Pos
Truyền đạt hết kiến thức,Pos
giáo viên giảng bài hay,Pos
Giảng dạy nhiệt tình,Pos
"nhiệt tình, tận tâm",Pos
"Nhiệt tình, vui vẻ",Pos
giảng viên dạy hay,Pos
Luôn theo sát sv,Pos
Rất nhiệt tình,Pos
giảng dạy hay,Pos
Dạy dễ hiểu,Pos
dạy dễ hiểu,Pos
"Cô cực kỳ nhiệt tình, luôn liên hệ thực tế cho dễ hiểu và luôn có những bài kiểm tra đánh giá để tạo cơ hội kiếm điểm cộng cho sv",Pos
"Cô nhiệt tình với tất cả sinh viên, trong giờ học lẫn bên ngoài. Tính cách cô diệp rất dễ mến và nhiệt tìnb với tụi em. Tụi em rất yêu mến cô",Pos
"Cực kỳ nhiệt tình, dễ hiểu , ví dụ cụ thể, có đầu tư trong giảng dạy, cô cực kỳ nhiệt huyết trong giảng dạy, yêu cô",Pos
"Cô dạy nhiệt tình, dễ hiểu tạo cảm hứng cho sinh viên trong giờ học",Pos
"Tận tình, tận tâm, luôn đầy nhiệt huyết và năng lượng !",Pos
Nhiệt tình hỗ trợ đóng góp ý kiến cho sinh viên,Pos
"Nhiều năng lượng, giảng dạy cực kì nhiệt tình",Pos
"Cô nhiệt tình, giảng bài dễ hiểu, dễ tiếp thu",Pos
"Cô rất nhiệt tình, dạy bám sát với thực tế",Pos
"Tận tâm, nhiệt tình, kiến thức sâu rộng",Pos
"GV nhiệt tình, quan tâm đến sinh viên",Pos
corat rat nhiet tinh voi sinh vien,Pos
Cô giảng rất hay và nhiệt tình,Pos
Dạy vui vẻ nhiệt tình dễ hiểu,Pos
cô giảng dayh rất nhiệt tình,Pos
giáo viên truyền đạt dễ hiểu,Pos
Nhiệt tình giảng dạy cho SV,Pos
"GV nhiệt tình, dạy dễ hiểu",Pos
Cô nhiệt tình giảng dạy,Pos
giáo viên dạy dễ hiểu,Pos
"nhiệt tình, gần gũi",Pos
"vui vẻ, nhiệt tình",Pos
Giảng hay dễ hiểu,Pos
rất nhiệt tình,Pos
Giảng chi tiết,Pos
Dạy vô cùng ok,Pos
Rất tận tình,Pos
Dạy dễ hiểu,Pos
Có tâm,Pos
"Cô đi đúng giờ, thông cảm cho sinh viên ăn sáng muộn, khuyến khích chúng em lấy điểm cộng, vui vẻ, nắm bắt nhiều xu hướng giới trẻ, có hiểu biết, khiêm tốn",Pos
Cô luôn vui vẻ trong quá trình giảng dạy,Pos
"GV nhiệt tình, quan tâm đến sinh viên",Pos
Giáo viên rất hòa đồng với học sinh,Pos
"hài hước, có nguyên tắc rõ ràng",Pos
"Dạy dễ hiểu, nhiệt tình",Pos
"Nhiệt tình, dễ hiểu",Pos
Kiến thức rộng,Pos
nhiệt huyết,Pos
Dạy dễ hiểu,Pos
Thoải mái,Pos
Giang hay,Pos
Dạy hay,Pos
tận tâm,Pos
Hay,Pos
"Vui vẻ, nhiệt tình, giúp sinh viên hiểu bài hơn bằng cách để sinh viên đóng các tình huống như thực tế.",Pos
"Cô giảng hay, nhiều bài từ thưc tế rất bổ ích, nhiệt tình",Pos
"giáo viên tận tình, có trách nhiệm trong giảng dạy",Pos
"Dạy dễ hiểu, nhiệt tình",Pos
có kinh nghiệm lâu năm,Pos
"Nhiệt tình,dạy dễ hiểu",Pos
"nhiệt tình, thoải mái",Pos
Nhiệt tình Nhiệt tình,Pos
Giảng dạy sát thực tế,Pos
Nhiệt tình giảng dạy,Pos
"nhiệt tình, tận tâm",Pos
Giảng dạy tận tinh,Pos
rất nhiệt tình,Pos
Rất nhiệt tình,Pos
"hòa đồng, hiền",Pos
Nhiệt tình,Pos
giảng hay,Pos
Giảng hay,Pos
tận tình,Pos
Toẹt với,Pos
Rất hay,Pos
Dễ hiểu,Pos
Dạy hay,Pos
Có tâm,Pos
Giáo viên rất nhiệt tình,Pos
truyền đạt kiến thức tốt,Pos
Thầy có trình độ cao,Pos
dạy rất nhiệt tình,Pos
giáo viên tích cực,Pos
thầy nhiệt tình ạ,Pos
giảng dạy khá tốt,Pos
Thầy dạy dễ hiểu,Pos
lên lớp đúng giờ,Pos
Thầy dạy rất hay,Pos
rất tốt,Pos
vui vẻ,Pos
"thầy luôn tạo không khí tốt khi giảng dạy, bài giảng khoa học.",Pos
"Tận tình, nhiệt huyết với Sinh, phong cách dạy chu đáo",Pos
"GV nhiệt tình, hài hước, hòa đồng với SV",Pos
Thầy dạy quá hay luôn ạ.,Pos
Thầy dạy nhiệt tình,Pos
dạy rất nhiệt tình,Pos
"vui vẻ, nhiệt tình",Pos
"nhiệt tình, vui vẻ",Pos
Thầy dạy rất hay,Pos
thầy dạy dễ hiểu,Pos
"Vui vẻ, gần gũi",Pos
thầy vui tính,Pos
Nhiệt tình,Pos
rất tốt,Pos
vui vẻ,Pos
"thầy luôn tạo không khí tốt khi giảng dạy, bài giảng khoa học.",Pos
Thầy rất nhiệt tình trong việc truyền tải kiến thức cho sinh viên,Pos
"Vui vẻ, nhiệt tình",Pos
dajy rat hang hai,Pos
nhiet tinh,Pos
"cho sinh viên ggiao vấn đề để lớp tự chia nhóm và tìm hiểu,sau đó sẽ đưa ra những vấn đề cần trao đổi và giảng viên sẽ đút kết,giải quyết vấn đề thông qua việc trao đổi với sinh viên",Pos
"thầy luôn tạo không khí tốt khi giảng dạy, bài giảng khoa học.",Pos
Thầy rất vui tính và nhiệt tình.,Pos
Giáo viên vui vẻ hòa đồng,Pos
Vui tính,Pos
Dạy tốt,Pos
Cụ thể,Pos
Vui vẻ,Pos
"Thầy dạy rất tâm lý sinh viên, nói cho sinh viên biết về tầm quan trọng của họp phần này cũng như việc lên lớp.",Pos
"Thầy dạy dễ hiểu, giúp học sinh có đam mê với nghề",Pos
"Thầy hiền, giúp đỡ nhiều cho sinh viên",Pos
"Thầy hiền, giúp đỡ nhiều cho sinh viên",Pos
"giáo viên hoạt bát, lôi cuống giờ học",Pos
Thầy rất vui tính và nhiệt tình.,Pos
Thầy dạy rất có cảm hứng :3,Pos
Giáo viên vui vẻ hòa đồng,Pos
Giáo viên rất nhiệt tình,Pos
truyền đạt kiến thức tốt,Pos
cho nhiều bài tập về nhà,Pos
truyền đạt kiến thức tốt,Pos
thầy rất nghiêm khắc ạ,Pos
vui tính nhiệt tình,Pos
dạy rất nhiệt tình,Pos
"nhiệt tình, vui vẻ",Pos
dạy rất nhiệt tình,Pos
"hài hước, vui tính",Pos
giảng dạy dể hiểu,Pos
vui vẻ nhiệt tình,Pos
Thầy dạy rất hay,Pos
Thầy dạy rất hay,Pos
thầy dạy dễ hiểu,Pos
Không ý kiến gì,Pos
Vui nhiệt tình,Pos
thầy rất tốt ạ,Pos
giảng dễ hiểu,Pos
giảng dễ hiểu,Pos
đồ án ổn định,Pos
Giảng dậy tốt,Pos
Giảng dễ hiểu,Pos
tất tốt,Pos
Dễ hiểu,Pos
rất tốt,Pos
Dạy tốt,Pos
Vui vẽ,Pos
Cụ thể,Pos
Vui vẻ,Pos
giỏi,Pos
giỏi,Pos
"Nhiệt tình , dễ chịu trong việc giúp sinh viên",Pos
"thầy giảng hay kỹ và dễ hiểu, nhiệt tình",Pos
thầy giảng dạy rất kỹ và nhiệt tình...,Pos
"Thầy hiền, giúp đỡ nhiều cho sinh viên",Pos
thầy rất tận tình vs Sv khi giảng dạy,Pos
thầy giảng dạy rất kỹ và nhiệt tình,Pos
không còn gì có thể chê thầy được,Pos
"GV chỉ bảo, giảng dạy nhiệt tình",Pos
rất nhiệt tình trong giảng dạy,Pos
Thầy giảng dạy rất nhiệt tình.,Pos
thầy rất quang tâm sinh viên,Pos
thầy như vậy là em vui rồi,Pos
"nhiệt tình, có trách nhiệm",Pos
nhiệt tình trong giảng dạy,Pos
thầy rất hiểu ý sinh viên,Pos
Thầy nói nhỏ nhẹ dễ hiểu,Pos
Khăng khái dạy trên lớp,Pos
thầy rất nhiệt tình,Pos
"Nhiệt tình, gần gũi",Pos
Thầy dạy nhiệt tình,Pos
"Vui vẻ, nhiệt tình",Pos
"nhiệt tình, vui vẻ",Pos
dạy rất nhiệt tình,Pos
"nhiệt tình, vui vẻ",Pos
"nhiệt tình, vui vẻ",Pos
Hoà đồng vui tính,Pos
Thầy dạy rất hay,Pos
Thầu dạy dễ hiểu,Pos
rất nhiệt tình ạ,Pos
Thầy dạy rất hay,Pos
Thầy dạy rất hay,Pos
nói to rõ ràng,Pos
giảng chi tiết,Pos
rất hài lòng,Pos
nhiệt tình,Pos
không ý kiến,Pos
nhiệt tình,Pos
không ý kiến,Pos
Nhiệt tình,Pos
Nhiệt tình,Pos
tôi đồng ý,Pos
Vui tính,Pos
Dạy tốt,Pos
Khá,Pos
Tận tình vs SV trong quá trình giảng dạy,Pos
Kết hợp giữa lí thuyết và thực tiễn,Pos
Dạy dễ hiểu sinh viên dễ tiếp cận,Pos
Thầy rất vui tính và nhiệt tình.,Pos
Nhiệt tình và cởi mở với SV,Pos
hòa đồng với mọi sinh viên,Pos
thầy giảng rất hay và vui.,Pos
Nhiệt tình với sinh viên,Pos
Giáo viên rất nhiệt tình,Pos
truyền đạt kiến thức tôt,Pos
Giáo vên vui vẻ hòa đồng,Pos
tận tình với học sinh,Pos
thầy vui vẻ hoạt bát,Pos
vui tính nhiệt tình,Pos
giảng dạy thoải mái,Pos
thầy rất vui vẻ ạ,Pos
giảng dạy dễ hiểu,Pos
Vui vẻ nhiệt tình,Pos
Giảng hay dễ hiểu,Pos
giảng nhiệt tình,Pos
Dễ hiểu Dễ hiểu,Pos
giảng dễ hiểu,Pos
"Giảng hay,tốt",Pos
không ý kiến,Pos
thầy dạy vui,Pos
Vui tính,Pos
K ý kiến,Pos
Rất đúng,Pos
Vui tính,Pos
Hài hước,Pos
rất tốt,Pos
Nhiệt tình,Pos
Nhiệt tình,Pos
Tận tâm,Pos
Cô luôn liên hệ thực tiễn trọng mọi bài học . Điều này thật sự tụi em rất thích.,Pos
"Thầy dạy kĩ và nhiệt tình, cách truyền đạt rất dễ hiểu",Pos
"giáo viên nhiệt tình, chú trọng những phần trọng tâm",Pos
Dạy khá hay và kết hợp trên thực tế rất tuyệt vời.,Pos
"cô tận tình, giảng dạy sát với thực tế công việc",Pos
Cô vui tính và tạo điều kiện cho sv tự học cao,Pos
Giảng viên luôn định hướng cho sinh viên,Pos
"Cô nhiệt tình giảng, tư vấn nhiều bổ ích",Pos
Giảng viên luôn định hướng cho sinh viên,Pos
"Dạy nhiệt tình, có nhiều bài vận dụng",Pos
"Liên hệ thực tế rất nhiều, vui vẻ",Pos
Truyền đạt thông tin dễ hiểu,Pos
nhiệt tình trong giảng dạy,Pos
"Vui vẻ, nhiệt tình",Pos
"Vui vẻ, dạy tốt",Pos
Giảng dễ hiểu,Pos
Tận tình,Pos
Vui vẻ,Pos
tốt,Pos
Thầy dạy rất kỹ và chi tiết . Đồng thời cộng điểm rất công tâm . Công nhận đầy đủ những nổ lực từ sinh viên !Thầy giúp sinh viên học tốt cả lý thuyết và thực tế nên làm em rất hứng thú môn học ! Cảm ơn thầy !,Pos
"Thầy rất hiền, hay cười, đi học có điểm danh,giảng bài rất hay và dễ hiểu.",Pos
"Thầy nhiệt tình, dạy dễ hiểu và liên hệ thực tế rất nhiều",Pos
"Thầy dạy nhiệt tình, có nhiều ví dụ thực tế minh họa",Pos
"nhiệt tình, áp dụng công việc thực tế vào bài giảng",Pos
Nhiệt tình giảng dạy và trả lời mọi thắc mắc của sv,Pos
Luôn tạo cho sinh viên tính liên hệ nghề nghiệp ca,Pos
Thường xuyên có những liên hệ với thực tiễn,Pos
Thầy giảng bài rất nhiệt tình và dễ hiểu,Pos
Nhiệt tình. Giảng dễ hiểu,Pos
Nhiệt tình và thân thiện,Pos
"Nhiệt tình, trách nhiệm",Pos
"Thầy nhiệt tình,vui vẻ",Pos
Vận dụng thực tế nhiều,Pos
Thầy giảng bài dễ hiểu,Pos
"- dễ hiểu, nhiệt tình",Pos
Thầy dật nhiệt huyết,Pos
"nhiệt tình, hòa đồng",Pos
"Vui vẻ, nhiệt tình",Pos
có nhiều bài tập,Pos
Giảng dễ hiểu,Pos
Dạy dễ hiểu,Pos
tốt vui vẻ,Pos
Nhiệt tình,Pos
tận tình,Pos
Hòa đồng,Pos
"Hướng dẫn sv làm bài tập, và thường xuyên kiểm tra kết quả làm bài tập của sv thông qua các bài kiểm tra nhỏ.",Pos
"GV hiền, vui tính, cởi mở khi nói chuyện với sinh viên",Pos
Cho làm nhiều bài tập vận dụng để dễ hiểu bài hơn,Pos
"Cô dạy hay cuốc hút, giảng bài dễ hiểu",Pos
Giảng dạy nhiệt tình và thân thiện,Pos
GV thường xuyên liên hệ thực tế,Pos
"Cô giảng bài nhiệt tình lắm,",Pos
"Cô hiền, nhiệt tình chỉ dẫn",Pos
Phưong pháp truyền đat tốt,Pos
Nhiệt tình trong giảng dạy,Pos
Dạy nhiệt tình chỉ tiết,Pos
Nhiệt tình giảng dạy,Pos
Giảng dạy dễ hiểu,Pos
Giảng dễ hiểu,Pos
Cho đề ôn tập,Pos
Dạy tận tình,Pos
Dạy dễ hiểu,Pos
Tâm huyết,Pos
Vui vẻ,Pos
Cô dạy dễ hiểu và nhiệt tình với sinh viên,Pos
"Vui vẻ, xây dựng bài dễ hiểu",Pos
Giảng viên đến lớp đúng giờ,Pos
nói to rõ giảng bài dễ hiểu,Pos
Nhiệt tình và thân thiện,Pos
"Cô nhiệt tình,cố gắng",Pos
Nhiệt tình Nhiệt tình,Pos
Cô giảng nhiệt tình,Pos
Cô dạy rất kĩ càng,Pos
"Nhiệt tình, vui vẻ",Pos
Giảng dể hiểu,Pos
Dạy dễ hiểu,Pos
Giáo viên nhiệt tình giảng day và giúp đỡ sinh viên,Pos
CÔ DẠY RẤT NHIỆT TÌNH,Pos
Rất nhiệt tình,Pos
Tích cực,Pos
Chịu khó,Pos
Dạy tốt,Pos
Chu đáo,Pos
"Tạo bầu không khí thoải mái cho sinh viên, cách giảng dễ hiểu và liên hệ thực tiễn tốt",Pos
"Cô truyền đạt kiến thức châmh, chắc và dễ hiểu",Pos
"Tâm huyết, thân thiện, truyền đạt dễ hiểu",Pos
Vui tính tận tâm với việc giảng dạy,Pos
dạy tốt,Pos
dạy hay,Pos
Vui vẻ,Pos
"rất thích cách dạy của cô, giúp tụi e rất nhiều thứ để biết thêm về công việc bản thân thích gì hướng cho tụi e con đường nào để theo",Pos
"cách giảng dạy của cô làm em rất hài lòng, mong gặp cô trong môn tiếp theo",Pos
"dạy nhiệt tình, tích cực, nói năng nhỏ nhẹ , truyền đạt thông tin bổ ích",Pos
Dễ mến. Cô quan tâm lớp. Giảng dạy dễ hiểu rất kỹ,Pos
cô dạy nhiệt tình và có phương pháp dạy dễ hiểu,Pos
Cô rất là vui vẻ dạy rất tốt có tâm trong nghề,Pos
"Nhiệt tình ,có trách nhiệm",Pos
GV dạy nhiệt tình,Pos
Cô dạy nhiệt tình,Pos
cô dậy nhiệt tình,Pos
Cô dậy rất tốt,Pos
Cô dạy rất hay,Pos
"Cách dạy dễ hiểu, nội dung bài học đc giảng viên truyền đạt rất hay. Tạo đk để sv bắt buộc phải làm bài tập về nhà đầy đủ",Pos
"Cô giảng bài dễ hiểu, em có thắc mắc một số chỗ thì đều được cô giải đáp nhiệt tình qua mail",Pos
"Cô nhiệt tình , hay cho nhiều ví dụ để học sinh nắm rõ",Pos
Cô luôn tới lớp đúng giờ và cho học sinh làm bài tập,Pos
"phương pháp rõ ràng, dễ hiểu, dễ nắm bt kiến thức",Pos
"Cô dạy dễ hiểu,và dạy rất đúng giờ",Pos
Nhiệt tình dễ hiểu,Pos
Có rất nhiệt tình,Pos
Nhiệt tình vui vẻ,Pos
Dạy nhiệt tình,Pos
dạy dễ hiểu,Pos
nhiệt tình,Pos
vui tính,Pos
"nhiệt tình, có trách nhiệm trong giảng dạy",Pos
"Cô giảng rất nhiệt tình, dễ hiểu",Pos
cô vui vẻ. giảng hay dễ hiểu,Pos
Dạy dễ hiểu Dạy dễ hiểu,Pos
Cô dạy rất nhiệt tình,Pos
Hướng dẫn tận tình,Pos
Giảng dạy dễ hiểu,Pos
Nhiệt tình cởi mở,Pos
Cô dạy nhiệt tình,Pos
cô dạy dễ hiểu,Pos
Dạy nhiệt tình,Pos
Nhiệt tình,Pos
Dạy dễ hiểu,Pos
nhiệt tình,Pos
dạy tốt,Pos
Vui ve,Pos
Tốt,Pos
"Giảng viên nhiệt tình, thân thiện",Pos
Giáo viên giảng dạy nhiệt tình,Pos
Dạy đúng chương trình,Pos
Cô dạy nhiệt tình,Pos
Tận tình chu đáo,Pos
dễ hiểu,Pos
"Cô giảng rất chậm , tận tình ,cô vui vẻ và hài hước . Ban đầu khi nghe cô giới thiệu đã nghĩ không tốt về cô . Sau khi học rồi thấu có lỗi với cô lắm . Rất thương cô . Và ... xin lỗi cô.",Pos
"Cô giảng rất hay, cô rất yêu nghề, tận tình với sinh viên, có cách dạy và phương pháp học hiện đại.",Pos
"giáo viên có phương pháp giảng dạy hay, sinh viên dễ tiếp thu, dễ hiểu",Pos
"dạy vô cùng tốt, truyền đạt dễ hiểu, vô cùng tuyệt vời",Pos
"Cô dạy nhiệt tình, cách truyền đạt dễ hiểu",Pos
"Cô dạy rất nhiệt tình, bài giảng dễ hiểu",Pos
truyền đạt thông tin giảng dạy rất tốt,Pos
Đến lớp đúng giờ và giảng dạy tốt,Pos
GIẢNG VIÊN GIẢNG DẠY NHIỆT TÌNH,Pos
Nhiệt tình giảng bài dễ hiểu,Pos
Nhiệt tình trong giảng dạy,Pos
"Nghiêm túc, dạy dể hiểu",Pos
Rất nhiệt tình dễ hiểu,Pos
Nhiệt tình giảng dạy,Pos
"Nhiệt tình,dễ hiểu",Pos
"Nhiệt tình, vui vẻ",Pos
Giảng bài dễ hiểu,Pos
"Vui vẻ, giảng hay",Pos
Giảng bài hay,Pos
dạy dễ hiểu,Pos
Dạy dễ hiểu,Pos
Hay,Pos
"Thầy dạy rất nhiệt tình, quan tâm sinh viên và tạo điều kiện tự học rất cao",Pos
Thầy dạy dễ hiểu và vận dụng được nhiều bài tập để hiểu hơn,Pos
"Giảng bài dễ hiểu, có liên hệ với thực tế nhiều",Pos
Giảng viên luôn gắn thực tế với môn học,Pos
"Thầy vui vẻ, dạy nhiệt tình, dễ hiểu",Pos
Thầy dạy rất ngắn gọn và dễ hiểu !,Pos
"Đảm bảo nội dung, nhiệt tình",Pos
"Thầy nhiệt tình, vui ve",Pos
Giảng bài dễ hiểu,Pos
GV dạy nhiệt tình,Pos
"Cô hiền, giảng bài rất dễ hiểu,dạy tới đâu hiểu tới đó nên nắm chắc kiến thức dễ dàng.",Pos
"Truyền đạt dễ hiểu, có sự kết hợp giữa l UB éc thuyết và bài tập",Pos
GV hướng dẫn chi tiết cụ thể,Pos
"Vui vẻ, nhiệt tình",Pos
Cô dạy chậm và kỹ,Pos
cô dạy dễ hiểu,Pos
Cô dạy dễ hiểu,Pos
Dạy dễ hiểu,Pos
Nhiệt huyết,Pos
cô vui vẻ,Pos
hài lòng,Pos
Dễ hiểu,Pos
giáo viên giảng dạy rất nhiệt tình và tận tâm,Pos
Dạy dễ hiểu,Pos
Nhiệt tình,Pos
Nhiệt tình,Pos
- dẽ hiểu,Pos
ko,Pos
"Thầy dạy dễ hiểu, nội dung bài học súc tích và quan tâm sinh viên. Ngoài việc học thầy còn dạy cho sinh viên các kỹ năng khác",Pos
"Thầy hiền, và luôn lắng nghe ý kiến từ sinh viên . Luôn hỗ trợ cho sinh viên mình",Pos
"giáo viên giảng dạy đưa ra dẫn chứng thực tiễn, phương pháp dạy hay dễ tiếp thu.",Pos
"Thầy hiền, giảng dạy lý thuyết và thực hành song song, dạy dễ hiểu.",Pos
Tạo cho sinh viên tính liên hệ thực tế với nghề nghiệp cao,Pos
Giảng dạy chi tiết và lấy nhiu ví dụ thực tế,Pos
Giáo viên giảng dạy nhiệt tình và tận tâm,Pos
Truyền đạt thông tin rất bổ ích,Pos
Nhiệt tình Nhiệt tình,Pos
"hài hước , nhiệt tình",Pos
Nhiệt tình giảng dạy,Pos
Thầy dạy nhiệt tình,Pos
"Nhiệt tình, vui vẻ",Pos
"Nhiệt tình, vui vẻ",Pos
"Giáo viên giảng dạy nhiệt tình,rất sẵn lòng giải thich cho sinh viên những vấn đề thắc mắc/",Pos
Giảng viên giảng dạy rất nhiệt tình,Pos
Nhiệt tình giảng dạy,Pos
Dạy rất dễ hiểu,Pos
Em mong cô sắp xếp thời gian hợp lý để cả lớp có thể đi học đúng buổi học. Lịch học thực hành không ở trong giờ hành chính sẽ rất khó cho các bạn không đi được.,Pos
"Giáo viên giảng dạy tận tâm,nhiệt tình giúp đỡ sinh viên",Pos
GV tạo điều kiện thực hành nhiều cho sinh viên,Pos
Giáo viên giảng dạy nhiệt tình và tận tâm,Pos
GV tạo điều kiện học tập cho sinh viên,Pos
Giảng viên nhiệt tình giảng dạy,Pos
"Nhiệt tình, dạy dễ hiểu",Pos
Giảng viên nhiệt tình,Pos
"Dạy dễ hiểu, vui vẻ",Pos
Cô dậy nhiệt huyết,Pos
"Vui vẻ, nhiệt tình",Pos
Cô nhiệt tinh,Pos
Giảng dễ hiểu,Pos
Giảng dễ hiểu,Pos
Cô thân thiện,Pos
Nhiệt tình,Pos
Nhiệt tình,Pos
cô vui vẻ,Pos
dễ hiểu,Pos
Vui vẻ,Pos
"Vui vẻ, nhiệt tình, tận tâm, có trách nhiệm và đầy nhiệt huyết.",Pos
"giáo viên vui vẻ, nhiệt tình, tận tình trong giảng dạy",Pos
"Nhiệt tình trong giảng dạy, ôn hoà, vui vẻ",Pos
"Giảng bài chi tiết, và nhiu ví dụ",Pos
Truyền đạt thông tin rất dễ hiểu,Pos
"hoà đồng , nhiệt tình",Pos
Giảng dạy nhiệt tình,Pos
"nhiệt tình, vui vẻ",Pos
"Nhiệt tình, vui vẻ",Pos
Cô nhiệt tình,Pos
tốt vui vẻ,Pos
Nhiệt tình,Pos
nhiệt tình,Pos
- dễ hiểu,Pos
Giảng viên rất nhiệt tình trong quá trình giảng dạy,Pos
"nhiệt tình, có trách nhiệm",Pos
tốt,Pos
"Cô dạy hay, kĩ càng, không hiểu chỗ nào cô sẽ giảng kĩ lại và hướng dẫn cụ thể.",Pos
"Cô dạy dễ hiểu, có thể vận dụng ngay vào bài",Pos
"Nhiệt tình, trách nhiệm",Pos
Nhiệt tình,Pos
"Nhiệt tình, vui vẻ, trách nhiệm. Nhiệt tình, vui vẻ, trách nhiệm.",Pos
"Sôi nổi, nhiệt tình",Pos
"Thầy dạy rất tốt, có bữa thầy bệnh có cô khác đến dạy thay nhưng e ko hiểu nên đã về",Pos
giảng bài dễ hiểu,Pos
Thầy dạy dễ hiểu,Pos
Thầy nhiệt tình,Pos
"tốt,dạy ân cần",Pos
Thay day tot,Pos
Nhiệt tình,Pos
Nhiệt tình,Pos
Tích cực,Pos
dễ hiểu,Pos
Dạy tốt,Pos
Chu đáo,Pos
Thầy dạy kĩ và dễ hiểu. Thầy dạy cũng nhiệt tình nữa.,Pos
Giảng viên nhiệt tình trong quá trình giảng dạy,Pos
"Thầy dạy chậm, chắc kiến thức và dễ hiểu",Pos
giảng viên nhiệt tình gảng dạy,Pos
GV phân tích rõ vấn đề,Pos
Dạy dễ hiểu,Pos
Thầy nghiêm,Pos
"GV thân thiện, quan tâm đến sinh viên",Pos
Giảng viên nhiệt tình giảng giải,Pos
"nói chuyện lưu loát, rõ ràng",Pos
"Nhiệt tình, tâm huyết",Pos
Coi dạy có tâm,Pos
day de hieu,Pos
Nhiệt tình,Pos
tốt vui vẻ,Pos
Nhiệt tình,Pos
- dễ hiểu,Pos
tận tình,Pos
"Cô giảng rất hay,cũng rất nhiệt tình, cũng rất hài hước vui vẻ, nhưngbđooi khi cũng rất nghiêm túc",Pos
Giảng viên nhiệt tình trong quá trình giảng dạy,Pos
GV tập trung phát triển kỹ năng làm việc nhóm,Pos
"Dễ hiểu, liên hệ thực tế rõ ràng, nhiệt tình",Pos
"Cô truyền đạt dễ hiểu, dễ nắm bắt bài nhanh",Pos
Cô cho bai tap de cung cô kiên thức,Pos
"Nhiệt tình, tâm huyết",Pos
nhiệt tình giảng dạy,Pos
"Nhiệt tình, vui vẻ",Pos
vui vẻ nhiệt tình,Pos
day de hieu,Pos
tận tình,Pos
Tận tình,Pos
Dễ hiểu,Pos
Dạy tốt,Pos
dạy tốt,Pos
"Cô dạy rất hay, dễ hiểu, nội dụng bài học hay và ngắn gọn, cô rất nhiệt tình và hài hước",Pos
Cô rất nhiệt tình giảng cho sv hiểu bài nắm rõ kiến ghức,Pos
"Cô giảng dạy nhiệ tình , cực kỳ dễ hiểu",Pos
Giảng viên nhiệt tình trong quá trình giảng dạy,Pos
"Nhiệt tình, dẫn dắt bài dễ hiểu, vui vẻ",Pos
"Giáo viên nhiệt tình, dạy dễ hiểu bài",Pos
Giảng viên rất nhiệt tình khi lên lớp,Pos
"Dạy dễ hiểu, cách truyền đạt rõ ràng",Pos
"Nhiệt tình, trách nhiệm, vui vẻ",Pos
Giảng hay dễ hiểu và sát bài,Pos
"Giảng kĩ;dễ hiểu, nhiệt tình",Pos
"Cô nhiệt tinh,có trách nhiệm",Pos
"Tân tâm, kiến thức sâu rộng",Pos
"Hòa đồng, dạy dễ hiểu",Pos
GV hướng dẫn chi tiết,Pos
Giảng dễ hiểu,Pos
Nhiệt huyết,Pos
Cô dạy hay,Pos
giảng hay,Pos
Tận tình,Pos
Khong co,Pos
kĩ càng,Pos
tốt,Pos
"biết quan tâm đến sinh viên, nhiệt tình giảng dạy",Pos
Giao viên giang hay,Pos
"nhiệt tình, vui vẻ",Pos
tốt vui vẻ,Pos
Nhiệt tình,Pos
- dễ hiểu,Pos
Giảng dạy tận tâm,Pos
kiến thức rộng,Pos
Cô dạy hay,Pos
Nhiệt tình,Pos
tận tình,Pos
tốt,Pos
"Dạy hay , không nhàm chán ,cố gắng giảng bài khi các bạn chưa hiểu.",Pos
"Nhiệt tình, vui vẻ, giúp đỡ sinh viên hết mình",Pos
Nhiệt huyết khi giảng dạy,Pos
"Nhiệt tình, vui tính",Pos
Giảng dạy nhiệt tình,Pos
Nhiet tinh,Pos
Chịu khó,Pos
Dạy tốt,Pos
Vui vẻ và nhiệt tình với sinh viên,Pos
"nhiệt tình, giảng dạy dễ hiểu",Pos
Giảng dễ hiểu,Pos
Giảng dạy tốt,Pos
Dạy giỏi,Pos
Vui vẻ,Pos
Ưu điểm,Pos
Tốt,Pos
cô nhiệt tình với sinh viên,Pos
Rất nhiệt huyết. rất có tâm,Pos
Cô dạy nhiệt tình,Pos
Dạy dể hiểu,Pos
Nhiệt tình,Pos
hay,Pos
Tốt,Pos
"Giảng viên nhiệt tình, cung cấp nhiều kiến thức bổ ích cho sinh viên",Pos
tốt,Pos
Rất nhiệt tinh giang day,Pos
"Nhiệt tình, hoà đồng",Pos
Giảng dạy chi tiết,Pos
Rất nhiệt tình,Pos
Tận tình,Pos
Tốt,Pos
Dễ hiểu,Pos
Vui vẻ,Pos
"Đến lớp đúng giờ, giảng dạy nhiệt tình",Pos
cô rất chu đáo nhiệt tình,Pos
Gv nhiệt tình,Pos
Rất nhiệt tình,Pos
very good <3,Pos
Nhiệt tình,Pos
Dạy tốt,Pos
Tốt,Pos
"cô nhiệt tình, chu đáo và cực kỳ quan tâm sinh viên. yêu cô",Pos
Phương pháp dạy dễ hiểu,Pos
Cô dạy nhiệt tình.,Pos
"Vui vẻ, tận tình",Pos
nhiệt tình,Pos
Tốt,Pos
"lằng nghe sinh viên, giáo viên có tâm có tầm",Pos
"lằng nghe sinh viên, giáo viên có tâm có tầm",Pos
Cô dạy nhiệt tình và dễ hiểu,Pos
Dễ hiểu,Pos
thầy rất vui tính và nhiệt tình,Pos
"Vui vẻ, tận tình với sinh viên",Pos
"thầy vui tính, nhiệt tình",Pos
giọng nói hay truyền cảm,Pos
Thầy vui tính.,Pos
Thầy vui tính.,Pos
Nhiệt huyết,Pos
Nhiệt tình,Pos
Tận tình,Pos
Tận tâm,Pos
Tốt,Pos
Cô vui tính. Nhiệt tình.,Pos
Phương pháp dạy dễ hiểu,Pos
"Cô vui tính, nhiệt tình",Pos
cô giảng dễ hiểu bài,Pos
CÔ GIẢNG DỄ HIỂU,Pos
Vui vẻ,Pos
Dạy dễ hiểu,Pos
Nhiệt tình,Pos
năng nổ,Pos
"cô thoải mái, không căng thẳng trong khi học.",Pos
cô năng động và nhiệt tình giảng dạy,Pos
Cô dạy nhiệt tình.,Pos
"Vui vẻ, tận tình",Pos
Dạy dễ hiểu,Pos
dễ thương,Pos
Tốt,Pos
"cô hiền lành, nhiệt tình và luôn quan tâm tới sinh viên",Pos
cô rất nhiệt tình và quan tâm từng sinh viên,Pos
Phương pháp giảng dạy dễ hiểu bài,Pos
Phương pháp dạy dễ hiểu,Pos
Cô dạy nhiệt tình,Pos
"Vui vẻ, tận tình",Pos
Nhiệt tình,Pos
năng nổ,Pos
Tốt,Pos
Thiết bị máy chiếu đầy đủ,Pos
đảm bảo trang thiết bị cho phòng học,Pos
có thiết bị dạy và học đầy đủ,Pos
Cơ sở vật chất đầy đủ,Pos
"Phân bố giáo trình hợp lý, dễ hiểu",Pos
Trang thiết bị trường đầy đủ,Pos
Cơ sở vật chất đầy đủ,Pos
Trang bị thiết bị mới,Pos
Thiết bị tốt.,Pos
Quá tốt k có gì để nói,Pos
Đam bảo máy móc trang thiếc bị,Pos
phòng học khang trang trang thiếp bị tốt. cám ơn nhà trường rất nhiều,Pos
"Phòng học kín âm, trang thiết bị và đồ dùng mọi thứ rất ok ạ!",Pos
không có ưu điểm chỉ toàn nhược điểm,Neg
Nghiêm khắc,Neg
E không biết j hết,Neg
"Mong GV cho thực hành thực tiễn nhiều hơn, lý thuyết khá nhiều",Neg
Thêm phần thực hành nhiều hơn,Neg
Chương đầu mệnh đề tương đối khó hiểu vì vậy nếu được cần thầy có cách truyền đạt để gần gũi với học sinh,Neg
"GV giảng dạy hơi khô khan, làm sinh viên ít hứng thú.",Neg
vì là môn học khó mong thầy dạy chậm lại một chút,Neg
mong thầy bớt chửi sinh viên ngu!!!,Neg
giảng chậm lại,Neg
Nói rõ hơn,Neg
Chậm hơn,Neg
giảng viên cần đổi mới phương pháp học tập hơn nữa để tăng tính hiệu quả cho sinh viên,Neg
Nói to rõ mạch lạc để tránh gây buồn ngủ,Neg
Cần nói to rõ để cho SV nghe và hiểu,Neg
Thầy nói chậm lại và to hơn ạ,Neg
giảng quá nhanh không hiểu,Neg
Giảng chậm lại một chút,Neg
ít nghiêm khắc 1 chút,Neg
Bớt nóng tính hơn,Neg
Em không thích cách giảng dạy của cô...vì đây là bộ môn đstt chứ không phải những môn xã hội mà cô lúc nào cũng trình chiếu slide. Không chỉ riêng mình em mà em nghĩ tất cả các bạn khác cũng vậy...slide giống y như sách giáo trình cô cứ ngồi trên bàn đọc cho tụi em nghe mà không hề lấy vd rồi giảng cho tụi em hiểu...cô cũng ít cho làm bài tập trên lớp .Toàn lấy vd trong sách,Neg
"Cô chỉ dạy bằng slide , không dùng bảbg , môn này lại khó hiểu, chỉ đọc slide là thật sự không hiểu nổi , rất khó tiếp thu, nguyên cả học kì chỉ biết được mỗi chương 1 vì đã học ở cấp 3 . Các chương sau thực sự rất nản , không hiểu bài, cô lại không quan tâm , ai học thì học , không thì thôi . Em thấy rất buồn ạ .",Neg
Cô nên bổ sung kiến thức từ kinh nghiệm và bên ngoài thay vì dạy i hệt trong sách. Đồng thời cũng nên hạn chế cho sinh viên nghỉ,Neg
Mong rằng cô sẽ giảng và viết lên bảng,Neg
Cô nên giảng thay vì đọc sách ra,Neg
Giảng bài kĩ hơn,Neg
Nên nhắc nhở nhẹ hơn là mắng vù làm như vậy sinh viên đã lớn sẽ cảm thấy quê trước bạn bè,Neg
thầy cần cho làm nhiều bài kiểm tra hơn,Neg
hướng dẫn sinh viên tự học nhiều hơn,Neg
Cần nói to hơn và dễ nghe hơn,Neg
"Nên giảm thiểu việc lớn tiếng với sinh viên, dừng lại việc nói khóe hoặc có những hành động trừng mắt, dọa nạt, công kích sinh viên. Kỉ luật là tốt nhưng thầy còn thiên hướng cảm tính trong việc nhận định sinh viên và những lời nói vô tình không những không cải thiện tình trạng mà nó cố tình chạm vào cảm xúc tinh thần của SV trở nên tồi tệ hơn. Nếu những lời nói này thật sự đến với thầy thì em xin nhắn một câu: 'Mặc dù Thầy là người dạy giỏi nhưng không có nghĩa là Thầy có quyền buông ra lời nói khiếm nhã đối với sinh viên của chính mình. Như vậy, đối với tụi em chỉ có e dè lời nói của thầy chứ không có sự tôn trọng của Tôn sư học đạo đáng lẽ nên có'.",Neg
"Hạn chế thô lỗ, cộc cằn với sinh viên. Không nên la mắng sinh viên. Thái độ giáo viên cực kỳ không tốt, không nhiệt tình, rất thô lỗ",Neg
Bớt la mắng,Neg
Cần quan tâm hơn với những học sinh học chưa tốt,Neg
cần giảng lại bài cũ cho sv rõ hơn nữa,Neg
Hoàn thiện kỹ năng hơn nữa,Neg
"cần dạy học tận tâm hơn, giao lưu để tạo cảm giác gần gũi với sinh viên",Neg
cần giảng lại bài cũ cho sv rõ hơn nữa,Neg
giảng chậm lại,Neg
Tránh tình trạng quá nghiêm,Neg
Qúa nghiêm,Neg
Thầy nói to hơn cho sinh viên không buồn ngủ ạ,Neg
Không nên cho học sinh chép bài nhiều,Neg
"em không hiểu thầy đang dậy gì trên lớp cả, nói thật sách đã khó hiểu thầy nói còn khó hiểu hơn, đến nổi không chỉ em mà hơn nữa lớp không muốn đi học tiết của thầy. mông thầy cải thiện lại cách dậy và cách truyền đạt kiến thức đến tụi em. em xin cảm ơn ạ",Neg
cần bổ sung thêm nhiều kiến thức mới hơn nửa,Neg
cần đưa nhiều kiến thức mới vào trong môn học,Neg
thầy cần có đưa nhiều kiến thức chuyên sâu hơn vào môn học,Neg
thay đổi cách dạy sẽ làm tụi em hứng thú hơn trong học tập đó cô ơi!,Neg
"học thực hành, lên lớp giảng viên chỉ đưa ra các chủ đề cho sinh viên tự tìm hiểu, không hề hướng dẫn cho sinh viên, giống như cho sinh viên mượn phòng thực hành cho sinh viên tự tìm hiểu, sau khi kết thúc học phần, sinh viên vẫn không tiếp thu được kiến thức gì",Neg
"Thầy lên lớp chỉ có chửi sinh viên. Không hướng dẫn sinh viên làm thực hành, tạo cho sinh viên cảm giác căng thẳng, áp lực. Sau khi học xong không tiếp thu được kiến thức gì cả.",Neg
cần bổ sung nhiều kiến thức mới cho môn học,Neg
Cần thêm thiết bị thực hành.,Neg
cần đưa những kiến thức bổ ích hơn trong giảng dạy,Neg
cần giảng kỹ hơn và bày nhiều cách làm bài tập,Neg
"Thưa cô, bọn em biết là cô là một gv xih đẹp nhưng mà bọn em nhìn vào cô là vì bọn em không hiểu cô đang nói gì (cô nói nhanh quá). Mong cô đừng tự k.... và những lúc đó cô nói chậm lại để bọn em hiểu rõ hơn. Em xin cảm ơn",Neg
Nhờ thầy nhiệt tình hơn nữa,Neg
Nâng cao phương pháp giảng dạy,Neg
Giảng viên không nên quá khó tính trong tiết dạy của mình.,Neg
Dạy chưa tương tác với học sinh học sinh chưa cảm thấy hứng thú trong giờ học,Neg
"Nói còn nhỏ,không nghe rõ cho sinh viên ngồi xa,dạy còn nhanh,tua bài còn nhanh",Neg
Mong giáo viên dạy kĩ hơn,Neg
Thầy quá gắt. Khiến sinh viên sợ hãi không dám bầy tỏ ý kiến riêng.,Neg
thái độ của thầy nên tích cực lên. Bọn em cũng chỉ là sinh viên thôi.,Neg
Mong giáo viên hướng dẫn thực hành kĩ hơn,Neg
giảng bài chậm hơn để sinh viên nắm bắt,Neg
Bớt lí thuyết không quan trọng,Neg
Bớt lí thuyết không quan trọng,Neg
Nên có lịch dạy thường xuyên hơn,Neg
Giảm bớt những vấn đề không liên quan bài học,Neg
Em mong cô nên có trò chơi trog quá trình dạy để sinh viên vừa tự học vừa thích thú hơn ạ,Neg
Đảm bảo thời gian lên lớp được đầy đủ,Neg
Học phần này gần như là sinh viên tự học. Vẫn chưa được giới thiệu tài liệu nào có liên quan. THầy chỉ nói sơ qua về việc làm bài báo cáo chứ không nói rõ nội dung cần những gì nên sinh viên vẫn chưa nắm được.,Neg
Còn đi công tác quá nhiều nên không giảng dạy được nhiều kiến thức phải học bù nhiều ngày,Neg
Nên đi sâu vào trọng tâm của bài học,Neg
Nhiệt tình hơn,Neg
tận tình hơn,Neg
Nếu có thể mong thầy bớt so sánh SV Đại Học và Sinh Viên hệ sau đại học.,Neg
Nên giảm áp lực cho sinh viên,Neg
Giảng dễ hiểu thêm xíu nữa ạ,Neg
Thời khóa 3 tiết trong khi đó cô chỉ dạy có 2 tiết là về. Đóng tiền học đủ nhưng tiết dạy thì lại không đủ . Mong cô dạy đúng tiết dùm tụi em,Neg
Theo em cô nên giải 1 vài bài tập mẫu trước để sv dễ hiểu hơn,Neg
Cần có thái độ tích cực hơn với sinh viên. Ngưng nhăn nhó chỉ vào mặt sinh viên,Neg
"Cô nên dễ tính hơn, giao lưu một cách vui vẻ với học sinh nhiều hơn",Neg
Mong cô có thể cho tụi em làm bài kt đề mở như các thầy cô khác ạ,Neg
GV không nên để sinh viên phải tự tìm hiểu bài mới quá nhiều,Neg
Trong tiết học nên tạo không khí thoải mái hơn cho sinh viên,Neg
Đừng cấu gắt với sinh viên đừng hét khi nói đừng nói to,Neg
"Cần Nhiệt tình, tạo không khí nhẹ nhàng khi học tập",Neg
"Cần giảng nhiều hơn, bớt nhăn nhó,cằn nhăn",Neg
"Cô hay la mắng học sinh nhiều, cô khó chịu",Neg
giảng chậm hơn để sinh viên dễ tiếp thu,Neg
Cô nên vui vẻ hơn trong các giờ lên lớp,Neg
Em hy vọng cô sẽ ít nói lớn tiếng ạ,Neg
Nên có phương pháp dạy hiệu quả hơn,Neg
Cần nghiêm khắc hơn nữa,Neg
Vui vẻ và thỏa mái hơn,Neg
Cô nên trình bày rõ ràng hơn trên bảng những phần quan trọng của bài học thay vì chỉ đọc cho sinh viên,Neg
nhiệt huyết hơn nữa,Neg
"học môn này dở mà thầy đi xuống xem bài tập miết, run muốn rớt tim, nhờ vậy mà lo lm bài, cảm ơn thầy!",Neg
Thầy cần luyện và giải nhiều bài tập hơn để nắm rõ lý thuyết,Neg
Cần cố gắng hơn trong việc truyền đạt bài giảng,Neg
nên bớt tạo áp lực đối với sinh viên,Neg
Có phương Pháp dạy tốt hơn cho sv,Neg
Giảng viên cần ít nóng giận hơn.,Neg
Thầy giảng bài kỹ hơn,Neg
Giảng bài tập kĩ hơn,Neg
Giảng cặn kẽ hơn,Neg
Thầy nên tạo 1 bầu không khí thoải mái hơn cho em hay các sinh viên khác để chất lượng buổi học đạt được kết quả tốt nhất có thể !^^,Neg
"Giáo viên nên dạy nhiều hơn là kiểm tra các việc như dọn dẹp lớp,lau bảng",Neg
Làm ơn bớt chửi học sinh và nói rõ những yêu cầu để học sinh làm tốt hơn,Neg
Cần dành thời gian vào vấn đề chính của môn học nhiều hơn,Neg
Em mong thầy đừng nói nhiều chuyện ngoài lề trong giờ học,Neg
Không nên v Không nên chen vào ý kiến sinh viên đang nói,Neg
Áp dụng một cách nhẹ nhàng chuẩn mực của Nhật Bản,Neg
Sinh viên muốn được dành thời gian học nhiều hơn,Neg
giáo viên dạy chưa trọng tâm nhiều về bài học,Neg
Nên chú ý giảng bài nhiều hơn cho sinh viên,Neg
Thầy cần tập trung vào bài giảng nhiều hơn,Neg
dạy đúng chủ đề và bớt sử dụng 5s,Neg
Thầy cần phải dạy nhiều hơn,Neg
Nhẹ nhàng hơn trong giờ học,Neg
Mong thầy hạn chế chửi lại,Neg
Dạy ko đúng tiêu điểm bài,Neg
cần dạy vào vấn đề chính,Neg
Quá nghiêm khắc,Neg
"Cần giảng bài chậm và dễ hiểu hơn, không học bù theo lịch nghỉ nhà trường",Neg
Điểm nhóm cô cho từng nhóm hơi khắt khe,Neg
"Cô dạy môn này cực kì khó chịu, cô luôn đưa ra những câu hỏi nâng cao để sinh viên làm trong khi cô chưa giảng gì cả, những câu hỏi chuyên sâu mà chắc chắn rằng những người thành đạt, những người quản trị giỏi chưa chắc đã trả lời được. Làm việc teawork để thuyết trình theo ý sinh viên nhưng ko đúng ý cô thì điểm cao nhất chỉ là điểm 5 với lời góp ý của cô là ""chưa thực sự hiểu bài và ko tìm hiểu kĩ"". Cô dạy khó hiểu và luôn có thái độ vois sinh viên. Ngồi trong lớp học sinh viên luôn áp lực và dĩ nhiên điều đó ko giúp ích cho việc học.",Neg
"cô cần nói tiếng anh chậm hơn, bơi phần lớn kĩ năng nghe của sinh viên còn yếu",Neg
"Em nghĩ thầy nên chú trọng giảng dạy ví dự thực tế hơn để sinh viên có thể sáng tạo, thay vì quá lạm dụng tài liệu nước ngoài",Neg
dạ vâng.. tụi em học du lịch.. không phải ngôn ngữ anh.. thầy đừng bắt tụi em dịch mấy chục trang tiếng anh đó được k...,Neg
phương pháp giảng dạy dễ hiểu hơn,Neg
nên nhiệt tình giảng dạy hơn nữa.,Neg
Cô cho ra rất trễ làm ảnh hưởng đến tiết học sau của sinh viên mặc dù đã nhiều lần nói với cô,Neg
Thường xuyên tổ chức các phương pháp dạy học mới hơn,Neg
hướng dẫn sinh viên tự học nhiều hơn,Neg
giáo viên cầm mic theo để nói to hơn,Neg
Nói chậm hơn để tiếp thu nhiều hơn,Neg
mong muốn được thực hành nhiều hơn,Neg
Giảm bớt lượng bài tập nhóm,Neg
Kết hợp thực tế nhiều hơn,Neg
Cô giảng chậm lại tí tí,Neg
"những lúc cô nói là đọc lại cho lớp chép, bản thân em là người ghi chép khá nhanh nhưng đây là trường hợp đầu tiên em không theo kịp tốc độ đọc của cô ạ. em nghe có những bạn phía dưới cũng phàn nàn về việc này. cô cần nhấn mạnh lại lần nữa sau khi nói xong một ý thay vì chỉ nói một chữ ""Hiểu?"", chúng em không hiểu đâu ạ. Cách cô dạy rập khuôn hơn so với những cô giáo lớn tuổi. Có đôi khi em thấy cô hơi lạnh lùng nữa ạ.",Neg
Cần có nội dung thú vị đưa vào bài học,Neg
Khó tính yêu cầu cao,Neg
Khó hiểu lắm thầy ơi,Neg
GV cần hướng dẫn rõ ràng và đầy đủ hơn để sinh viên biết cách học và làm bài đầy đủ.,Neg
thầy tạo điều kiện cho chúng em thực tập nhìu hơn,Neg
cho sv chúng em được thực tập nhiều hơn,Neg
Mong thầy nghiêm khắc hơn với sv,Neg
Nói chậm hơn 1 chút,Neg
Nên có những phần chuyên sau hơn,Neg
Kết hợp thực tiễn nhiều hơn nữa,Neg
Cô nên nói to hơn nữa và có slide bài giảng rõ ràng cho sinh viên,Neg
Giảng chậm lại cho sinh viên hiểu,Neg
Sinh viên sai về ý thức thì cần nhắc nhở ngay. Đừng tự ý bỏ lớp mà không nói rõ lí do.,Neg
"Cần nhẹ nhàng, tình cảm hơn",Neg
"mong cô bớt giải thích lang mang, nên chọn cách dạy ngắn gọn và dễ hiểu nhất, cô dạy quá dài dòng, thay vì 2 tiết chỉ để sửa 1 bài tập thì nên ngắn gọn lại để có thể sửa được nhiều bài tập hơn để chúng e biết được nhiều dạng hơn. Cam ơn cô đã nghe góp ý",Neg
Cô nên giảng chậm lại và kỹ càng hơn một chút,Neg
Thiếu tôn trọng sinh viên cư xử thiếu chuẩn mực,Neg
Nói tiếng hơi khó nghe,Neg
Cô ép điểm sinh viên khá nhiều. Học đầy đủ làm bài kiểm tra cũng tạm ổn nhưng cô chẳng cho sinh viên 1 điểm nào. Em nghĩ cô cần rõ ràng hơn trong việc chấm bài thi. Cảm ơn cô ạ.,Neg
nên làm thực tế chớ dạy lý thuyết suông thì không hứng thú,Neg
Hơi áp lực cho sinh viên,Neg
"Giáo viên cần nói to hơn, bỏ qua mọi cảm trước trước khi đến lớp giảng dạy",Neg
"Nên dạy chi tiết hơn, giảng bài trên bảng để học sinh nắm rõ hơn.",Neg
Cô dạy chậm lại một chút sẽ hay hơn,Neg
Mong cô dạy nhiệt tình hơn nữa ạ,Neg
Mong thầy dạy do môn anh văn không dễ mà thầy toàn đê sinh viên tự học thầy không dạy tụi em không hiểu thời gian học trong buổi học nhiều hơn nhiều lúc rất tốn thời gian cho những việc không cần thiết,Neg
"thầy nên hiền lại và nói chuyện cở mở với chúng em, thầy không nên bắt làm bài sum mà không lấy điểm, vì như vậy sẽ không công bằng cho những bạn đã mất công làm sum ạ, còn những bạn không làm thì vẫn được điểm cao và không bị trừ điểm ạ",Neg
"Em cảm thấy áp lực và căng thẳng khi học môn của thầy,thầy nên tạo bầu không khí thoải mái,vui vẻ trong học tâp cho sinh viên để tiếp thu kiến thức một cách hiệu quả nhất .",Neg
Em mong thầy sẽ tạo nhiều cơ hội hơn để sinh viên có điểm cộng.,Neg
thầy dạy làm sinh viên cảm thấy căng thẳng trong tiết học,Neg
Tạo ra nhiều hoạt động giải trí trong việc học hơn,Neg
Hãy tích cực trao đổi với sinh viên,Neg
Giảng sâu hơn về nội dung cần học,Neg
Can than thien hon voi sinh vien,Neg
"Thân thiện hơn, mềm dẻo hơn chút",Neg
"Cách dạy hời hợt không mấy hiệu quả, luôn khiến sinh viên cảm thấy nhàm chán. Không thấy được sự nhiệt tình của giảng viên trong giảng dạy.",Neg
Giảng viên nên dạy nhiều ngữ pháp và bài tập nhiều hơn cho sinh viên thay vì show đáp án lên màn hình rồi gọi sv đứng dậy đọc,Neg
Em mong cô nói giọng lớn hơn.,Neg
đừng tạo áp lực cho học sinh,Neg
bớt la rầy sinh viên lại,Neg
"Cách cô dạy hơi nhanh, chúng em không thể ""tiêu hóa"" nhanh được, mong cô hãy đi chậm lại",Neg
máy móc (kỉnh hiển vi nổi) còn hỏng nhiều,Neg
giáo viên cần có phương pháp dạy hay hơn,Neg
Cần hỗ trợ thêm máy để sv nghiên cứu tốt hơn,Neg
Chất lượng máy chiếu còn kém khó quan sát khi học,Neg
"Lắp thêm máy quạt, bàn học mới cho sinh viên thoải mái trong học tập hơn.",Neg
máy chiếu hay bị hư,Neg
nâng cao chương trình giảng dạy,Neg
NÂNG CAO WIFI,Neg
Nhà trường cần sữa chữa các nối chắp nối máy chiếu ở các phòng.,Neg
Nhà trường cần nân cao hệ thống máy chiếu,Neg
Đi vào thực tế sản xuất nhiều hơn,Neg
PHÁT TRIỂN LẮP ĐẶT WIFI,Neg
Chất lượng máy chiếu kém,Neg
Cần hỗ trợ kinh phí cho sv khi thực hành nhiều hơn,Neg
LẮP WIFI,Neg
Mong nhà trường cho kiểm tra thực hành thực tiễn nhiều hơn giảm bớt lý thuyết lại,Neg
trang bị thêm thiết bị hỗ trợ học và giảng dạy :như bàn ghế ở giảng đường 6,Neg
"Tổ chức các csdl thực tế, làm mẫu cho sinh viên làm theo.",Neg
máy chiếu cần nâng cấp,Neg
cần xem xét lại hệ thống máy chiếu G2,Neg
đầu tư phòng máy tiện nghi hơn,Neg
Đầu tư mạng wifi cho giảng đường 03,Neg
trang bị máy chiếu công nghệ cao,Neg
Nâng cao hệ thống tự học,Neg
chương trình cồng kềnh,Neg
Thiết bị học tập tốt hơn,Neg
Cần coi lại máy chiếu,Neg
Máy chiếu hiện đại hơn,Neg
Thiết bị hỗ trợ học tập tốt hơn,Neg
máy chiếu bị hư,Neg
Nâng cấp hệ thống quạt ở g2 tầng 5,Neg
Thiết bị TV hoặc mic cần được cải thiện,Neg
"Gv quá tệ ko hiểu nổi trong môi trường học tập này vẫn còn gv như vậy .nghỉ dạy liên tiếp 4 tuần liền,lên lớp thì chẳng dạy gì cả kiếm cớ đủ trò để lớp ngồi chơi,bản thân thì ngồi bấm điện thoại nhịp đùi đã đời ra ngoài hút phì phèo,đi dậy thì chỉ mang bao thuốc lá,nói một từ mà ho 3 lần,nói năng kênh kiệu đôi khi còn xúc phạm,nhà trường muốn tốt cho sv mà lại cho gv như thế để dạy ak,những điều này hoàn toàn chính xác ko bịa đặt",Neg
nhà trường cần bó trí giảng viên giảng dạy để đảm bảo đủ giờ lêm lớp cho sinh viên 1 học phần 3 tín chỉ mà thầy chỉ lên lớp được 5 6 buổi thì không đảm bảo đủ kiến thức để làm bài thi,Neg
Thầy đạy bỏ cả tháng không lên lớp (4 tuần) làm em không thể theo kịp bài học,Neg
Nâng cao chất lượng wi-fi g2,Neg
Máy chiếu hiện đại hơn,Neg
máy chiếu quá dở,Neg
Trường xếp thời khóa biểu kh hợp lý. thiếu tiết quá nhiều !,Neg
"Trường phân công lịch, thời khóa biểu hợp lý hơn",Neg
Học phí cao,Neg
Thiết bị TV hoặc mic cần được cải thiện,Neg
nâng cấp máy chiếu,Neg
G4 104 cần sửa máy chiếu,Neg
Máy chiếu hư g4 104,Neg
Nâng cao cơ sở vật chất,Neg
cần đưa ra nhiều tài liệu bổ ích liên quan đến môn học,Neg
Cần thêm máy quạt cho phong học,Neg
"nhà trường nâng cao chất lượng phòng thực hành để khi sinh viên thực hành không bị thiếu đồ. sinh viên này phải chờ người này làm xong rồi mới tới lượt mình nên rất mất thời gian. Hy vọng giảng viên hướng dẫn thực hành cho sinh viên rồi sinh viên làm theo, thực tế sv chỉ mới học lý thuyết nên chưa có kiến thức về thực hành, nên rất mong muốn giảng viên truyền đạt kiến thức thực hành chứ không phải chỉ cho chủ đề rồi tự nghiên cứu. Thi xong vẫn không giải đáp các luận điểm đó",Neg
Nếu cứ để thầy ấy dạy nữa thì e rằng sẽ có rất ít sinh viên sẽ nhận được kiến thức sau học phần. Nếu thầy đã không còn tâm huyết với nghề giáo thì nhà trường nên cho thầy ấy về nghỉ hưu.,Neg
cần bổ sung những kiến thức thực tế hơn vào từng môn học,Neg
"Nên xem xét lại cách dạy và cách chấm bài của cô oanh vì cô chấm điểm không công tâm, và rất thích trừ điểm sinh viên một cách vô lý",Neg
cần trao đổi nhiệt tình với học sinh về những thắc mắc,Neg
"Đầu tư trang thiết bị, cơ sở vật chất",Neg
trang bị thêm thiết bị âm thanh ở NĐN,Neg
Tăng sự tương tác,Neg
Học 5 tiết 1 buổi là quá nhiều,Neg
cung cấp thêm ổ cắm để sv có thể thực hành tại lúc học,Neg
Nâng cấp máy chiếu,Neg
Nhà trường nên nâng cấp máy chiếu của các phòng học,Neg
Hỗ trợ thiết bị tại g6 vì mấy chiếu thường xuyên bị nhập chờn.,Neg
Thay đổi giáo viên dạy học phần này,Neg
Khắc phục sớm cơ sở hạ tầng,Neg
Nâng cấp cơ sở vật chất,Neg
Nhà trường cần phải cho học sinh thực hành nhiều hơn và làm quen nhiều hơn về tầm quan trọng của công nghệ thông tin hiện nay.,Neg
Cũng cố các thiết bị tốt cho sinh Viên,Neg
CẦn có nhiều phươg pháp giảng dạy tốt hơn,Neg
"Học phần này chủ yếu được chạy trên máy tính, nên khi kết nối máy tính với máy chiếu thường rất mờ",Neg
Cần tăng số tiết,Neg
Bố trí bục giảng phù hợp cho sinh viên để sinh viên thấy rõ bảng hơn.,Neg
"Là lớp CNTT thì máy chiếu rất quan trọng. Vì mọi thao tác đều phải thực hiện trên máy và thông qua máy chiếu. Nhưng trường lại bố trí cho lớp học ở phòng máy chiếu quá lởm, không nhìn thấy được gì kể cả ngồi ở bàn thứ 2. Giờ học bố trí sai thời điểm, ánh sáng làm chói cả bảng chiếu lẫn bảng con không thể thấy nổi. Rất mong nhà trường bố trí cho phòng học có máy chiếu tốt, điều kiện ánh sáng phù hợp để có thể dễ dàng quan sát. Thật sự cả 1 học kì vừa rồi, tôi không dám nhìn lên bảng chiếu lần 2, không thể theo dõi được thao tác của giáo viên. Đành phải tự học, nhưng học lập trình mà không theo dõi được trên bảng thì chỉ có rớt môn thôi.",Neg
Sao nhà trường không làm mỗi phòng có một cái điều khiển máy chiếu ạ. Mỗi lần mở máy chiếu là phải đi tìm.,Neg
"Phân bố giáo trình hợp lý, dễ hiểu",Neg
thiếu trang thiết bị phòng thực hành,Neg
Thời khóa biểu sớm hơn,Neg
một số phòng học không đặt TV ở giữa bảng nên hơi khó nhìn cho các bạn ngồi dãy trong của lớp ạ.,Neg
giảm bớt học sinh trong 1 lớp,Neg
Cần cải thiện chất lượng bàn ghế.cơ sở vật chất..1 số bàn ghế ở g3 bị tróc ra bụi rất nhiều.gây bẩn,Neg
Không để ý,Non
em không ý kiến gì,Non
Không,Non
Ok,Non
không có,Non
K có ý kiến,Non
Không có góp ý gì,Non
KHÔNG Ý KIẾN,Non
Không có,Non
Không có,Non
Không,Non
Ko,Non
Được,Non
Dạ em không có góp ý ạ,Non
Bình thường,Non
Tương đối hiểu,Non
Tạm ổn,Non
Không biết,Non
Ổn hết ạ,Non
có truyền đạt cho sv,Non
Không đóng góp gì thêm,Non
Sinh viên không có ý kiến,Non
không,Non
Được,Non
ko,Non
Ko,Non
Không ý kiến,Non
Bình thường,Non
không có,Non
không ạ,Non
Không,Non
không có ý kiến gì thêm,Non
K có,Non
Được,Non
Ok,Non
Ko có gì,Non
Không có,Non
Tạm được,Non
Em không có ý kiến gì thêm,Non
Không có đóng góp gì thêm,Non
Không có ý kiến,Non
Phát huy những điểm mạnh của mình,Non
em không có ý kiến gì thêm,Non
Không có ý kiến gì thêm,Non
Khong có dong gop,Non
hiệ tại hài lòng,Non
hài lòng,Non
hiện tại hài lòng,Non
Tạm ổn,Non
Ko có,Non
Không ý kiến,Non
Không có gì,Non
Không có,Non
Em không có ý kiến!,Non
không có ý kiến gì,Non
Ổn,Non
Ko,Non
Dạ em không có góp ý ạ,Non
Không ý kiến,Non
Không có gì,Non
Bình thường,Non
em nghĩ thầy không cần thay đổi gì ạ,Non
Giảng viên nhiệt tình hơn trong quă trình giảng dạy,Non
GV cần giảng dạy chi tiết hơn vào mỗi nội dung,Non
Cô hay đi dạy không đúng giờ,Non
không góp ý.,Non
Không có ý kiến gì thêm.,Non
Không có gì để góp ý,Non
Không có,Non
Ổn rồi ạ,Non
Bình thường,Non
đồng ý,Non
hiện tại hài lòng,Non
Sinh viên không có ý kiến,Non
Không có ý kiến,Non
Không có gì,Non
Không,Non
k có,Non
Không có ý kiến gì thêm.,Non
Không có gì để góp ý,Non
Không có,Non
Không ý kiến,Non
K có ý kiến,Non
Không có gì,Non
Ổn,Non
Không có gì để nói,Non
